(footprint "connector_5.00x2" (version 20221018) (generator pcbnew)
  (layer "F.Cu")
  (attr through_hole)
  (fp_text reference "REF**" (at 0 -0.5 unlocked) (layer "F.SilkS")
      (effects (font (size 1 1) (thickness 0.1)))
    (tstamp 511932dd-c2b3-4774-bb91-3d4612ea1050)
  )
  (fp_text value "connector_5.00x2" (at 0 1 unlocked) (layer "F.Fab")
      (effects (font (size 1 1) (thickness 0.15)))
    (tstamp f9262d68-a3c6-4edf-ac16-d7dd9b6c0637)
  )
  (fp_text user "${REFERENCE}" (at 0 2.5 unlocked) (layer "F.Fab")
      (effects (font (size 1 1) (thickness 0.15)))
    (tstamp 5328bd7d-0b4d-4cdd-a531-3b0c50a799fc)
  )
  (fp_line (start -5 -4) (end -5 3.8)
    (stroke (width 0.125) (type default)) (layer "F.SilkS") (tstamp f1ec7af3-e985-4bef-a419-6a72ce8a40c3))
  (fp_line (start -5 -4) (end 5 -4)
    (stroke (width 0.125) (type default)) (layer "F.SilkS") (tstamp a0f6b238-592e-4582-84c5-d5e765cbe77e))
  (fp_line (start -5 3.8) (end 5 3.8)
    (stroke (width 0.125) (type default)) (layer "F.SilkS") (tstamp 1ce1e3e8-4cf8-4464-80d4-ba2d0e533b0f))
  (fp_line (start -3.5 2) (end -3.5 3.8)
    (stroke (width 0.125) (type default)) (layer "F.SilkS") (tstamp 38cdc7e2-a600-46f6-a53b-4a6025174c63))
  (fp_line (start -3.5 2) (end -1.5 2)
    (stroke (width 0.125) (type default)) (layer "F.SilkS") (tstamp 73abe335-e2c8-452b-93d3-2bd3c3f95b3f))
  (fp_line (start -1.5 2) (end -1.5 3.8)
    (stroke (width 0.125) (type default)) (layer "F.SilkS") (tstamp bb42ab6f-f4fa-473b-8787-48ef1f9074f1))
  (fp_line (start 1.5 2) (end 1.5 3.8)
    (stroke (width 0.125) (type default)) (layer "F.SilkS") (tstamp 7405839b-e8a8-4515-8d20-1724479bf023))
  (fp_line (start 1.5 2) (end 3.5 2)
    (stroke (width 0.125) (type default)) (layer "F.SilkS") (tstamp 6f663f92-a9ff-4dd8-b6a8-e265d9f5fc5a))
  (fp_line (start 3.5 2) (end 3.5 3.8)
    (stroke (width 0.125) (type default)) (layer "F.SilkS") (tstamp 52af12fb-61f7-4ffb-a899-3977149c5d9d))
  (fp_line (start 5 -4) (end 5 3.8)
    (stroke (width 0.125) (type default)) (layer "F.SilkS") (tstamp 4552dfdd-e254-4e8b-b60c-463002754226))
  (pad "1" thru_hole circle (at -2.5 0) (size 1.8 1.8) (drill 1.3) (layers "*.Cu" "*.Mask") (tstamp e9c27eb0-5d2b-477d-8af1-a043a2ad1f82))
  (pad "2" thru_hole circle (at 2.5 0) (size 1.8 1.8) (drill 1.3) (layers "*.Cu" "*.Mask") (tstamp 9d6ba02a-d691-4272-9ec6-e9de16eb6c52))
  (model "/home/jasuramme/kicad/head/3dmodels/connector/screw_5_00x2/pxc_1935161_06_01_PT-1-5-2-5-0-H_3D.stp"
    (offset (xyz -5 -4 0))
    (scale (xyz 1 1 1))
    (rotate (xyz 0 0 0))
  )
)
