(footprint "D_SOD-523" (version 20221018) (generator pcbnew)
  (layer "F.Cu")
  (descr "http://www.diodes.com/datasheets/ap02001.pdf p.144")
  (tags "Diode SOD523")
  (attr smd)
  (fp_text reference "REF**" (at 0 -1.3) (layer "F.SilkS")
      (effects (font (size 1 1) (thickness 0.15)))
    (tstamp c50dc684-75be-4ac4-b3a0-067af92046d2)
  )
  (fp_text value "D_SOD-523" (at 0 1.4) (layer "F.Fab")
      (effects (font (size 1 1) (thickness 0.15)))
    (tstamp 10f24ae4-2e8d-4a59-9a48-b0b8a6ad9f6e)
  )
  (fp_text user "${REFERENCE}" (at 0 -1.3) (layer "F.Fab")
      (effects (font (size 1 1) (thickness 0.15)))
    (tstamp b222f083-3cbc-4c9c-a5aa-371827e20359)
  )
  (fp_line (start -0.65 -0.3) (end -0.65 -0.45)
    (stroke (width 0.1) (type default)) (layer "F.SilkS") (tstamp 9d949d49-96cd-4c56-82c1-fb78c2d4ddf5))
  (fp_line (start -0.65 0.3) (end -0.65 0.45)
    (stroke (width 0.1) (type default)) (layer "F.SilkS") (tstamp 026d2941-41af-4440-9398-f189920672f6))
  (fp_line (start -0.08 0) (end 0.05 0.2)
    (stroke (width 0.1) (type default)) (layer "F.SilkS") (tstamp cb01aa1c-3c95-4e7d-803b-15551c5d3570))
  (fp_line (start 0.05 -0.2) (end -0.08 0)
    (stroke (width 0.1) (type default)) (layer "F.SilkS") (tstamp a4c8cf29-72c9-4939-acd5-51627220ba1a))
  (fp_line (start 0.05 0.2) (end 0.05 -0.2)
    (stroke (width 0.1) (type solid)) (layer "F.SilkS") (tstamp 81ff7d43-bcd5-4137-80fb-4f3eb3f9dee1))
  (fp_line (start 0.65 -0.45) (end -0.65 -0.45)
    (stroke (width 0.1) (type solid)) (layer "F.SilkS") (tstamp 4d9110ee-61d5-4631-a45b-7c843228ada1))
  (fp_line (start 0.65 0.45) (end -0.65 0.45)
    (stroke (width 0.1) (type solid)) (layer "F.SilkS") (tstamp b8d33a8c-156a-4181-b596-261cb8ce284d))
  (pad "1" smd roundrect (at -0.635 0 180) (size 0.93 0.36) (layers "F.Cu" "F.Paste" "F.Mask") (roundrect_rratio 0.25) (tstamp b80112ad-d48c-4254-80e6-b21bef642156))
  (pad "2" smd roundrect (at 0.635 0 180) (size 0.93 0.36) (layers "F.Cu" "F.Paste" "F.Mask") (roundrect_rratio 0.25) (tstamp 501c5da5-c044-4132-a241-252b99430f42))
  (model "${KICAD6_3DMODEL_DIR}/Diode_SMD.3dshapes/D_SOD-523.wrl"
    (offset (xyz 0 0 0))
    (scale (xyz 1 1 1))
    (rotate (xyz 0 0 0))
  )
)
