(footprint "SOIC-14_3.9x8.7mm_P1.27mm" (version 20221018) (generator pcbnew)
  (layer "F.Cu")
  (descr "SOIC, 14 Pin (JEDEC MS-012AB, https://www.analog.com/media/en/package-pcb-resources/package/pkg_pdf/soic_narrow-r/r_14.pdf), generated with kicad-footprint-generator ipc_gullwing_generator.py")
  (tags "SOIC SO")
  (attr smd)
  (fp_text reference "REF**" (at -5.28 0 90) (layer "F.SilkS")
      (effects (font (size 1 1) (thickness 0.15)))
    (tstamp 34da5220-ae72-48f1-96e7-24f6406703e7)
  )
  (fp_text value "SOIC-14_3.9x8.7mm_P1.27mm" (at 0 5.28) (layer "F.Fab")
      (effects (font (size 1 1) (thickness 0.15)))
    (tstamp 2d0435f5-9ea9-44bd-b970-9b5d2cf70dc1)
  )
  (fp_text user "${REFERENCE}" (at 0 0 90) (layer "F.Fab")
      (effects (font (size 0.98 0.98) (thickness 0.15)))
    (tstamp 31d04be5-cd0b-4e22-93d3-239b4d090071)
  )
  (fp_line (start -4.435 0) (end -4.435 -1.95)
    (stroke (width 0.12) (type solid)) (layer "F.SilkS") (tstamp 079241f3-6a24-4547-af6d-468e5fa9a2be))
  (fp_line (start -4.435 0) (end -4.435 3.45)
    (stroke (width 0.12) (type solid)) (layer "F.SilkS") (tstamp 537b6886-3331-425d-8cbf-b570bbef113b))
  (fp_line (start 4.435 0) (end 4.435 -1.95)
    (stroke (width 0.12) (type solid)) (layer "F.SilkS") (tstamp 12cb2c35-cbe1-4e01-944c-15fba44bf423))
  (fp_line (start 4.435 0) (end 4.435 1.95)
    (stroke (width 0.12) (type solid)) (layer "F.SilkS") (tstamp fcf63c3e-030a-40e8-a04f-e9ab48706e4b))
  (fp_circle (center -3.75 0.75) (end -3.75 0.396447)
    (stroke (width 0.125) (type default)) (fill none) (layer "F.SilkS") (tstamp 23107649-2d97-4456-a8a3-03dedac5bcf7))
  (fp_line (start -4.58 -3.7) (end -4.58 3.7)
    (stroke (width 0.05) (type solid)) (layer "F.CrtYd") (tstamp 31b56082-b6a1-4599-98d7-c2fefd6ae06f))
  (fp_line (start -4.58 3.7) (end 4.58 3.7)
    (stroke (width 0.05) (type solid)) (layer "F.CrtYd") (tstamp af957e1a-a47c-48a8-bd59-d0db049b34c0))
  (fp_line (start 4.58 -3.7) (end -4.58 -3.7)
    (stroke (width 0.05) (type solid)) (layer "F.CrtYd") (tstamp dbcb10f9-5077-4307-813d-dbdacc268d33))
  (fp_line (start 4.58 3.7) (end 4.58 -3.7)
    (stroke (width 0.05) (type solid)) (layer "F.CrtYd") (tstamp b0df0f6b-95e5-4ade-8792-8893cbbe8355))
  (fp_line (start -4.325 -1.95) (end 4.325 -1.95)
    (stroke (width 0.1) (type solid)) (layer "F.Fab") (tstamp 22428d0a-c563-4143-8c71-15deb30fa2df))
  (fp_line (start -4.325 0.975) (end -4.325 -1.95)
    (stroke (width 0.1) (type solid)) (layer "F.Fab") (tstamp fbc6d2b9-ab3d-4265-b800-d23f6b15a1fd))
  (fp_line (start -3.35 1.95) (end -4.325 0.975)
    (stroke (width 0.1) (type solid)) (layer "F.Fab") (tstamp 22287b25-056b-41b0-bbc8-c5cd78ea4a1a))
  (fp_line (start 4.325 -1.95) (end 4.325 1.95)
    (stroke (width 0.1) (type solid)) (layer "F.Fab") (tstamp 3e4c2c0f-60f4-4b16-a2e7-f95320de822e))
  (fp_line (start 4.325 1.95) (end -3.35 1.95)
    (stroke (width 0.1) (type solid)) (layer "F.Fab") (tstamp a3e8b94e-f6da-41e4-a74c-56582ea53ae2))
  (pad "1" smd roundrect (at -3.81 2.475 90) (size 1.95 0.6) (layers "F.Cu" "F.Paste" "F.Mask") (roundrect_rratio 0.25) (tstamp b166f940-dd5d-4f89-948b-631eabb391af))
  (pad "2" smd roundrect (at -2.54 2.475 90) (size 1.95 0.6) (layers "F.Cu" "F.Paste" "F.Mask") (roundrect_rratio 0.25) (tstamp 2fcf1f14-a5b0-49df-8146-0794de011d0f))
  (pad "3" smd roundrect (at -1.27 2.475 90) (size 1.95 0.6) (layers "F.Cu" "F.Paste" "F.Mask") (roundrect_rratio 0.25) (tstamp 21513237-a0ed-4e85-8caf-828c5985a90a))
  (pad "4" smd roundrect (at 0 2.475 90) (size 1.95 0.6) (layers "F.Cu" "F.Paste" "F.Mask") (roundrect_rratio 0.25) (tstamp 9f04538d-09c8-4cb5-86e8-8575b2f2a055))
  (pad "5" smd roundrect (at 1.27 2.475 90) (size 1.95 0.6) (layers "F.Cu" "F.Paste" "F.Mask") (roundrect_rratio 0.25) (tstamp 34fee7c0-5427-4b22-b0c5-d87f62de7873))
  (pad "6" smd roundrect (at 2.54 2.475 90) (size 1.95 0.6) (layers "F.Cu" "F.Paste" "F.Mask") (roundrect_rratio 0.25) (tstamp 269deb3a-e33f-4406-b4f6-bc651dfc0e2a))
  (pad "7" smd roundrect (at 3.81 2.475 90) (size 1.95 0.6) (layers "F.Cu" "F.Paste" "F.Mask") (roundrect_rratio 0.25) (tstamp c8ef7eda-a43d-4659-bc99-fe5c2b4177fe))
  (pad "8" smd roundrect (at 3.81 -2.475 90) (size 1.95 0.6) (layers "F.Cu" "F.Paste" "F.Mask") (roundrect_rratio 0.25) (tstamp 41b3f83e-7bfb-450a-b7cb-dec7c54604b7))
  (pad "9" smd roundrect (at 2.54 -2.475 90) (size 1.95 0.6) (layers "F.Cu" "F.Paste" "F.Mask") (roundrect_rratio 0.25) (tstamp ddda4021-9c85-4762-9dfd-15dd727f59a2))
  (pad "10" smd roundrect (at 1.27 -2.475 90) (size 1.95 0.6) (layers "F.Cu" "F.Paste" "F.Mask") (roundrect_rratio 0.25) (tstamp 4229afcd-4f64-4061-8402-8a4fbd9b9ddb))
  (pad "11" smd roundrect (at 0 -2.475 90) (size 1.95 0.6) (layers "F.Cu" "F.Paste" "F.Mask") (roundrect_rratio 0.25) (tstamp 94513f22-5043-4ad5-830d-4fa7c1072656))
  (pad "12" smd roundrect (at -1.27 -2.475 90) (size 1.95 0.6) (layers "F.Cu" "F.Paste" "F.Mask") (roundrect_rratio 0.25) (tstamp 5fe4bae7-bd67-4497-be26-5d7fb1c912ec))
  (pad "13" smd roundrect (at -2.54 -2.475 90) (size 1.95 0.6) (layers "F.Cu" "F.Paste" "F.Mask") (roundrect_rratio 0.25) (tstamp 24ec25d2-1025-43b6-98c8-789f10a0db96))
  (pad "14" smd roundrect (at -3.81 -2.475 90) (size 1.95 0.6) (layers "F.Cu" "F.Paste" "F.Mask") (roundrect_rratio 0.25) (tstamp d19a0e66-4aa7-43bb-b41c-e8b6a4a8cbc4))
  (model "${KICAD6_3DMODEL_DIR}/Package_SO.3dshapes/SOIC-14_3.9x8.7mm_P1.27mm.wrl"
    (offset (xyz 0 0 0))
    (scale (xyz 1 1 1))
    (rotate (xyz 0 0 -90))
  )
)
