(kicad_symbol_lib (version 20220914) (generator kicad_symbol_editor)
  (symbol "LMR3801" (in_bom yes) (on_board yes)
    (property "Reference" "U" (at 0 1.27 0)
      (effects (font (size 1.27 1.27)))
    )
    (property "Value" "LMR3801" (at 1.27 -17.78 0)
      (effects (font (size 1.27 1.27)) hide)
    )
    (property "Footprint" "tolikprinter:VSSOP-8_3.0x3.0mm_P0.65mm_JLCPCB" (at -1.27 -16.51 0)
      (effects (font (size 1.27 1.27)) hide)
    )
    (property "Datasheet" "" (at -6.35 -3.81 0)
      (effects (font (size 1.27 1.27)) hide)
    )
    (property "Digikey" "https://www.digikey.com/en/products/detail/texas-instruments/LMR38010FDDAR/18158633" (at 0 -17.78 0)
      (effects (font (size 1.27 1.27)) hide)
    )
    (property "JLCPCB" "LMR38020SDDAR " (at -3.81 -17.78 0)
      (effects (font (size 1.27 1.27)) hide)
    )
    (property "JLCPCB Part #" "C3192337" (at -3.81 -17.78 0)
      (effects (font (size 1.27 1.27)) hide)
    )
    (property "JLCPCB Position Offset" "0.0, 0.0" (at -3.81 -17.78 0)
      (effects (font (size 1.27 1.27)) hide)
    )
    (property "JLCPCB Rotation Offset" "0" (at -3.81 -17.78 0)
      (effects (font (size 1.27 1.27)) hide)
    )
    (property "Manufacturer" "Texas Instruments" (at -3.81 -17.78 0)
      (effects (font (size 1.27 1.27)) hide)
    )
    (property "Part Number" "LMR38010FDDAR" (at -3.81 -17.78 0)
      (effects (font (size 1.27 1.27)) hide)
    )
    (property "Analogs" "LMR38020SDDAR" (at -3.81 -17.78 0)
      (effects (font (size 1.27 1.27)) hide)
    )
    (symbol "LMR3801_0_0"
      (text_box ""
        (at -6.35 0 0) (size 13.97 -10.16)
        (stroke (width 0) (type default))
        (fill (type color) (color 0 0 0 0))
        (effects (font (size 1.27 1.27)) (justify left top))
      )
    )
    (symbol "LMR3801_1_1"
      (pin passive line (at -8.89 -1.27 0) (length 2.54)
        (name "GND" (effects (font (size 1.27 1.27))))
        (number "1" (effects (font (size 1.27 1.27))))
      )
      (pin input line (at -8.89 -3.81 0) (length 2.54)
        (name "EN" (effects (font (size 1.27 1.27))))
        (number "2" (effects (font (size 1.27 1.27))))
      )
      (pin power_in line (at -8.89 -6.35 0) (length 2.54)
        (name "Vin" (effects (font (size 1.27 1.27))))
        (number "3" (effects (font (size 1.27 1.27))))
      )
      (pin input line (at -8.89 -8.89 0) (length 2.54)
        (name "RT/SYNC" (effects (font (size 1.27 1.27))))
        (number "4" (effects (font (size 1.27 1.27))))
      )
      (pin power_in line (at 10.16 -8.89 180) (length 2.54)
        (name "FB" (effects (font (size 1.27 1.27))))
        (number "5" (effects (font (size 1.27 1.27))))
      )
      (pin input line (at 10.16 -6.35 180) (length 2.54)
        (name "PG" (effects (font (size 1.27 1.27))))
        (number "6" (effects (font (size 1.27 1.27))))
      )
      (pin power_in line (at 10.16 -3.81 180) (length 2.54)
        (name "BOOT" (effects (font (size 1.27 1.27))))
        (number "7" (effects (font (size 1.27 1.27))))
      )
      (pin power_out line (at 10.16 -1.27 180) (length 2.54)
        (name "SW" (effects (font (size 1.27 1.27))))
        (number "8" (effects (font (size 1.27 1.27))))
      )
      (pin power_out line (at 0 -12.7 90) (length 2.54)
        (name "" (effects (font (size 1.27 1.27))))
        (number "9" (effects (font (size 1.27 1.27))))
      )
    )
  )
  (symbol "MP6002DN" (in_bom yes) (on_board yes)
    (property "Reference" "U" (at 0 1.27 0)
      (effects (font (size 1.27 1.27)))
    )
    (property "Value" "" (at 0 1.27 0)
      (effects (font (size 1.27 1.27)))
    )
    (property "Footprint" "" (at 0 1.27 0)
      (effects (font (size 1.27 1.27)) hide)
    )
    (property "Datasheet" "" (at 0 1.27 0)
      (effects (font (size 1.27 1.27)) hide)
    )
    (symbol "MP6002DN_1_1"
      (rectangle (start -5.08 0) (end 5.08 -12.7)
        (stroke (width 0) (type default))
        (fill (type background))
      )
      (pin passive line (at -7.62 -11.43 0) (length 2.54)
        (name "GND" (effects (font (size 1.27 1.27))))
        (number "1" (effects (font (size 1.27 1.27))))
      )
      (pin power_in line (at -7.62 -1.27 0) (length 2.54)
        (name "Line" (effects (font (size 1.27 1.27))))
        (number "2" (effects (font (size 1.27 1.27))))
      )
      (pin power_in line (at -7.62 -3.81 0) (length 2.54)
        (name "FB" (effects (font (size 1.27 1.27))))
        (number "3" (effects (font (size 1.27 1.27))))
      )
      (pin power_out line (at -7.62 -6.35 0) (length 2.54)
        (name "COMP" (effects (font (size 1.27 1.27))))
        (number "4" (effects (font (size 1.27 1.27))))
      )
      (pin input line (at 7.62 -6.35 180) (length 2.54)
        (name "RC" (effects (font (size 1.27 1.27))))
        (number "5" (effects (font (size 1.27 1.27))))
      )
      (pin power_in line (at 7.62 -11.43 180) (length 2.54)
        (name "VCC" (effects (font (size 1.27 1.27))))
        (number "6" (effects (font (size 1.27 1.27))))
      )
      (pin power_in line (at 7.62 -3.81 180) (length 2.54)
        (name "VIN" (effects (font (size 1.27 1.27))))
        (number "7" (effects (font (size 1.27 1.27))))
      )
      (pin power_out line (at 7.62 -1.27 180) (length 2.54)
        (name "SW" (effects (font (size 1.27 1.27))))
        (number "8" (effects (font (size 1.27 1.27))))
      )
      (pin power_in line (at 0 -15.24 90) (length 2.54)
        (name "PAD" (effects (font (size 1.27 1.27))))
        (number "9" (effects (font (size 1.27 1.27))))
      )
    )
  )
  (symbol "STM32H723ZGTx" (in_bom yes) (on_board yes)
    (property "Reference" "U" (at -10.16 91.44 0)
      (effects (font (size 1.27 1.27)) (justify left))
    )
    (property "Value" "STM32H723ZGTx" (at -7.62 91.44 0)
      (effects (font (size 1.27 1.27)) (justify left))
    )
    (property "Footprint" "Package_QFP:LQFP-144_20x20mm_P0.5mm" (at -27.94 -86.36 0)
      (effects (font (size 1.27 1.27)) (justify right) hide)
    )
    (property "Datasheet" "https://www.st.com/resource/en/datasheet/stm32h723zg.pdf" (at 0 0 0)
      (effects (font (size 1.27 1.27)) hide)
    )
    (property "ki_locked" "" (at 0 0 0)
      (effects (font (size 1.27 1.27)))
    )
    (property "ki_keywords" "Arm Cortex-M7 STM32H7 STM32H723/733" (at 0 0 0)
      (effects (font (size 1.27 1.27)) hide)
    )
    (property "ki_description" "STMicroelectronics Arm Cortex-M7 MCU, 1024KB flash, 564KB RAM, 550 MHz, 1.62-3.6V, 114 GPIO, LQFP144" (at 0 0 0)
      (effects (font (size 1.27 1.27)) hide)
    )
    (property "ki_fp_filters" "LQFP*20x20mm*P0.5mm*" (at 0 0 0)
      (effects (font (size 1.27 1.27)) hide)
    )
    (symbol "STM32H723ZGTx_1_1"
      (rectangle (start -27.94 88.9) (end 30.48 -86.36)
        (stroke (width 0.254) (type default))
        (fill (type background))
      )
      (pin bidirectional line (at -33.02 -33.02 0) (length 5.08)
        (name "PE2" (effects (font (size 1.27 1.27))))
        (number "1" (effects (font (size 1.27 1.27))))
        (alternate "DEBUG_TRACECLK" bidirectional line)
        (alternate "ETH_TXD3" bidirectional line)
        (alternate "FMC_A23" bidirectional line)
        (alternate "OCTOSPIM_P1_IO2" bidirectional line)
        (alternate "SAI1_CK1" bidirectional line)
        (alternate "SAI1_MCLK_A" bidirectional line)
        (alternate "SAI4_CK1" bidirectional line)
        (alternate "SAI4_MCLK_A" bidirectional line)
        (alternate "SPI4_SCK" bidirectional line)
        (alternate "USART10_RX" bidirectional line)
      )
      (pin bidirectional line (at -33.02 15.24 0) (length 5.08)
        (name "PF0" (effects (font (size 1.27 1.27))))
        (number "10" (effects (font (size 1.27 1.27))))
        (alternate "FMC_A0" bidirectional line)
        (alternate "I2C2_SDA" bidirectional line)
        (alternate "I2C5_SDA" bidirectional line)
        (alternate "OCTOSPIM_P2_IO0" bidirectional line)
        (alternate "TIM23_CH1" bidirectional line)
      )
      (pin bidirectional line (at 35.56 66.04 180) (length 5.08)
        (name "PA8" (effects (font (size 1.27 1.27))))
        (number "100" (effects (font (size 1.27 1.27))))
        (alternate "I2C3_SCL" bidirectional line)
        (alternate "I2C5_SCL" bidirectional line)
        (alternate "LTDC_B3" bidirectional line)
        (alternate "LTDC_R6" bidirectional line)
        (alternate "RCC_MCO_1" bidirectional line)
        (alternate "TIM1_CH1" bidirectional line)
        (alternate "TIM8_BKIN2" bidirectional line)
        (alternate "TIM8_BKIN2_COMP1" bidirectional line)
        (alternate "TIM8_BKIN2_COMP2" bidirectional line)
        (alternate "UART7_RX" bidirectional line)
        (alternate "USART1_CK" bidirectional line)
        (alternate "USB_OTG_HS_SOF" bidirectional line)
      )
      (pin bidirectional line (at 35.56 63.5 180) (length 5.08)
        (name "PA9" (effects (font (size 1.27 1.27))))
        (number "101" (effects (font (size 1.27 1.27))))
        (alternate "DAC1_EXTI9" bidirectional line)
        (alternate "DCMI_D0" bidirectional line)
        (alternate "ETH_TX_ER" bidirectional line)
        (alternate "I2C3_SMBA" bidirectional line)
        (alternate "I2C5_SMBA" bidirectional line)
        (alternate "I2S2_CK" bidirectional line)
        (alternate "LPUART1_TX" bidirectional line)
        (alternate "LTDC_R5" bidirectional line)
        (alternate "PSSI_D0" bidirectional line)
        (alternate "SPI2_SCK" bidirectional line)
        (alternate "TIM1_CH2" bidirectional line)
        (alternate "USART1_TX" bidirectional line)
        (alternate "USB_OTG_HS_VBUS" bidirectional line)
      )
      (pin bidirectional line (at 35.56 60.96 180) (length 5.08)
        (name "PA10" (effects (font (size 1.27 1.27))))
        (number "102" (effects (font (size 1.27 1.27))))
        (alternate "DCMI_D1" bidirectional line)
        (alternate "LPUART1_RX" bidirectional line)
        (alternate "LTDC_B1" bidirectional line)
        (alternate "LTDC_B4" bidirectional line)
        (alternate "MDIOS_MDIO" bidirectional line)
        (alternate "PSSI_D1" bidirectional line)
        (alternate "TIM1_CH3" bidirectional line)
        (alternate "USART1_RX" bidirectional line)
        (alternate "USB_OTG_HS_ID" bidirectional line)
      )
      (pin bidirectional line (at 35.56 58.42 180) (length 5.08)
        (name "PA11" (effects (font (size 1.27 1.27))))
        (number "103" (effects (font (size 1.27 1.27))))
        (alternate "ADC1_EXTI11" bidirectional line)
        (alternate "ADC2_EXTI11" bidirectional line)
        (alternate "ADC3_EXTI11" bidirectional line)
        (alternate "FDCAN1_RX" bidirectional line)
        (alternate "I2S2_WS" bidirectional line)
        (alternate "LPUART1_CTS" bidirectional line)
        (alternate "LTDC_R4" bidirectional line)
        (alternate "SPI2_NSS" bidirectional line)
        (alternate "TIM1_CH4" bidirectional line)
        (alternate "UART4_RX" bidirectional line)
        (alternate "USART1_CTS" bidirectional line)
        (alternate "USART1_NSS" bidirectional line)
        (alternate "USB_OTG_HS_DM" bidirectional line)
      )
      (pin bidirectional line (at 35.56 55.88 180) (length 5.08)
        (name "PA12" (effects (font (size 1.27 1.27))))
        (number "104" (effects (font (size 1.27 1.27))))
        (alternate "FDCAN1_TX" bidirectional line)
        (alternate "I2S2_CK" bidirectional line)
        (alternate "LPUART1_DE" bidirectional line)
        (alternate "LPUART1_RTS" bidirectional line)
        (alternate "LTDC_R5" bidirectional line)
        (alternate "SAI4_FS_B" bidirectional line)
        (alternate "SPI2_SCK" bidirectional line)
        (alternate "TIM1_BKIN2" bidirectional line)
        (alternate "TIM1_ETR" bidirectional line)
        (alternate "UART4_TX" bidirectional line)
        (alternate "USART1_DE" bidirectional line)
        (alternate "USART1_RTS" bidirectional line)
        (alternate "USB_OTG_HS_DP" bidirectional line)
      )
      (pin bidirectional line (at 35.56 53.34 180) (length 5.08)
        (name "PA13(JTMS" (effects (font (size 1.27 1.27))))
        (number "105" (effects (font (size 1.27 1.27))))
        (alternate "DEBUG_JTMS-SWDIO" bidirectional line)
      )
      (pin power_out line (at -33.02 -73.66 0) (length 5.08)
        (name "VCAP" (effects (font (size 1.27 1.27))))
        (number "106" (effects (font (size 1.27 1.27))))
      )
      (pin bidirectional line (at 35.56 50.8 180) (length 5.08)
        (name "PA14(JTCK" (effects (font (size 1.27 1.27))))
        (number "109" (effects (font (size 1.27 1.27))))
        (alternate "DEBUG_JTCK-SWCLK" bidirectional line)
      )
      (pin bidirectional line (at -33.02 12.7 0) (length 5.08)
        (name "PF1" (effects (font (size 1.27 1.27))))
        (number "11" (effects (font (size 1.27 1.27))))
        (alternate "FMC_A1" bidirectional line)
        (alternate "I2C2_SCL" bidirectional line)
        (alternate "I2C5_SCL" bidirectional line)
        (alternate "OCTOSPIM_P2_IO1" bidirectional line)
        (alternate "TIM23_CH2" bidirectional line)
      )
      (pin bidirectional line (at 35.56 48.26 180) (length 5.08)
        (name "PA15(JTDI)" (effects (font (size 1.27 1.27))))
        (number "110" (effects (font (size 1.27 1.27))))
        (alternate "ADC1_EXTI15" bidirectional line)
        (alternate "ADC2_EXTI15" bidirectional line)
        (alternate "ADC3_EXTI15" bidirectional line)
        (alternate "CEC" bidirectional line)
        (alternate "DEBUG_JTDI" bidirectional line)
        (alternate "I2S1_WS" bidirectional line)
        (alternate "I2S3_WS" bidirectional line)
        (alternate "I2S6_WS" bidirectional line)
        (alternate "LTDC_B6" bidirectional line)
        (alternate "LTDC_R3" bidirectional line)
        (alternate "SPI1_NSS" bidirectional line)
        (alternate "SPI3_NSS" bidirectional line)
        (alternate "SPI6_NSS" bidirectional line)
        (alternate "TIM2_CH1" bidirectional line)
        (alternate "TIM2_ETR" bidirectional line)
        (alternate "UART4_DE" bidirectional line)
        (alternate "UART4_RTS" bidirectional line)
        (alternate "UART7_TX" bidirectional line)
      )
      (pin bidirectional line (at 35.56 -25.4 180) (length 5.08)
        (name "PC10" (effects (font (size 1.27 1.27))))
        (number "111" (effects (font (size 1.27 1.27))))
        (alternate "DCMI_D8" bidirectional line)
        (alternate "DFSDM1_CKIN5" bidirectional line)
        (alternate "I2C5_SDA" bidirectional line)
        (alternate "I2S3_CK" bidirectional line)
        (alternate "LTDC_B1" bidirectional line)
        (alternate "LTDC_R2" bidirectional line)
        (alternate "OCTOSPIM_P1_IO1" bidirectional line)
        (alternate "PSSI_D8" bidirectional line)
        (alternate "SDMMC1_D2" bidirectional line)
        (alternate "SPI3_SCK" bidirectional line)
        (alternate "SWPMI1_RX" bidirectional line)
        (alternate "UART4_TX" bidirectional line)
        (alternate "USART3_TX" bidirectional line)
      )
      (pin bidirectional line (at 35.56 -27.94 180) (length 5.08)
        (name "PC11" (effects (font (size 1.27 1.27))))
        (number "112" (effects (font (size 1.27 1.27))))
        (alternate "ADC1_EXTI11" bidirectional line)
        (alternate "ADC2_EXTI11" bidirectional line)
        (alternate "ADC3_EXTI11" bidirectional line)
        (alternate "DCMI_D4" bidirectional line)
        (alternate "DFSDM1_DATIN5" bidirectional line)
        (alternate "I2C5_SCL" bidirectional line)
        (alternate "I2S3_SDI" bidirectional line)
        (alternate "LTDC_B4" bidirectional line)
        (alternate "OCTOSPIM_P1_NCS" bidirectional line)
        (alternate "PSSI_D4" bidirectional line)
        (alternate "SDMMC1_D3" bidirectional line)
        (alternate "SPI3_MISO" bidirectional line)
        (alternate "UART4_RX" bidirectional line)
        (alternate "USART3_RX" bidirectional line)
      )
      (pin bidirectional line (at 35.56 -30.48 180) (length 5.08)
        (name "PC12" (effects (font (size 1.27 1.27))))
        (number "113" (effects (font (size 1.27 1.27))))
        (alternate "DCMI_D9" bidirectional line)
        (alternate "DEBUG_TRACED3" bidirectional line)
        (alternate "FMC_D6" bidirectional line)
        (alternate "FMC_DA6" bidirectional line)
        (alternate "I2C5_SMBA" bidirectional line)
        (alternate "I2S3_SDO" bidirectional line)
        (alternate "I2S6_CK" bidirectional line)
        (alternate "LTDC_R6" bidirectional line)
        (alternate "PSSI_D9" bidirectional line)
        (alternate "SDMMC1_CK" bidirectional line)
        (alternate "SPI3_MOSI" bidirectional line)
        (alternate "SPI6_SCK" bidirectional line)
        (alternate "TIM15_CH1" bidirectional line)
        (alternate "UART5_TX" bidirectional line)
        (alternate "USART3_CK" bidirectional line)
      )
      (pin bidirectional line (at 35.56 -43.18 180) (length 5.08)
        (name "PD0" (effects (font (size 1.27 1.27))))
        (number "114" (effects (font (size 1.27 1.27))))
        (alternate "DFSDM1_CKIN6" bidirectional line)
        (alternate "FDCAN1_RX" bidirectional line)
        (alternate "FMC_D2" bidirectional line)
        (alternate "FMC_DA2" bidirectional line)
        (alternate "LTDC_B1" bidirectional line)
        (alternate "UART4_RX" bidirectional line)
        (alternate "UART9_CTS" bidirectional line)
      )
      (pin bidirectional line (at 35.56 -45.72 180) (length 5.08)
        (name "PD1" (effects (font (size 1.27 1.27))))
        (number "115" (effects (font (size 1.27 1.27))))
        (alternate "DFSDM1_DATIN6" bidirectional line)
        (alternate "FDCAN1_TX" bidirectional line)
        (alternate "FMC_D3" bidirectional line)
        (alternate "FMC_DA3" bidirectional line)
        (alternate "UART4_TX" bidirectional line)
      )
      (pin bidirectional line (at 35.56 -48.26 180) (length 5.08)
        (name "PD2" (effects (font (size 1.27 1.27))))
        (number "116" (effects (font (size 1.27 1.27))))
        (alternate "DCMI_D11" bidirectional line)
        (alternate "DEBUG_TRACED2" bidirectional line)
        (alternate "FMC_D7" bidirectional line)
        (alternate "FMC_DA7" bidirectional line)
        (alternate "LTDC_B2" bidirectional line)
        (alternate "LTDC_B7" bidirectional line)
        (alternate "PSSI_D11" bidirectional line)
        (alternate "SDMMC1_CMD" bidirectional line)
        (alternate "TIM15_BKIN" bidirectional line)
        (alternate "TIM3_ETR" bidirectional line)
        (alternate "UART5_RX" bidirectional line)
      )
      (pin bidirectional line (at 35.56 -50.8 180) (length 5.08)
        (name "PD3" (effects (font (size 1.27 1.27))))
        (number "117" (effects (font (size 1.27 1.27))))
        (alternate "DCMI_D5" bidirectional line)
        (alternate "DFSDM1_CKOUT" bidirectional line)
        (alternate "FMC_CLK" bidirectional line)
        (alternate "I2S2_CK" bidirectional line)
        (alternate "LTDC_G7" bidirectional line)
        (alternate "PSSI_D5" bidirectional line)
        (alternate "SPI2_SCK" bidirectional line)
        (alternate "USART2_CTS" bidirectional line)
        (alternate "USART2_NSS" bidirectional line)
      )
      (pin bidirectional line (at 35.56 -53.34 180) (length 5.08)
        (name "PD4" (effects (font (size 1.27 1.27))))
        (number "118" (effects (font (size 1.27 1.27))))
        (alternate "FMC_NOE" bidirectional line)
        (alternate "OCTOSPIM_P1_IO4" bidirectional line)
        (alternate "USART2_DE" bidirectional line)
        (alternate "USART2_RTS" bidirectional line)
      )
      (pin bidirectional line (at 35.56 -55.88 180) (length 5.08)
        (name "PD5" (effects (font (size 1.27 1.27))))
        (number "119" (effects (font (size 1.27 1.27))))
        (alternate "FMC_NWE" bidirectional line)
        (alternate "OCTOSPIM_P1_IO5" bidirectional line)
        (alternate "USART2_TX" bidirectional line)
      )
      (pin bidirectional line (at -33.02 10.16 0) (length 5.08)
        (name "PF2" (effects (font (size 1.27 1.27))))
        (number "12" (effects (font (size 1.27 1.27))))
        (alternate "FMC_A2" bidirectional line)
        (alternate "I2C2_SMBA" bidirectional line)
        (alternate "I2C5_SMBA" bidirectional line)
        (alternate "OCTOSPIM_P2_IO2" bidirectional line)
        (alternate "TIM23_CH3" bidirectional line)
      )
      (pin bidirectional line (at 35.56 -58.42 180) (length 5.08)
        (name "PD6" (effects (font (size 1.27 1.27))))
        (number "122" (effects (font (size 1.27 1.27))))
        (alternate "DCMI_D10" bidirectional line)
        (alternate "DFSDM1_CKIN4" bidirectional line)
        (alternate "DFSDM1_DATIN1" bidirectional line)
        (alternate "FMC_NWAIT" bidirectional line)
        (alternate "I2S3_SDO" bidirectional line)
        (alternate "LTDC_B2" bidirectional line)
        (alternate "OCTOSPIM_P1_IO6" bidirectional line)
        (alternate "PSSI_D10" bidirectional line)
        (alternate "SAI1_D1" bidirectional line)
        (alternate "SAI1_SD_A" bidirectional line)
        (alternate "SAI4_D1" bidirectional line)
        (alternate "SAI4_SD_A" bidirectional line)
        (alternate "SDMMC2_CK" bidirectional line)
        (alternate "SPI3_MOSI" bidirectional line)
        (alternate "USART2_RX" bidirectional line)
      )
      (pin bidirectional line (at 35.56 -60.96 180) (length 5.08)
        (name "PD7" (effects (font (size 1.27 1.27))))
        (number "123" (effects (font (size 1.27 1.27))))
        (alternate "DFSDM1_CKIN1" bidirectional line)
        (alternate "DFSDM1_DATIN4" bidirectional line)
        (alternate "FMC_NE1" bidirectional line)
        (alternate "I2S1_SDO" bidirectional line)
        (alternate "OCTOSPIM_P1_IO7" bidirectional line)
        (alternate "SDMMC2_CMD" bidirectional line)
        (alternate "SPDIFRX1_IN0" bidirectional line)
        (alternate "SPI1_MOSI" bidirectional line)
        (alternate "USART2_CK" bidirectional line)
      )
      (pin bidirectional line (at -33.02 35.56 0) (length 5.08)
        (name "PG9" (effects (font (size 1.27 1.27))))
        (number "124" (effects (font (size 1.27 1.27))))
        (alternate "DAC1_EXTI9" bidirectional line)
        (alternate "DCMI_VSYNC" bidirectional line)
        (alternate "FDCAN3_TX" bidirectional line)
        (alternate "FMC_NCE" bidirectional line)
        (alternate "FMC_NE2" bidirectional line)
        (alternate "I2S1_SDI" bidirectional line)
        (alternate "OCTOSPIM_P1_IO6" bidirectional line)
        (alternate "PSSI_RDY" bidirectional line)
        (alternate "SAI4_FS_B" bidirectional line)
        (alternate "SDMMC2_D0" bidirectional line)
        (alternate "SPDIFRX1_IN3" bidirectional line)
        (alternate "SPI1_MISO" bidirectional line)
        (alternate "USART6_RX" bidirectional line)
      )
      (pin bidirectional line (at -33.02 33.02 0) (length 5.08)
        (name "PG10" (effects (font (size 1.27 1.27))))
        (number "125" (effects (font (size 1.27 1.27))))
        (alternate "DCMI_D2" bidirectional line)
        (alternate "FDCAN3_RX" bidirectional line)
        (alternate "FMC_NE3" bidirectional line)
        (alternate "I2S1_WS" bidirectional line)
        (alternate "LTDC_B2" bidirectional line)
        (alternate "LTDC_G3" bidirectional line)
        (alternate "OCTOSPIM_P2_IO6" bidirectional line)
        (alternate "PSSI_D2" bidirectional line)
        (alternate "SAI4_SD_B" bidirectional line)
        (alternate "SDMMC2_D1" bidirectional line)
        (alternate "SPI1_NSS" bidirectional line)
      )
      (pin bidirectional line (at -33.02 30.48 0) (length 5.08)
        (name "PG11" (effects (font (size 1.27 1.27))))
        (number "126" (effects (font (size 1.27 1.27))))
        (alternate "ADC1_EXTI11" bidirectional line)
        (alternate "ADC2_EXTI11" bidirectional line)
        (alternate "ADC3_EXTI11" bidirectional line)
        (alternate "DCMI_D3" bidirectional line)
        (alternate "ETH_TX_EN" bidirectional line)
        (alternate "I2S1_CK" bidirectional line)
        (alternate "LPTIM1_IN2" bidirectional line)
        (alternate "LTDC_B3" bidirectional line)
        (alternate "OCTOSPIM_P2_IO7" bidirectional line)
        (alternate "PSSI_D3" bidirectional line)
        (alternate "SDMMC2_D2" bidirectional line)
        (alternate "SPDIFRX1_IN0" bidirectional line)
        (alternate "SPI1_SCK" bidirectional line)
        (alternate "USART10_RX" bidirectional line)
      )
      (pin bidirectional line (at -33.02 27.94 0) (length 5.08)
        (name "PG12" (effects (font (size 1.27 1.27))))
        (number "127" (effects (font (size 1.27 1.27))))
        (alternate "ETH_TXD1" bidirectional line)
        (alternate "FMC_NE4" bidirectional line)
        (alternate "I2S6_SDI" bidirectional line)
        (alternate "LPTIM1_IN1" bidirectional line)
        (alternate "LTDC_B1" bidirectional line)
        (alternate "LTDC_B4" bidirectional line)
        (alternate "OCTOSPIM_P2_NCS" bidirectional line)
        (alternate "SDMMC2_D3" bidirectional line)
        (alternate "SPDIFRX1_IN1" bidirectional line)
        (alternate "SPI6_MISO" bidirectional line)
        (alternate "TIM23_CH1" bidirectional line)
        (alternate "USART10_TX" bidirectional line)
        (alternate "USART6_DE" bidirectional line)
        (alternate "USART6_RTS" bidirectional line)
      )
      (pin bidirectional line (at -33.02 25.4 0) (length 5.08)
        (name "PG13" (effects (font (size 1.27 1.27))))
        (number "128" (effects (font (size 1.27 1.27))))
        (alternate "DEBUG_TRACED0" bidirectional line)
        (alternate "ETH_TXD0" bidirectional line)
        (alternate "FMC_A24" bidirectional line)
        (alternate "I2S6_CK" bidirectional line)
        (alternate "LPTIM1_OUT" bidirectional line)
        (alternate "LTDC_R0" bidirectional line)
        (alternate "SDMMC2_D6" bidirectional line)
        (alternate "SPI6_SCK" bidirectional line)
        (alternate "TIM23_CH2" bidirectional line)
        (alternate "USART10_CTS" bidirectional line)
        (alternate "USART10_NSS" bidirectional line)
        (alternate "USART6_CTS" bidirectional line)
        (alternate "USART6_NSS" bidirectional line)
      )
      (pin bidirectional line (at -33.02 22.86 0) (length 5.08)
        (name "PG14" (effects (font (size 1.27 1.27))))
        (number "129" (effects (font (size 1.27 1.27))))
        (alternate "DEBUG_TRACED1" bidirectional line)
        (alternate "ETH_TXD1" bidirectional line)
        (alternate "FMC_A25" bidirectional line)
        (alternate "I2S6_SDO" bidirectional line)
        (alternate "LPTIM1_ETR" bidirectional line)
        (alternate "LTDC_B0" bidirectional line)
        (alternate "OCTOSPIM_P1_IO7" bidirectional line)
        (alternate "SDMMC2_D7" bidirectional line)
        (alternate "SPI6_MOSI" bidirectional line)
        (alternate "TIM23_CH3" bidirectional line)
        (alternate "USART10_DE" bidirectional line)
        (alternate "USART10_RTS" bidirectional line)
        (alternate "USART6_TX" bidirectional line)
      )
      (pin bidirectional line (at -33.02 7.62 0) (length 5.08)
        (name "PF3" (effects (font (size 1.27 1.27))))
        (number "13" (effects (font (size 1.27 1.27))))
        (alternate "ADC3_INP5" bidirectional line)
        (alternate "FMC_A3" bidirectional line)
        (alternate "OCTOSPIM_P2_IO3" bidirectional line)
        (alternate "TIM23_CH4" bidirectional line)
      )
      (pin bidirectional line (at -33.02 20.32 0) (length 5.08)
        (name "PG15" (effects (font (size 1.27 1.27))))
        (number "132" (effects (font (size 1.27 1.27))))
        (alternate "ADC1_EXTI15" bidirectional line)
        (alternate "ADC2_EXTI15" bidirectional line)
        (alternate "ADC3_EXTI15" bidirectional line)
        (alternate "DCMI_D13" bidirectional line)
        (alternate "FMC_SDNCAS" bidirectional line)
        (alternate "OCTOSPIM_P2_DQS" bidirectional line)
        (alternate "PSSI_D13" bidirectional line)
        (alternate "USART10_CK" bidirectional line)
        (alternate "USART6_CTS" bidirectional line)
        (alternate "USART6_NSS" bidirectional line)
      )
      (pin bidirectional line (at 35.56 35.56 180) (length 5.08)
        (name "PB3(JTDO" (effects (font (size 1.27 1.27))))
        (number "133" (effects (font (size 1.27 1.27))))
        (alternate "CRS_SYNC" bidirectional line)
        (alternate "DEBUG_JTDO-SWO" bidirectional line)
        (alternate "I2S1_CK" bidirectional line)
        (alternate "I2S3_CK" bidirectional line)
        (alternate "I2S6_CK" bidirectional line)
        (alternate "SDMMC2_D2" bidirectional line)
        (alternate "SPI1_SCK" bidirectional line)
        (alternate "SPI3_SCK" bidirectional line)
        (alternate "SPI6_SCK" bidirectional line)
        (alternate "TIM24_ETR" bidirectional line)
        (alternate "TIM2_CH2" bidirectional line)
        (alternate "UART7_RX" bidirectional line)
      )
      (pin bidirectional line (at 35.56 33.02 180) (length 5.08)
        (name "PB4(NJTRST)" (effects (font (size 1.27 1.27))))
        (number "134" (effects (font (size 1.27 1.27))))
        (alternate "DEBUG_JTRST" bidirectional line)
        (alternate "I2S1_SDI" bidirectional line)
        (alternate "I2S2_WS" bidirectional line)
        (alternate "I2S3_SDI" bidirectional line)
        (alternate "I2S6_SDI" bidirectional line)
        (alternate "SDMMC2_D3" bidirectional line)
        (alternate "SPI1_MISO" bidirectional line)
        (alternate "SPI2_NSS" bidirectional line)
        (alternate "SPI3_MISO" bidirectional line)
        (alternate "SPI6_MISO" bidirectional line)
        (alternate "TIM16_BKIN" bidirectional line)
        (alternate "TIM3_CH1" bidirectional line)
        (alternate "UART7_TX" bidirectional line)
      )
      (pin bidirectional line (at 35.56 30.48 180) (length 5.08)
        (name "PB5" (effects (font (size 1.27 1.27))))
        (number "135" (effects (font (size 1.27 1.27))))
        (alternate "DCMI_D10" bidirectional line)
        (alternate "ETH_PPS_OUT" bidirectional line)
        (alternate "FDCAN2_RX" bidirectional line)
        (alternate "FMC_SDCKE1" bidirectional line)
        (alternate "I2C1_SMBA" bidirectional line)
        (alternate "I2C4_SMBA" bidirectional line)
        (alternate "I2S1_SDO" bidirectional line)
        (alternate "I2S3_SDO" bidirectional line)
        (alternate "I2S6_SDO" bidirectional line)
        (alternate "LTDC_B5" bidirectional line)
        (alternate "PSSI_D10" bidirectional line)
        (alternate "SPI1_MOSI" bidirectional line)
        (alternate "SPI3_MOSI" bidirectional line)
        (alternate "SPI6_MOSI" bidirectional line)
        (alternate "TIM17_BKIN" bidirectional line)
        (alternate "TIM3_CH2" bidirectional line)
        (alternate "UART5_RX" bidirectional line)
        (alternate "USB_OTG_HS_ULPI_D7" bidirectional line)
      )
      (pin bidirectional line (at 35.56 27.94 180) (length 5.08)
        (name "PB6" (effects (font (size 1.27 1.27))))
        (number "136" (effects (font (size 1.27 1.27))))
        (alternate "CEC" bidirectional line)
        (alternate "DCMI_D5" bidirectional line)
        (alternate "DFSDM1_DATIN5" bidirectional line)
        (alternate "FDCAN2_TX" bidirectional line)
        (alternate "FMC_SDNE1" bidirectional line)
        (alternate "I2C1_SCL" bidirectional line)
        (alternate "I2C4_SCL" bidirectional line)
        (alternate "LPUART1_TX" bidirectional line)
        (alternate "OCTOSPIM_P1_NCS" bidirectional line)
        (alternate "PSSI_D5" bidirectional line)
        (alternate "TIM16_CH1N" bidirectional line)
        (alternate "TIM4_CH1" bidirectional line)
        (alternate "UART5_TX" bidirectional line)
        (alternate "USART1_TX" bidirectional line)
      )
      (pin bidirectional line (at 35.56 25.4 180) (length 5.08)
        (name "PB7" (effects (font (size 1.27 1.27))))
        (number "137" (effects (font (size 1.27 1.27))))
        (alternate "DCMI_VSYNC" bidirectional line)
        (alternate "DFSDM1_CKIN5" bidirectional line)
        (alternate "FMC_NL" bidirectional line)
        (alternate "I2C1_SDA" bidirectional line)
        (alternate "I2C4_SDA" bidirectional line)
        (alternate "LPUART1_RX" bidirectional line)
        (alternate "PSSI_RDY" bidirectional line)
        (alternate "PWR_PVD_IN" bidirectional line)
        (alternate "TIM17_CH1N" bidirectional line)
        (alternate "TIM4_CH2" bidirectional line)
        (alternate "USART1_RX" bidirectional line)
      )
      (pin input line (at -33.02 78.74 0) (length 5.08)
        (name "BOOT0" (effects (font (size 1.27 1.27))))
        (number "138" (effects (font (size 1.27 1.27))))
      )
      (pin bidirectional line (at 35.56 22.86 180) (length 5.08)
        (name "PB8" (effects (font (size 1.27 1.27))))
        (number "139" (effects (font (size 1.27 1.27))))
        (alternate "DCMI_D6" bidirectional line)
        (alternate "DFSDM1_CKIN7" bidirectional line)
        (alternate "ETH_TXD3" bidirectional line)
        (alternate "FDCAN1_RX" bidirectional line)
        (alternate "I2C1_SCL" bidirectional line)
        (alternate "I2C4_SCL" bidirectional line)
        (alternate "LTDC_B6" bidirectional line)
        (alternate "PSSI_D6" bidirectional line)
        (alternate "SDMMC1_CKIN" bidirectional line)
        (alternate "SDMMC1_D4" bidirectional line)
        (alternate "SDMMC2_D4" bidirectional line)
        (alternate "TIM16_CH1" bidirectional line)
        (alternate "TIM4_CH3" bidirectional line)
        (alternate "UART4_RX" bidirectional line)
      )
      (pin bidirectional line (at -33.02 5.08 0) (length 5.08)
        (name "PF4" (effects (font (size 1.27 1.27))))
        (number "14" (effects (font (size 1.27 1.27))))
        (alternate "ADC3_INN5" bidirectional line)
        (alternate "ADC3_INP9" bidirectional line)
        (alternate "FMC_A4" bidirectional line)
        (alternate "OCTOSPIM_P2_CLK" bidirectional line)
      )
      (pin bidirectional line (at 35.56 20.32 180) (length 5.08)
        (name "PB9" (effects (font (size 1.27 1.27))))
        (number "140" (effects (font (size 1.27 1.27))))
        (alternate "DAC1_EXTI9" bidirectional line)
        (alternate "DCMI_D7" bidirectional line)
        (alternate "DFSDM1_DATIN7" bidirectional line)
        (alternate "FDCAN1_TX" bidirectional line)
        (alternate "I2C1_SDA" bidirectional line)
        (alternate "I2C4_SDA" bidirectional line)
        (alternate "I2C4_SMBA" bidirectional line)
        (alternate "I2S2_WS" bidirectional line)
        (alternate "LTDC_B7" bidirectional line)
        (alternate "PSSI_D7" bidirectional line)
        (alternate "SDMMC1_CDIR" bidirectional line)
        (alternate "SDMMC1_D5" bidirectional line)
        (alternate "SDMMC2_D5" bidirectional line)
        (alternate "SPI2_NSS" bidirectional line)
        (alternate "TIM17_CH1" bidirectional line)
        (alternate "TIM4_CH4" bidirectional line)
        (alternate "UART4_TX" bidirectional line)
      )
      (pin bidirectional line (at -33.02 -27.94 0) (length 5.08)
        (name "PE0" (effects (font (size 1.27 1.27))))
        (number "141" (effects (font (size 1.27 1.27))))
        (alternate "DCMI_D2" bidirectional line)
        (alternate "FMC_NBL0" bidirectional line)
        (alternate "LPTIM1_ETR" bidirectional line)
        (alternate "LPTIM2_ETR" bidirectional line)
        (alternate "LTDC_R0" bidirectional line)
        (alternate "PSSI_D2" bidirectional line)
        (alternate "SAI4_MCLK_A" bidirectional line)
        (alternate "TIM4_ETR" bidirectional line)
        (alternate "UART8_RX" bidirectional line)
      )
      (pin bidirectional line (at -33.02 -30.48 0) (length 5.08)
        (name "PE1" (effects (font (size 1.27 1.27))))
        (number "142" (effects (font (size 1.27 1.27))))
        (alternate "DCMI_D3" bidirectional line)
        (alternate "FMC_NBL1" bidirectional line)
        (alternate "LPTIM1_IN2" bidirectional line)
        (alternate "LTDC_R6" bidirectional line)
        (alternate "PSSI_D3" bidirectional line)
        (alternate "UART8_TX" bidirectional line)
      )
      (pin bidirectional line (at -33.02 2.54 0) (length 5.08)
        (name "PF5" (effects (font (size 1.27 1.27))))
        (number "15" (effects (font (size 1.27 1.27))))
        (alternate "ADC3_INP4" bidirectional line)
        (alternate "FMC_A5" bidirectional line)
        (alternate "OCTOSPIM_P2_NCLK" bidirectional line)
      )
      (pin bidirectional line (at -33.02 0 0) (length 5.08)
        (name "PF6" (effects (font (size 1.27 1.27))))
        (number "18" (effects (font (size 1.27 1.27))))
        (alternate "ADC3_INN4" bidirectional line)
        (alternate "ADC3_INP8" bidirectional line)
        (alternate "FDCAN3_RX" bidirectional line)
        (alternate "OCTOSPIM_P1_IO3" bidirectional line)
        (alternate "SAI1_SD_B" bidirectional line)
        (alternate "SAI4_SD_B" bidirectional line)
        (alternate "SPI5_NSS" bidirectional line)
        (alternate "TIM16_CH1" bidirectional line)
        (alternate "TIM23_CH1" bidirectional line)
        (alternate "UART7_RX" bidirectional line)
      )
      (pin bidirectional line (at -33.02 -2.54 0) (length 5.08)
        (name "PF7" (effects (font (size 1.27 1.27))))
        (number "19" (effects (font (size 1.27 1.27))))
        (alternate "ADC3_INP3" bidirectional line)
        (alternate "FDCAN3_TX" bidirectional line)
        (alternate "OCTOSPIM_P1_IO2" bidirectional line)
        (alternate "SAI1_MCLK_B" bidirectional line)
        (alternate "SAI4_MCLK_B" bidirectional line)
        (alternate "SPI5_SCK" bidirectional line)
        (alternate "TIM17_CH1" bidirectional line)
        (alternate "TIM23_CH2" bidirectional line)
        (alternate "UART7_TX" bidirectional line)
      )
      (pin bidirectional line (at -33.02 -35.56 0) (length 5.08)
        (name "PE3" (effects (font (size 1.27 1.27))))
        (number "2" (effects (font (size 1.27 1.27))))
        (alternate "DEBUG_TRACED0" bidirectional line)
        (alternate "FMC_A19" bidirectional line)
        (alternate "SAI1_SD_B" bidirectional line)
        (alternate "SAI4_SD_B" bidirectional line)
        (alternate "TIM15_BKIN" bidirectional line)
        (alternate "USART10_TX" bidirectional line)
      )
      (pin bidirectional line (at -33.02 -5.08 0) (length 5.08)
        (name "PF8" (effects (font (size 1.27 1.27))))
        (number "20" (effects (font (size 1.27 1.27))))
        (alternate "ADC3_INN3" bidirectional line)
        (alternate "ADC3_INP7" bidirectional line)
        (alternate "OCTOSPIM_P1_IO0" bidirectional line)
        (alternate "SAI1_SCK_B" bidirectional line)
        (alternate "SAI4_SCK_B" bidirectional line)
        (alternate "SPI5_MISO" bidirectional line)
        (alternate "TIM13_CH1" bidirectional line)
        (alternate "TIM16_CH1N" bidirectional line)
        (alternate "TIM23_CH3" bidirectional line)
        (alternate "UART7_DE" bidirectional line)
        (alternate "UART7_RTS" bidirectional line)
      )
      (pin bidirectional line (at -33.02 -7.62 0) (length 5.08)
        (name "PF9" (effects (font (size 1.27 1.27))))
        (number "21" (effects (font (size 1.27 1.27))))
        (alternate "ADC3_INP2" bidirectional line)
        (alternate "DAC1_EXTI9" bidirectional line)
        (alternate "OCTOSPIM_P1_IO1" bidirectional line)
        (alternate "SAI1_FS_B" bidirectional line)
        (alternate "SAI4_FS_B" bidirectional line)
        (alternate "SPI5_MOSI" bidirectional line)
        (alternate "TIM14_CH1" bidirectional line)
        (alternate "TIM17_CH1N" bidirectional line)
        (alternate "TIM23_CH4" bidirectional line)
        (alternate "UART7_CTS" bidirectional line)
      )
      (pin bidirectional line (at -33.02 -10.16 0) (length 5.08)
        (name "PF10" (effects (font (size 1.27 1.27))))
        (number "22" (effects (font (size 1.27 1.27))))
        (alternate "ADC3_INN2" bidirectional line)
        (alternate "ADC3_INP6" bidirectional line)
        (alternate "DCMI_D11" bidirectional line)
        (alternate "LTDC_DE" bidirectional line)
        (alternate "OCTOSPIM_P1_CLK" bidirectional line)
        (alternate "PSSI_D11" bidirectional line)
        (alternate "PSSI_D15" bidirectional line)
        (alternate "SAI1_D3" bidirectional line)
        (alternate "SAI4_D3" bidirectional line)
        (alternate "TIM16_BKIN" bidirectional line)
      )
      (pin bidirectional line (at -33.02 66.04 0) (length 5.08)
        (name "PH0" (effects (font (size 1.27 1.27))))
        (number "23" (effects (font (size 1.27 1.27))))
        (alternate "RCC_OSC_IN" bidirectional line)
      )
      (pin bidirectional line (at -33.02 63.5 0) (length 5.08)
        (name "PH1" (effects (font (size 1.27 1.27))))
        (number "24" (effects (font (size 1.27 1.27))))
        (alternate "RCC_OSC_OUT" bidirectional line)
      )
      (pin input line (at -33.02 83.82 0) (length 5.08)
        (name "NRST" (effects (font (size 1.27 1.27))))
        (number "25" (effects (font (size 1.27 1.27))))
      )
      (pin bidirectional line (at 35.56 0 180) (length 5.08)
        (name "PC0" (effects (font (size 1.27 1.27))))
        (number "26" (effects (font (size 1.27 1.27))))
        (alternate "ADC1_INP10" bidirectional line)
        (alternate "ADC2_INP10" bidirectional line)
        (alternate "ADC3_INP10" bidirectional line)
        (alternate "DFSDM1_CKIN0" bidirectional line)
        (alternate "DFSDM1_DATIN4" bidirectional line)
        (alternate "FMC_A25" bidirectional line)
        (alternate "FMC_D12" bidirectional line)
        (alternate "FMC_DA12" bidirectional line)
        (alternate "FMC_SDNWE" bidirectional line)
        (alternate "LTDC_G2" bidirectional line)
        (alternate "LTDC_R5" bidirectional line)
        (alternate "SAI4_FS_B" bidirectional line)
        (alternate "USB_OTG_HS_ULPI_STP" bidirectional line)
      )
      (pin bidirectional line (at 35.56 -2.54 180) (length 5.08)
        (name "PC1" (effects (font (size 1.27 1.27))))
        (number "27" (effects (font (size 1.27 1.27))))
        (alternate "ADC1_INN10" bidirectional line)
        (alternate "ADC1_INP11" bidirectional line)
        (alternate "ADC2_INN10" bidirectional line)
        (alternate "ADC2_INP11" bidirectional line)
        (alternate "ADC3_INN10" bidirectional line)
        (alternate "ADC3_INP11" bidirectional line)
        (alternate "DEBUG_TRACED0" bidirectional line)
        (alternate "DFSDM1_CKIN4" bidirectional line)
        (alternate "DFSDM1_DATIN0" bidirectional line)
        (alternate "ETH_MDC" bidirectional line)
        (alternate "I2S2_SDO" bidirectional line)
        (alternate "LTDC_G5" bidirectional line)
        (alternate "MDIOS_MDC" bidirectional line)
        (alternate "OCTOSPIM_P1_IO4" bidirectional line)
        (alternate "PWR_WKUP6" bidirectional line)
        (alternate "RTC_TAMP3" bidirectional line)
        (alternate "SAI1_D1" bidirectional line)
        (alternate "SAI1_SD_A" bidirectional line)
        (alternate "SAI4_D1" bidirectional line)
        (alternate "SAI4_SD_A" bidirectional line)
        (alternate "SDMMC2_CK" bidirectional line)
        (alternate "SPI2_MOSI" bidirectional line)
      )
      (pin bidirectional line (at 35.56 -5.08 180) (length 5.08)
        (name "PC2_C" (effects (font (size 1.27 1.27))))
        (number "28" (effects (font (size 1.27 1.27))))
        (alternate "ADC3_INN1" bidirectional line)
        (alternate "ADC3_INP0" bidirectional line)
        (alternate "DFSDM1_CKIN1" bidirectional line)
        (alternate "DFSDM1_CKOUT" bidirectional line)
        (alternate "ETH_TXD2" bidirectional line)
        (alternate "FMC_SDNE0" bidirectional line)
        (alternate "I2S2_SDI" bidirectional line)
        (alternate "OCTOSPIM_P1_IO2" bidirectional line)
        (alternate "OCTOSPIM_P1_IO5" bidirectional line)
        (alternate "PWR_CSTOP" bidirectional line)
        (alternate "SPI2_MISO" bidirectional line)
        (alternate "USB_OTG_HS_ULPI_DIR" bidirectional line)
      )
      (pin bidirectional line (at 35.56 -7.62 180) (length 5.08)
        (name "PC3_C" (effects (font (size 1.27 1.27))))
        (number "29" (effects (font (size 1.27 1.27))))
        (alternate "ADC3_INP1" bidirectional line)
        (alternate "DFSDM1_DATIN1" bidirectional line)
        (alternate "ETH_TX_CLK" bidirectional line)
        (alternate "FMC_SDCKE0" bidirectional line)
        (alternate "I2S2_SDO" bidirectional line)
        (alternate "OCTOSPIM_P1_IO0" bidirectional line)
        (alternate "OCTOSPIM_P1_IO6" bidirectional line)
        (alternate "PWR_CSLEEP" bidirectional line)
        (alternate "SPI2_MOSI" bidirectional line)
        (alternate "USB_OTG_HS_ULPI_NXT" bidirectional line)
      )
      (pin bidirectional line (at -33.02 -38.1 0) (length 5.08)
        (name "PE4" (effects (font (size 1.27 1.27))))
        (number "3" (effects (font (size 1.27 1.27))))
        (alternate "DCMI_D4" bidirectional line)
        (alternate "DEBUG_TRACED1" bidirectional line)
        (alternate "DFSDM1_DATIN3" bidirectional line)
        (alternate "FMC_A20" bidirectional line)
        (alternate "LTDC_B0" bidirectional line)
        (alternate "PSSI_D4" bidirectional line)
        (alternate "SAI1_D2" bidirectional line)
        (alternate "SAI1_FS_A" bidirectional line)
        (alternate "SAI4_D2" bidirectional line)
        (alternate "SAI4_FS_A" bidirectional line)
        (alternate "SPI4_NSS" bidirectional line)
        (alternate "TIM15_CH1N" bidirectional line)
      )
      (pin bidirectional line (at 35.56 86.36 180) (length 5.08)
        (name "PA0" (effects (font (size 1.27 1.27))))
        (number "34" (effects (font (size 1.27 1.27))))
        (alternate "ADC1_INP16" bidirectional line)
        (alternate "ETH_CRS" bidirectional line)
        (alternate "FMC_A19" bidirectional line)
        (alternate "I2S6_WS" bidirectional line)
        (alternate "PWR_WKUP1" bidirectional line)
        (alternate "SAI4_SD_B" bidirectional line)
        (alternate "SDMMC2_CMD" bidirectional line)
        (alternate "SPI6_NSS" bidirectional line)
        (alternate "TIM15_BKIN" bidirectional line)
        (alternate "TIM2_CH1" bidirectional line)
        (alternate "TIM2_ETR" bidirectional line)
        (alternate "TIM5_CH1" bidirectional line)
        (alternate "TIM8_ETR" bidirectional line)
        (alternate "UART4_TX" bidirectional line)
        (alternate "USART2_CTS" bidirectional line)
        (alternate "USART2_NSS" bidirectional line)
      )
      (pin bidirectional line (at 35.56 83.82 180) (length 5.08)
        (name "PA1" (effects (font (size 1.27 1.27))))
        (number "35" (effects (font (size 1.27 1.27))))
        (alternate "ADC1_INN16" bidirectional line)
        (alternate "ADC1_INP17" bidirectional line)
        (alternate "ETH_REF_CLK" bidirectional line)
        (alternate "ETH_RX_CLK" bidirectional line)
        (alternate "LPTIM3_OUT" bidirectional line)
        (alternate "LTDC_R2" bidirectional line)
        (alternate "OCTOSPIM_P1_DQS" bidirectional line)
        (alternate "OCTOSPIM_P1_IO3" bidirectional line)
        (alternate "SAI4_MCLK_B" bidirectional line)
        (alternate "TIM15_CH1N" bidirectional line)
        (alternate "TIM2_CH2" bidirectional line)
        (alternate "TIM5_CH2" bidirectional line)
        (alternate "UART4_RX" bidirectional line)
        (alternate "USART2_DE" bidirectional line)
        (alternate "USART2_RTS" bidirectional line)
      )
      (pin bidirectional line (at 35.56 81.28 180) (length 5.08)
        (name "PA2" (effects (font (size 1.27 1.27))))
        (number "36" (effects (font (size 1.27 1.27))))
        (alternate "ADC1_INP14" bidirectional line)
        (alternate "ADC2_INP14" bidirectional line)
        (alternate "ETH_MDIO" bidirectional line)
        (alternate "LPTIM4_OUT" bidirectional line)
        (alternate "LTDC_R1" bidirectional line)
        (alternate "MDIOS_MDIO" bidirectional line)
        (alternate "OCTOSPIM_P1_IO0" bidirectional line)
        (alternate "PWR_WKUP2" bidirectional line)
        (alternate "SAI4_SCK_B" bidirectional line)
        (alternate "TIM15_CH1" bidirectional line)
        (alternate "TIM2_CH3" bidirectional line)
        (alternate "TIM5_CH3" bidirectional line)
        (alternate "USART2_TX" bidirectional line)
      )
      (pin bidirectional line (at 35.56 78.74 180) (length 5.08)
        (name "PA3" (effects (font (size 1.27 1.27))))
        (number "37" (effects (font (size 1.27 1.27))))
        (alternate "ADC1_INP15" bidirectional line)
        (alternate "ADC2_INP15" bidirectional line)
        (alternate "ETH_COL" bidirectional line)
        (alternate "I2S6_MCK" bidirectional line)
        (alternate "LPTIM5_OUT" bidirectional line)
        (alternate "LTDC_B2" bidirectional line)
        (alternate "LTDC_B5" bidirectional line)
        (alternate "OCTOSPIM_P1_CLK" bidirectional line)
        (alternate "OCTOSPIM_P1_IO2" bidirectional line)
        (alternate "TIM15_CH2" bidirectional line)
        (alternate "TIM2_CH4" bidirectional line)
        (alternate "TIM5_CH4" bidirectional line)
        (alternate "USART2_RX" bidirectional line)
        (alternate "USB_OTG_HS_ULPI_D0" bidirectional line)
      )
      (pin bidirectional line (at -33.02 -40.64 0) (length 5.08)
        (name "PE5" (effects (font (size 1.27 1.27))))
        (number "4" (effects (font (size 1.27 1.27))))
        (alternate "DCMI_D6" bidirectional line)
        (alternate "DEBUG_TRACED2" bidirectional line)
        (alternate "DFSDM1_CKIN3" bidirectional line)
        (alternate "FMC_A21" bidirectional line)
        (alternate "LTDC_G0" bidirectional line)
        (alternate "PSSI_D6" bidirectional line)
        (alternate "SAI1_CK2" bidirectional line)
        (alternate "SAI1_SCK_A" bidirectional line)
        (alternate "SAI4_CK2" bidirectional line)
        (alternate "SAI4_SCK_A" bidirectional line)
        (alternate "SPI4_MISO" bidirectional line)
        (alternate "TIM15_CH1" bidirectional line)
      )
      (pin bidirectional line (at 35.56 76.2 180) (length 5.08)
        (name "PA4" (effects (font (size 1.27 1.27))))
        (number "40" (effects (font (size 1.27 1.27))))
        (alternate "ADC1_INP18" bidirectional line)
        (alternate "ADC2_INP18" bidirectional line)
        (alternate "DAC1_OUT1" bidirectional line)
        (alternate "DCMI_HSYNC" bidirectional line)
        (alternate "FMC_D8" bidirectional line)
        (alternate "FMC_DA8" bidirectional line)
        (alternate "I2S1_WS" bidirectional line)
        (alternate "I2S3_WS" bidirectional line)
        (alternate "I2S6_WS" bidirectional line)
        (alternate "LTDC_VSYNC" bidirectional line)
        (alternate "PSSI_DE" bidirectional line)
        (alternate "SPI1_NSS" bidirectional line)
        (alternate "SPI3_NSS" bidirectional line)
        (alternate "SPI6_NSS" bidirectional line)
        (alternate "TIM5_ETR" bidirectional line)
        (alternate "USART2_CK" bidirectional line)
      )
      (pin bidirectional line (at 35.56 73.66 180) (length 5.08)
        (name "PA5" (effects (font (size 1.27 1.27))))
        (number "41" (effects (font (size 1.27 1.27))))
        (alternate "ADC1_INN18" bidirectional line)
        (alternate "ADC1_INP19" bidirectional line)
        (alternate "ADC2_INN18" bidirectional line)
        (alternate "ADC2_INP19" bidirectional line)
        (alternate "DAC1_OUT2" bidirectional line)
        (alternate "FMC_D9" bidirectional line)
        (alternate "FMC_DA9" bidirectional line)
        (alternate "I2S1_CK" bidirectional line)
        (alternate "I2S6_CK" bidirectional line)
        (alternate "LTDC_R4" bidirectional line)
        (alternate "PSSI_D14" bidirectional line)
        (alternate "PWR_NDSTOP2" bidirectional line)
        (alternate "SPI1_SCK" bidirectional line)
        (alternate "SPI6_SCK" bidirectional line)
        (alternate "TIM2_CH1" bidirectional line)
        (alternate "TIM2_ETR" bidirectional line)
        (alternate "TIM8_CH1N" bidirectional line)
        (alternate "USB_OTG_HS_ULPI_CK" bidirectional line)
      )
      (pin bidirectional line (at 35.56 71.12 180) (length 5.08)
        (name "PA6" (effects (font (size 1.27 1.27))))
        (number "42" (effects (font (size 1.27 1.27))))
        (alternate "ADC1_INP3" bidirectional line)
        (alternate "ADC2_INP3" bidirectional line)
        (alternate "DCMI_PIXCLK" bidirectional line)
        (alternate "I2S1_SDI" bidirectional line)
        (alternate "I2S6_SDI" bidirectional line)
        (alternate "LTDC_G2" bidirectional line)
        (alternate "MDIOS_MDC" bidirectional line)
        (alternate "OCTOSPIM_P1_IO3" bidirectional line)
        (alternate "PSSI_PDCK" bidirectional line)
        (alternate "SPI1_MISO" bidirectional line)
        (alternate "SPI6_MISO" bidirectional line)
        (alternate "TIM13_CH1" bidirectional line)
        (alternate "TIM1_BKIN" bidirectional line)
        (alternate "TIM1_BKIN_COMP1" bidirectional line)
        (alternate "TIM1_BKIN_COMP2" bidirectional line)
        (alternate "TIM3_CH1" bidirectional line)
        (alternate "TIM8_BKIN" bidirectional line)
        (alternate "TIM8_BKIN_COMP1" bidirectional line)
        (alternate "TIM8_BKIN_COMP2" bidirectional line)
      )
      (pin bidirectional line (at 35.56 68.58 180) (length 5.08)
        (name "PA7" (effects (font (size 1.27 1.27))))
        (number "43" (effects (font (size 1.27 1.27))))
        (alternate "ADC1_INN3" bidirectional line)
        (alternate "ADC1_INP7" bidirectional line)
        (alternate "ADC2_INN3" bidirectional line)
        (alternate "ADC2_INP7" bidirectional line)
        (alternate "ETH_CRS_DV" bidirectional line)
        (alternate "ETH_RX_DV" bidirectional line)
        (alternate "FMC_SDNWE" bidirectional line)
        (alternate "I2S1_SDO" bidirectional line)
        (alternate "I2S6_SDO" bidirectional line)
        (alternate "LTDC_VSYNC" bidirectional line)
        (alternate "OCTOSPIM_P1_IO2" bidirectional line)
        (alternate "OPAMP1_VINM" bidirectional line)
        (alternate "SPI1_MOSI" bidirectional line)
        (alternate "SPI6_MOSI" bidirectional line)
        (alternate "TIM14_CH1" bidirectional line)
        (alternate "TIM1_CH1N" bidirectional line)
        (alternate "TIM3_CH2" bidirectional line)
        (alternate "TIM8_CH1N" bidirectional line)
      )
      (pin bidirectional line (at 35.56 -10.16 180) (length 5.08)
        (name "PC4" (effects (font (size 1.27 1.27))))
        (number "44" (effects (font (size 1.27 1.27))))
        (alternate "ADC1_INP4" bidirectional line)
        (alternate "ADC2_INP4" bidirectional line)
        (alternate "COMP1_INM" bidirectional line)
        (alternate "DFSDM1_CKIN2" bidirectional line)
        (alternate "ETH_RXD0" bidirectional line)
        (alternate "FMC_A22" bidirectional line)
        (alternate "FMC_SDNE0" bidirectional line)
        (alternate "I2S1_MCK" bidirectional line)
        (alternate "LTDC_R7" bidirectional line)
        (alternate "OPAMP1_VOUT" bidirectional line)
        (alternate "SDMMC2_CKIN" bidirectional line)
        (alternate "SPDIFRX1_IN2" bidirectional line)
      )
      (pin bidirectional line (at 35.56 -12.7 180) (length 5.08)
        (name "PC5" (effects (font (size 1.27 1.27))))
        (number "45" (effects (font (size 1.27 1.27))))
        (alternate "ADC1_INN4" bidirectional line)
        (alternate "ADC1_INP8" bidirectional line)
        (alternate "ADC2_INN4" bidirectional line)
        (alternate "ADC2_INP8" bidirectional line)
        (alternate "COMP1_OUT" bidirectional line)
        (alternate "DFSDM1_DATIN2" bidirectional line)
        (alternate "ETH_RXD1" bidirectional line)
        (alternate "FMC_SDCKE0" bidirectional line)
        (alternate "LTDC_DE" bidirectional line)
        (alternate "OCTOSPIM_P1_DQS" bidirectional line)
        (alternate "OPAMP1_VINM" bidirectional line)
        (alternate "PSSI_D15" bidirectional line)
        (alternate "SAI1_D3" bidirectional line)
        (alternate "SAI4_D3" bidirectional line)
        (alternate "SPDIFRX1_IN3" bidirectional line)
      )
      (pin bidirectional line (at 35.56 43.18 180) (length 5.08)
        (name "PB0" (effects (font (size 1.27 1.27))))
        (number "46" (effects (font (size 1.27 1.27))))
        (alternate "ADC1_INN5" bidirectional line)
        (alternate "ADC1_INP9" bidirectional line)
        (alternate "ADC2_INN5" bidirectional line)
        (alternate "ADC2_INP9" bidirectional line)
        (alternate "COMP1_INP" bidirectional line)
        (alternate "DFSDM1_CKOUT" bidirectional line)
        (alternate "ETH_RXD2" bidirectional line)
        (alternate "LTDC_G1" bidirectional line)
        (alternate "LTDC_R3" bidirectional line)
        (alternate "OCTOSPIM_P1_IO1" bidirectional line)
        (alternate "OPAMP1_VINP" bidirectional line)
        (alternate "TIM1_CH2N" bidirectional line)
        (alternate "TIM3_CH3" bidirectional line)
        (alternate "TIM8_CH2N" bidirectional line)
        (alternate "UART4_CTS" bidirectional line)
        (alternate "USB_OTG_HS_ULPI_D1" bidirectional line)
      )
      (pin bidirectional line (at 35.56 40.64 180) (length 5.08)
        (name "PB1" (effects (font (size 1.27 1.27))))
        (number "47" (effects (font (size 1.27 1.27))))
        (alternate "ADC1_INP5" bidirectional line)
        (alternate "ADC2_INP5" bidirectional line)
        (alternate "COMP1_INM" bidirectional line)
        (alternate "DFSDM1_DATIN1" bidirectional line)
        (alternate "ETH_RXD3" bidirectional line)
        (alternate "LTDC_G0" bidirectional line)
        (alternate "LTDC_R6" bidirectional line)
        (alternate "OCTOSPIM_P1_IO0" bidirectional line)
        (alternate "TIM1_CH3N" bidirectional line)
        (alternate "TIM3_CH4" bidirectional line)
        (alternate "TIM8_CH3N" bidirectional line)
        (alternate "USB_OTG_HS_ULPI_D2" bidirectional line)
      )
      (pin bidirectional line (at 35.56 38.1 180) (length 5.08)
        (name "PB2" (effects (font (size 1.27 1.27))))
        (number "48" (effects (font (size 1.27 1.27))))
        (alternate "COMP1_INP" bidirectional line)
        (alternate "DFSDM1_CKIN1" bidirectional line)
        (alternate "ETH_TX_ER" bidirectional line)
        (alternate "I2S3_SDO" bidirectional line)
        (alternate "OCTOSPIM_P1_CLK" bidirectional line)
        (alternate "OCTOSPIM_P1_DQS" bidirectional line)
        (alternate "RTC_OUT_ALARM" bidirectional line)
        (alternate "RTC_OUT_CALIB" bidirectional line)
        (alternate "SAI1_D1" bidirectional line)
        (alternate "SAI1_SD_A" bidirectional line)
        (alternate "SAI4_D1" bidirectional line)
        (alternate "SAI4_SD_A" bidirectional line)
        (alternate "SPI3_MOSI" bidirectional line)
        (alternate "TIM23_ETR" bidirectional line)
      )
      (pin bidirectional line (at -33.02 -12.7 0) (length 5.08)
        (name "PF11" (effects (font (size 1.27 1.27))))
        (number "49" (effects (font (size 1.27 1.27))))
        (alternate "ADC1_EXTI11" bidirectional line)
        (alternate "ADC1_INP2" bidirectional line)
        (alternate "ADC2_EXTI11" bidirectional line)
        (alternate "ADC3_EXTI11" bidirectional line)
        (alternate "DCMI_D12" bidirectional line)
        (alternate "FMC_SDNRAS" bidirectional line)
        (alternate "OCTOSPIM_P1_NCLK" bidirectional line)
        (alternate "PSSI_D12" bidirectional line)
        (alternate "SAI4_SD_B" bidirectional line)
        (alternate "SPI5_MOSI" bidirectional line)
        (alternate "TIM24_CH1" bidirectional line)
      )
      (pin bidirectional line (at -33.02 -43.18 0) (length 5.08)
        (name "PE6" (effects (font (size 1.27 1.27))))
        (number "5" (effects (font (size 1.27 1.27))))
        (alternate "DCMI_D7" bidirectional line)
        (alternate "DEBUG_TRACED3" bidirectional line)
        (alternate "FMC_A22" bidirectional line)
        (alternate "LTDC_G1" bidirectional line)
        (alternate "PSSI_D7" bidirectional line)
        (alternate "SAI1_D1" bidirectional line)
        (alternate "SAI1_SD_A" bidirectional line)
        (alternate "SAI4_D1" bidirectional line)
        (alternate "SAI4_MCLK_B" bidirectional line)
        (alternate "SAI4_SD_A" bidirectional line)
        (alternate "SPI4_MOSI" bidirectional line)
        (alternate "TIM15_CH2" bidirectional line)
        (alternate "TIM1_BKIN2" bidirectional line)
        (alternate "TIM1_BKIN2_COMP1" bidirectional line)
        (alternate "TIM1_BKIN2_COMP2" bidirectional line)
      )
      (pin bidirectional line (at -33.02 -15.24 0) (length 5.08)
        (name "PF12" (effects (font (size 1.27 1.27))))
        (number "50" (effects (font (size 1.27 1.27))))
        (alternate "ADC1_INN2" bidirectional line)
        (alternate "ADC1_INP6" bidirectional line)
        (alternate "FMC_A6" bidirectional line)
        (alternate "OCTOSPIM_P2_DQS" bidirectional line)
        (alternate "TIM24_CH2" bidirectional line)
      )
      (pin bidirectional line (at -33.02 -17.78 0) (length 5.08)
        (name "PF13" (effects (font (size 1.27 1.27))))
        (number "53" (effects (font (size 1.27 1.27))))
        (alternate "ADC2_INP2" bidirectional line)
        (alternate "DFSDM1_DATIN6" bidirectional line)
        (alternate "FMC_A7" bidirectional line)
        (alternate "I2C4_SMBA" bidirectional line)
        (alternate "TIM24_CH3" bidirectional line)
      )
      (pin bidirectional line (at -33.02 -20.32 0) (length 5.08)
        (name "PF14" (effects (font (size 1.27 1.27))))
        (number "54" (effects (font (size 1.27 1.27))))
        (alternate "ADC2_INN2" bidirectional line)
        (alternate "ADC2_INP6" bidirectional line)
        (alternate "DFSDM1_CKIN6" bidirectional line)
        (alternate "FMC_A8" bidirectional line)
        (alternate "I2C4_SCL" bidirectional line)
        (alternate "TIM24_CH4" bidirectional line)
      )
      (pin bidirectional line (at -33.02 -22.86 0) (length 5.08)
        (name "PF15" (effects (font (size 1.27 1.27))))
        (number "55" (effects (font (size 1.27 1.27))))
        (alternate "ADC1_EXTI15" bidirectional line)
        (alternate "ADC2_EXTI15" bidirectional line)
        (alternate "ADC3_EXTI15" bidirectional line)
        (alternate "FMC_A9" bidirectional line)
        (alternate "I2C4_SDA" bidirectional line)
      )
      (pin bidirectional line (at -33.02 58.42 0) (length 5.08)
        (name "PG0" (effects (font (size 1.27 1.27))))
        (number "56" (effects (font (size 1.27 1.27))))
        (alternate "FMC_A10" bidirectional line)
        (alternate "OCTOSPIM_P2_IO4" bidirectional line)
        (alternate "UART9_RX" bidirectional line)
      )
      (pin bidirectional line (at -33.02 55.88 0) (length 5.08)
        (name "PG1" (effects (font (size 1.27 1.27))))
        (number "57" (effects (font (size 1.27 1.27))))
        (alternate "FMC_A11" bidirectional line)
        (alternate "OCTOSPIM_P2_IO5" bidirectional line)
        (alternate "OPAMP2_VINM" bidirectional line)
        (alternate "UART9_TX" bidirectional line)
      )
      (pin bidirectional line (at -33.02 -45.72 0) (length 5.08)
        (name "PE7" (effects (font (size 1.27 1.27))))
        (number "58" (effects (font (size 1.27 1.27))))
        (alternate "COMP2_INM" bidirectional line)
        (alternate "DFSDM1_DATIN2" bidirectional line)
        (alternate "FMC_D4" bidirectional line)
        (alternate "FMC_DA4" bidirectional line)
        (alternate "OCTOSPIM_P1_IO4" bidirectional line)
        (alternate "OPAMP2_VOUT" bidirectional line)
        (alternate "TIM1_ETR" bidirectional line)
        (alternate "UART7_RX" bidirectional line)
      )
      (pin bidirectional line (at -33.02 -48.26 0) (length 5.08)
        (name "PE8" (effects (font (size 1.27 1.27))))
        (number "59" (effects (font (size 1.27 1.27))))
        (alternate "COMP2_OUT" bidirectional line)
        (alternate "DFSDM1_CKIN2" bidirectional line)
        (alternate "FMC_D5" bidirectional line)
        (alternate "FMC_DA5" bidirectional line)
        (alternate "OCTOSPIM_P1_IO5" bidirectional line)
        (alternate "OPAMP2_VINM" bidirectional line)
        (alternate "TIM1_CH1N" bidirectional line)
        (alternate "UART7_TX" bidirectional line)
      )
      (pin bidirectional line (at -33.02 -50.8 0) (length 5.08)
        (name "PE9" (effects (font (size 1.27 1.27))))
        (number "60" (effects (font (size 1.27 1.27))))
        (alternate "COMP2_INP" bidirectional line)
        (alternate "DAC1_EXTI9" bidirectional line)
        (alternate "DFSDM1_CKOUT" bidirectional line)
        (alternate "FMC_D6" bidirectional line)
        (alternate "FMC_DA6" bidirectional line)
        (alternate "OCTOSPIM_P1_IO6" bidirectional line)
        (alternate "OPAMP2_VINP" bidirectional line)
        (alternate "TIM1_CH1" bidirectional line)
        (alternate "UART7_DE" bidirectional line)
        (alternate "UART7_RTS" bidirectional line)
      )
      (pin bidirectional line (at -33.02 -53.34 0) (length 5.08)
        (name "PE10" (effects (font (size 1.27 1.27))))
        (number "63" (effects (font (size 1.27 1.27))))
        (alternate "COMP2_INM" bidirectional line)
        (alternate "DFSDM1_DATIN4" bidirectional line)
        (alternate "FMC_D7" bidirectional line)
        (alternate "FMC_DA7" bidirectional line)
        (alternate "OCTOSPIM_P1_IO7" bidirectional line)
        (alternate "TIM1_CH2N" bidirectional line)
        (alternate "UART7_CTS" bidirectional line)
      )
      (pin bidirectional line (at -33.02 -55.88 0) (length 5.08)
        (name "PE11" (effects (font (size 1.27 1.27))))
        (number "64" (effects (font (size 1.27 1.27))))
        (alternate "ADC1_EXTI11" bidirectional line)
        (alternate "ADC2_EXTI11" bidirectional line)
        (alternate "ADC3_EXTI11" bidirectional line)
        (alternate "COMP2_INP" bidirectional line)
        (alternate "DFSDM1_CKIN4" bidirectional line)
        (alternate "FMC_D8" bidirectional line)
        (alternate "FMC_DA8" bidirectional line)
        (alternate "LTDC_G3" bidirectional line)
        (alternate "OCTOSPIM_P1_NCS" bidirectional line)
        (alternate "SAI4_SD_B" bidirectional line)
        (alternate "SPI4_NSS" bidirectional line)
        (alternate "TIM1_CH2" bidirectional line)
      )
      (pin bidirectional line (at -33.02 -58.42 0) (length 5.08)
        (name "PE12" (effects (font (size 1.27 1.27))))
        (number "65" (effects (font (size 1.27 1.27))))
        (alternate "COMP1_OUT" bidirectional line)
        (alternate "DFSDM1_DATIN5" bidirectional line)
        (alternate "FMC_D9" bidirectional line)
        (alternate "FMC_DA9" bidirectional line)
        (alternate "LTDC_B4" bidirectional line)
        (alternate "SAI4_SCK_B" bidirectional line)
        (alternate "SPI4_SCK" bidirectional line)
        (alternate "TIM1_CH3N" bidirectional line)
      )
      (pin bidirectional line (at -33.02 -60.96 0) (length 5.08)
        (name "PE13" (effects (font (size 1.27 1.27))))
        (number "66" (effects (font (size 1.27 1.27))))
        (alternate "COMP2_OUT" bidirectional line)
        (alternate "DFSDM1_CKIN5" bidirectional line)
        (alternate "FMC_D10" bidirectional line)
        (alternate "FMC_DA10" bidirectional line)
        (alternate "LTDC_DE" bidirectional line)
        (alternate "SAI4_FS_B" bidirectional line)
        (alternate "SPI4_MISO" bidirectional line)
        (alternate "TIM1_CH3" bidirectional line)
      )
      (pin bidirectional line (at -33.02 -63.5 0) (length 5.08)
        (name "PE14" (effects (font (size 1.27 1.27))))
        (number "67" (effects (font (size 1.27 1.27))))
        (alternate "FMC_D11" bidirectional line)
        (alternate "FMC_DA11" bidirectional line)
        (alternate "LTDC_CLK" bidirectional line)
        (alternate "SAI4_MCLK_B" bidirectional line)
        (alternate "SPI4_MOSI" bidirectional line)
        (alternate "TIM1_CH4" bidirectional line)
      )
      (pin bidirectional line (at -33.02 -66.04 0) (length 5.08)
        (name "PE15" (effects (font (size 1.27 1.27))))
        (number "68" (effects (font (size 1.27 1.27))))
        (alternate "ADC1_EXTI15" bidirectional line)
        (alternate "ADC2_EXTI15" bidirectional line)
        (alternate "ADC3_EXTI15" bidirectional line)
        (alternate "FMC_D12" bidirectional line)
        (alternate "FMC_DA12" bidirectional line)
        (alternate "LTDC_R7" bidirectional line)
        (alternate "TIM1_BKIN" bidirectional line)
        (alternate "TIM1_BKIN_COMP1" bidirectional line)
        (alternate "TIM1_BKIN_COMP2" bidirectional line)
        (alternate "USART10_CK" bidirectional line)
      )
      (pin bidirectional line (at 35.56 17.78 180) (length 5.08)
        (name "PB10" (effects (font (size 1.27 1.27))))
        (number "69" (effects (font (size 1.27 1.27))))
        (alternate "DFSDM1_DATIN7" bidirectional line)
        (alternate "ETH_RX_ER" bidirectional line)
        (alternate "I2C2_SCL" bidirectional line)
        (alternate "I2S2_CK" bidirectional line)
        (alternate "LPTIM2_IN1" bidirectional line)
        (alternate "LTDC_G4" bidirectional line)
        (alternate "OCTOSPIM_P1_NCS" bidirectional line)
        (alternate "SPI2_SCK" bidirectional line)
        (alternate "TIM2_CH3" bidirectional line)
        (alternate "USART3_TX" bidirectional line)
        (alternate "USB_OTG_HS_ULPI_D3" bidirectional line)
      )
      (pin bidirectional line (at 35.56 -33.02 180) (length 5.08)
        (name "PC13" (effects (font (size 1.27 1.27))))
        (number "7" (effects (font (size 1.27 1.27))))
        (alternate "PWR_WKUP4" bidirectional line)
        (alternate "RTC_OUT_ALARM" bidirectional line)
        (alternate "RTC_OUT_CALIB" bidirectional line)
        (alternate "RTC_TAMP1" bidirectional line)
        (alternate "RTC_TS" bidirectional line)
      )
      (pin bidirectional line (at 35.56 15.24 180) (length 5.08)
        (name "PB11" (effects (font (size 1.27 1.27))))
        (number "70" (effects (font (size 1.27 1.27))))
        (alternate "ADC1_EXTI11" bidirectional line)
        (alternate "ADC2_EXTI11" bidirectional line)
        (alternate "ADC3_EXTI11" bidirectional line)
        (alternate "DFSDM1_CKIN7" bidirectional line)
        (alternate "ETH_TX_EN" bidirectional line)
        (alternate "I2C2_SDA" bidirectional line)
        (alternate "LPTIM2_ETR" bidirectional line)
        (alternate "LTDC_G5" bidirectional line)
        (alternate "TIM2_CH4" bidirectional line)
        (alternate "USART3_RX" bidirectional line)
        (alternate "USB_OTG_HS_ULPI_D4" bidirectional line)
      )
      (pin power_out line (at -33.02 -71.12 0) (length 5.08)
        (name "VCAP" (effects (font (size 1.27 1.27))))
        (number "71" (effects (font (size 1.27 1.27))))
      )
      (pin bidirectional line (at 35.56 12.7 180) (length 5.08)
        (name "PB12" (effects (font (size 1.27 1.27))))
        (number "73" (effects (font (size 1.27 1.27))))
        (alternate "DFSDM1_DATIN1" bidirectional line)
        (alternate "ETH_TXD0" bidirectional line)
        (alternate "FDCAN2_RX" bidirectional line)
        (alternate "I2C2_SMBA" bidirectional line)
        (alternate "I2S2_WS" bidirectional line)
        (alternate "OCTOSPIM_P1_IO0" bidirectional line)
        (alternate "OCTOSPIM_P1_NCLK" bidirectional line)
        (alternate "SPI2_NSS" bidirectional line)
        (alternate "TIM1_BKIN" bidirectional line)
        (alternate "TIM1_BKIN_COMP1" bidirectional line)
        (alternate "TIM1_BKIN_COMP2" bidirectional line)
        (alternate "UART5_RX" bidirectional line)
        (alternate "USART3_CK" bidirectional line)
        (alternate "USB_OTG_HS_ULPI_D5" bidirectional line)
      )
      (pin bidirectional line (at 35.56 10.16 180) (length 5.08)
        (name "PB13" (effects (font (size 1.27 1.27))))
        (number "74" (effects (font (size 1.27 1.27))))
        (alternate "DCMI_D2" bidirectional line)
        (alternate "DFSDM1_CKIN1" bidirectional line)
        (alternate "ETH_TXD1" bidirectional line)
        (alternate "FDCAN2_TX" bidirectional line)
        (alternate "I2S2_CK" bidirectional line)
        (alternate "LPTIM2_OUT" bidirectional line)
        (alternate "OCTOSPIM_P1_IO2" bidirectional line)
        (alternate "PSSI_D2" bidirectional line)
        (alternate "SDMMC1_D0" bidirectional line)
        (alternate "SPI2_SCK" bidirectional line)
        (alternate "TIM1_CH1N" bidirectional line)
        (alternate "UART5_TX" bidirectional line)
        (alternate "USART3_CTS" bidirectional line)
        (alternate "USART3_NSS" bidirectional line)
        (alternate "USB_OTG_HS_ULPI_D6" bidirectional line)
      )
      (pin bidirectional line (at 35.56 7.62 180) (length 5.08)
        (name "PB14" (effects (font (size 1.27 1.27))))
        (number "75" (effects (font (size 1.27 1.27))))
        (alternate "DFSDM1_DATIN2" bidirectional line)
        (alternate "FMC_D10" bidirectional line)
        (alternate "FMC_DA10" bidirectional line)
        (alternate "I2S2_SDI" bidirectional line)
        (alternate "LTDC_CLK" bidirectional line)
        (alternate "SDMMC2_D0" bidirectional line)
        (alternate "SPI2_MISO" bidirectional line)
        (alternate "TIM12_CH1" bidirectional line)
        (alternate "TIM1_CH2N" bidirectional line)
        (alternate "TIM8_CH2N" bidirectional line)
        (alternate "UART4_DE" bidirectional line)
        (alternate "UART4_RTS" bidirectional line)
        (alternate "USART1_TX" bidirectional line)
        (alternate "USART3_DE" bidirectional line)
        (alternate "USART3_RTS" bidirectional line)
      )
      (pin bidirectional line (at 35.56 5.08 180) (length 5.08)
        (name "PB15" (effects (font (size 1.27 1.27))))
        (number "76" (effects (font (size 1.27 1.27))))
        (alternate "ADC1_EXTI15" bidirectional line)
        (alternate "ADC2_EXTI15" bidirectional line)
        (alternate "ADC3_EXTI15" bidirectional line)
        (alternate "DFSDM1_CKIN2" bidirectional line)
        (alternate "FMC_D11" bidirectional line)
        (alternate "FMC_DA11" bidirectional line)
        (alternate "I2S2_SDO" bidirectional line)
        (alternate "LTDC_G7" bidirectional line)
        (alternate "RTC_REFIN" bidirectional line)
        (alternate "SDMMC2_D1" bidirectional line)
        (alternate "SPI2_MOSI" bidirectional line)
        (alternate "TIM12_CH2" bidirectional line)
        (alternate "TIM1_CH3N" bidirectional line)
        (alternate "TIM8_CH3N" bidirectional line)
        (alternate "UART4_CTS" bidirectional line)
        (alternate "USART1_RX" bidirectional line)
      )
      (pin bidirectional line (at 35.56 -63.5 180) (length 5.08)
        (name "PD8" (effects (font (size 1.27 1.27))))
        (number "77" (effects (font (size 1.27 1.27))))
        (alternate "DFSDM1_CKIN3" bidirectional line)
        (alternate "FMC_D13" bidirectional line)
        (alternate "FMC_DA13" bidirectional line)
        (alternate "SPDIFRX1_IN1" bidirectional line)
        (alternate "USART3_TX" bidirectional line)
      )
      (pin bidirectional line (at 35.56 -66.04 180) (length 5.08)
        (name "PD9" (effects (font (size 1.27 1.27))))
        (number "78" (effects (font (size 1.27 1.27))))
        (alternate "DAC1_EXTI9" bidirectional line)
        (alternate "DFSDM1_DATIN3" bidirectional line)
        (alternate "FMC_D14" bidirectional line)
        (alternate "FMC_DA14" bidirectional line)
        (alternate "USART3_RX" bidirectional line)
      )
      (pin bidirectional line (at 35.56 -68.58 180) (length 5.08)
        (name "PD10" (effects (font (size 1.27 1.27))))
        (number "79" (effects (font (size 1.27 1.27))))
        (alternate "DFSDM1_CKOUT" bidirectional line)
        (alternate "FMC_D15" bidirectional line)
        (alternate "FMC_DA15" bidirectional line)
        (alternate "LTDC_B3" bidirectional line)
        (alternate "USART3_CK" bidirectional line)
      )
      (pin bidirectional line (at 35.56 -35.56 180) (length 5.08)
        (name "PC14" (effects (font (size 1.27 1.27))))
        (number "8" (effects (font (size 1.27 1.27))))
        (alternate "RCC_OSC32_IN" bidirectional line)
      )
      (pin bidirectional line (at 35.56 -71.12 180) (length 5.08)
        (name "PD11" (effects (font (size 1.27 1.27))))
        (number "80" (effects (font (size 1.27 1.27))))
        (alternate "ADC1_EXTI11" bidirectional line)
        (alternate "ADC2_EXTI11" bidirectional line)
        (alternate "ADC3_EXTI11" bidirectional line)
        (alternate "FMC_A16" bidirectional line)
        (alternate "FMC_CLE" bidirectional line)
        (alternate "I2C4_SMBA" bidirectional line)
        (alternate "LPTIM2_IN2" bidirectional line)
        (alternate "OCTOSPIM_P1_IO0" bidirectional line)
        (alternate "SAI4_SD_A" bidirectional line)
        (alternate "USART3_CTS" bidirectional line)
        (alternate "USART3_NSS" bidirectional line)
      )
      (pin bidirectional line (at 35.56 -73.66 180) (length 5.08)
        (name "PD12" (effects (font (size 1.27 1.27))))
        (number "81" (effects (font (size 1.27 1.27))))
        (alternate "DCMI_D12" bidirectional line)
        (alternate "FDCAN3_RX" bidirectional line)
        (alternate "FMC_A17" bidirectional line)
        (alternate "FMC_ALE" bidirectional line)
        (alternate "I2C4_SCL" bidirectional line)
        (alternate "LPTIM1_IN1" bidirectional line)
        (alternate "LPTIM2_IN1" bidirectional line)
        (alternate "OCTOSPIM_P1_IO1" bidirectional line)
        (alternate "PSSI_D12" bidirectional line)
        (alternate "SAI4_FS_A" bidirectional line)
        (alternate "TIM4_CH1" bidirectional line)
        (alternate "USART3_DE" bidirectional line)
        (alternate "USART3_RTS" bidirectional line)
      )
      (pin bidirectional line (at 35.56 -76.2 180) (length 5.08)
        (name "PD13" (effects (font (size 1.27 1.27))))
        (number "82" (effects (font (size 1.27 1.27))))
        (alternate "DCMI_D13" bidirectional line)
        (alternate "FDCAN3_TX" bidirectional line)
        (alternate "FMC_A18" bidirectional line)
        (alternate "I2C4_SDA" bidirectional line)
        (alternate "LPTIM1_OUT" bidirectional line)
        (alternate "OCTOSPIM_P1_IO3" bidirectional line)
        (alternate "PSSI_D13" bidirectional line)
        (alternate "SAI4_SCK_A" bidirectional line)
        (alternate "TIM4_CH2" bidirectional line)
        (alternate "UART9_DE" bidirectional line)
        (alternate "UART9_RTS" bidirectional line)
      )
      (pin bidirectional line (at 35.56 -78.74 180) (length 5.08)
        (name "PD14" (effects (font (size 1.27 1.27))))
        (number "85" (effects (font (size 1.27 1.27))))
        (alternate "FMC_D0" bidirectional line)
        (alternate "FMC_DA0" bidirectional line)
        (alternate "TIM4_CH3" bidirectional line)
        (alternate "UART8_CTS" bidirectional line)
        (alternate "UART9_RX" bidirectional line)
      )
      (pin bidirectional line (at 35.56 -81.28 180) (length 5.08)
        (name "PD15" (effects (font (size 1.27 1.27))))
        (number "86" (effects (font (size 1.27 1.27))))
        (alternate "ADC1_EXTI15" bidirectional line)
        (alternate "ADC2_EXTI15" bidirectional line)
        (alternate "ADC3_EXTI15" bidirectional line)
        (alternate "FMC_D1" bidirectional line)
        (alternate "FMC_DA1" bidirectional line)
        (alternate "TIM4_CH4" bidirectional line)
        (alternate "UART8_DE" bidirectional line)
        (alternate "UART8_RTS" bidirectional line)
        (alternate "UART9_TX" bidirectional line)
      )
      (pin bidirectional line (at -33.02 53.34 0) (length 5.08)
        (name "PG2" (effects (font (size 1.27 1.27))))
        (number "87" (effects (font (size 1.27 1.27))))
        (alternate "FMC_A12" bidirectional line)
        (alternate "TIM24_ETR" bidirectional line)
        (alternate "TIM8_BKIN" bidirectional line)
        (alternate "TIM8_BKIN_COMP1" bidirectional line)
        (alternate "TIM8_BKIN_COMP2" bidirectional line)
      )
      (pin bidirectional line (at -33.02 50.8 0) (length 5.08)
        (name "PG3" (effects (font (size 1.27 1.27))))
        (number "88" (effects (font (size 1.27 1.27))))
        (alternate "FMC_A13" bidirectional line)
        (alternate "TIM23_ETR" bidirectional line)
        (alternate "TIM8_BKIN2" bidirectional line)
        (alternate "TIM8_BKIN2_COMP1" bidirectional line)
        (alternate "TIM8_BKIN2_COMP2" bidirectional line)
      )
      (pin bidirectional line (at -33.02 48.26 0) (length 5.08)
        (name "PG4" (effects (font (size 1.27 1.27))))
        (number "89" (effects (font (size 1.27 1.27))))
        (alternate "FMC_A14" bidirectional line)
        (alternate "FMC_BA0" bidirectional line)
        (alternate "TIM1_BKIN2" bidirectional line)
        (alternate "TIM1_BKIN2_COMP1" bidirectional line)
        (alternate "TIM1_BKIN2_COMP2" bidirectional line)
      )
      (pin bidirectional line (at 35.56 -38.1 180) (length 5.08)
        (name "PC15" (effects (font (size 1.27 1.27))))
        (number "9" (effects (font (size 1.27 1.27))))
        (alternate "ADC1_EXTI15" bidirectional line)
        (alternate "ADC2_EXTI15" bidirectional line)
        (alternate "ADC3_EXTI15" bidirectional line)
        (alternate "RCC_OSC32_OUT" bidirectional line)
      )
      (pin bidirectional line (at -33.02 45.72 0) (length 5.08)
        (name "PG5" (effects (font (size 1.27 1.27))))
        (number "90" (effects (font (size 1.27 1.27))))
        (alternate "FMC_A15" bidirectional line)
        (alternate "FMC_BA1" bidirectional line)
        (alternate "TIM1_ETR" bidirectional line)
      )
      (pin bidirectional line (at -33.02 43.18 0) (length 5.08)
        (name "PG6" (effects (font (size 1.27 1.27))))
        (number "91" (effects (font (size 1.27 1.27))))
        (alternate "DCMI_D12" bidirectional line)
        (alternate "FMC_NE3" bidirectional line)
        (alternate "LTDC_R7" bidirectional line)
        (alternate "OCTOSPIM_P1_NCS" bidirectional line)
        (alternate "PSSI_D12" bidirectional line)
        (alternate "TIM17_BKIN" bidirectional line)
      )
      (pin bidirectional line (at -33.02 40.64 0) (length 5.08)
        (name "PG7" (effects (font (size 1.27 1.27))))
        (number "92" (effects (font (size 1.27 1.27))))
        (alternate "DCMI_D13" bidirectional line)
        (alternate "FMC_INT" bidirectional line)
        (alternate "LTDC_CLK" bidirectional line)
        (alternate "OCTOSPIM_P2_DQS" bidirectional line)
        (alternate "PSSI_D13" bidirectional line)
        (alternate "SAI1_MCLK_A" bidirectional line)
        (alternate "USART6_CK" bidirectional line)
      )
      (pin bidirectional line (at -33.02 38.1 0) (length 5.08)
        (name "PG8" (effects (font (size 1.27 1.27))))
        (number "93" (effects (font (size 1.27 1.27))))
        (alternate "ETH_PPS_OUT" bidirectional line)
        (alternate "FMC_SDCLK" bidirectional line)
        (alternate "I2S6_WS" bidirectional line)
        (alternate "LTDC_G7" bidirectional line)
        (alternate "SPDIFRX1_IN2" bidirectional line)
        (alternate "SPI6_NSS" bidirectional line)
        (alternate "TIM8_ETR" bidirectional line)
        (alternate "USART6_DE" bidirectional line)
        (alternate "USART6_RTS" bidirectional line)
      )
      (pin bidirectional line (at 35.56 -15.24 180) (length 5.08)
        (name "PC6" (effects (font (size 1.27 1.27))))
        (number "96" (effects (font (size 1.27 1.27))))
        (alternate "DCMI_D0" bidirectional line)
        (alternate "DFSDM1_CKIN3" bidirectional line)
        (alternate "FMC_NWAIT" bidirectional line)
        (alternate "I2S2_MCK" bidirectional line)
        (alternate "LTDC_HSYNC" bidirectional line)
        (alternate "PSSI_D0" bidirectional line)
        (alternate "SDMMC1_D0DIR" bidirectional line)
        (alternate "SDMMC1_D6" bidirectional line)
        (alternate "SDMMC2_D6" bidirectional line)
        (alternate "SWPMI1_IO" bidirectional line)
        (alternate "TIM3_CH1" bidirectional line)
        (alternate "TIM8_CH1" bidirectional line)
        (alternate "USART6_TX" bidirectional line)
      )
      (pin bidirectional line (at 35.56 -17.78 180) (length 5.08)
        (name "PC7" (effects (font (size 1.27 1.27))))
        (number "97" (effects (font (size 1.27 1.27))))
        (alternate "DCMI_D1" bidirectional line)
        (alternate "DEBUG_TRGIO" bidirectional line)
        (alternate "DFSDM1_DATIN3" bidirectional line)
        (alternate "FMC_NE1" bidirectional line)
        (alternate "I2S3_MCK" bidirectional line)
        (alternate "LTDC_G6" bidirectional line)
        (alternate "PSSI_D1" bidirectional line)
        (alternate "SDMMC1_D123DIR" bidirectional line)
        (alternate "SDMMC1_D7" bidirectional line)
        (alternate "SDMMC2_D7" bidirectional line)
        (alternate "SWPMI1_TX" bidirectional line)
        (alternate "TIM3_CH2" bidirectional line)
        (alternate "TIM8_CH2" bidirectional line)
        (alternate "USART6_RX" bidirectional line)
      )
      (pin bidirectional line (at 35.56 -20.32 180) (length 5.08)
        (name "PC8" (effects (font (size 1.27 1.27))))
        (number "98" (effects (font (size 1.27 1.27))))
        (alternate "DCMI_D2" bidirectional line)
        (alternate "DEBUG_TRACED1" bidirectional line)
        (alternate "FMC_INT" bidirectional line)
        (alternate "FMC_NCE" bidirectional line)
        (alternate "FMC_NE2" bidirectional line)
        (alternate "PSSI_D2" bidirectional line)
        (alternate "SDMMC1_D0" bidirectional line)
        (alternate "SWPMI1_RX" bidirectional line)
        (alternate "TIM3_CH3" bidirectional line)
        (alternate "TIM8_CH3" bidirectional line)
        (alternate "UART5_DE" bidirectional line)
        (alternate "UART5_RTS" bidirectional line)
        (alternate "USART6_CK" bidirectional line)
      )
      (pin bidirectional line (at 35.56 -22.86 180) (length 5.08)
        (name "PC9" (effects (font (size 1.27 1.27))))
        (number "99" (effects (font (size 1.27 1.27))))
        (alternate "DAC1_EXTI9" bidirectional line)
        (alternate "DCMI_D3" bidirectional line)
        (alternate "I2C3_SDA" bidirectional line)
        (alternate "I2C5_SDA" bidirectional line)
        (alternate "I2S_CKIN" bidirectional line)
        (alternate "LTDC_B2" bidirectional line)
        (alternate "LTDC_G3" bidirectional line)
        (alternate "OCTOSPIM_P1_IO0" bidirectional line)
        (alternate "PSSI_D3" bidirectional line)
        (alternate "RCC_MCO_2" bidirectional line)
        (alternate "SDMMC1_D1" bidirectional line)
        (alternate "SWPMI1_SUSPEND" bidirectional line)
        (alternate "TIM3_CH4" bidirectional line)
        (alternate "TIM8_CH4" bidirectional line)
        (alternate "UART5_CTS" bidirectional line)
      )
    )
    (symbol "STM32H723ZGTx_2_1"
      (rectangle (start -13.97 90.17) (end 15.24 33.02)
        (stroke (width 0) (type default))
        (fill (type background))
      )
      (pin power_out line (at -19.05 36.83 0) (length 5.08)
        (name "VCAP" (effects (font (size 1.27 1.27))))
        (number "106" (effects (font (size 1.27 1.27))))
      )
      (pin passive line (at 20.32 85.09 180) (length 5.08) hide
        (name "VSS" (effects (font (size 1.27 1.27))))
        (number "107" (effects (font (size 1.27 1.27))))
      )
      (pin power_in line (at -19.05 67.31 0) (length 5.08)
        (name "VDD" (effects (font (size 1.27 1.27))))
        (number "108" (effects (font (size 1.27 1.27))))
      )
      (pin passive line (at 20.32 85.09 180) (length 5.08) hide
        (name "VSS" (effects (font (size 1.27 1.27))))
        (number "120" (effects (font (size 1.27 1.27))))
      )
      (pin power_in line (at -19.05 64.77 0) (length 5.08)
        (name "VDD" (effects (font (size 1.27 1.27))))
        (number "121" (effects (font (size 1.27 1.27))))
      )
      (pin passive line (at 20.32 85.09 180) (length 5.08) hide
        (name "VSS" (effects (font (size 1.27 1.27))))
        (number "130" (effects (font (size 1.27 1.27))))
      )
      (pin power_in line (at -19.05 62.23 0) (length 5.08)
        (name "VDD" (effects (font (size 1.27 1.27))))
        (number "131" (effects (font (size 1.27 1.27))))
      )
      (pin input line (at -19.05 44.45 0) (length 5.08)
        (name "PDR_ON" (effects (font (size 1.27 1.27))))
        (number "143" (effects (font (size 1.27 1.27))))
      )
      (pin power_in line (at -19.05 59.69 0) (length 5.08)
        (name "VDD" (effects (font (size 1.27 1.27))))
        (number "144" (effects (font (size 1.27 1.27))))
      )
      (pin power_in line (at 20.32 85.09 180) (length 5.08)
        (name "VSS" (effects (font (size 1.27 1.27))))
        (number "16" (effects (font (size 1.27 1.27))))
      )
      (pin power_in line (at -19.05 85.09 0) (length 5.08)
        (name "VDD" (effects (font (size 1.27 1.27))))
        (number "17" (effects (font (size 1.27 1.27))))
      )
      (pin power_in line (at -19.05 82.55 0) (length 5.08)
        (name "VDD" (effects (font (size 1.27 1.27))))
        (number "30" (effects (font (size 1.27 1.27))))
      )
      (pin power_in line (at 20.32 87.63 180) (length 5.08)
        (name "VSSA" (effects (font (size 1.27 1.27))))
        (number "31" (effects (font (size 1.27 1.27))))
      )
      (pin input line (at -19.05 49.53 0) (length 5.08)
        (name "VREF+" (effects (font (size 1.27 1.27))))
        (number "32" (effects (font (size 1.27 1.27))))
        (alternate "VREFBUF_OUT" bidirectional line)
      )
      (pin power_in line (at -19.05 54.61 0) (length 5.08)
        (name "VDDA" (effects (font (size 1.27 1.27))))
        (number "33" (effects (font (size 1.27 1.27))))
      )
      (pin passive line (at 20.32 85.09 180) (length 5.08) hide
        (name "VSS" (effects (font (size 1.27 1.27))))
        (number "38" (effects (font (size 1.27 1.27))))
      )
      (pin power_in line (at -19.05 80.01 0) (length 5.08)
        (name "VDD" (effects (font (size 1.27 1.27))))
        (number "39" (effects (font (size 1.27 1.27))))
      )
      (pin passive line (at 20.32 85.09 180) (length 5.08) hide
        (name "VSS" (effects (font (size 1.27 1.27))))
        (number "51" (effects (font (size 1.27 1.27))))
      )
      (pin power_in line (at -19.05 77.47 0) (length 5.08)
        (name "VDD" (effects (font (size 1.27 1.27))))
        (number "52" (effects (font (size 1.27 1.27))))
      )
      (pin power_in line (at -19.05 87.63 0) (length 5.08)
        (name "VBAT" (effects (font (size 1.27 1.27))))
        (number "6" (effects (font (size 1.27 1.27))))
      )
      (pin passive line (at 20.32 85.09 180) (length 5.08) hide
        (name "VSS" (effects (font (size 1.27 1.27))))
        (number "61" (effects (font (size 1.27 1.27))))
      )
      (pin power_in line (at -19.05 74.93 0) (length 5.08)
        (name "VDD" (effects (font (size 1.27 1.27))))
        (number "62" (effects (font (size 1.27 1.27))))
      )
      (pin power_out line (at -19.05 39.37 0) (length 5.08)
        (name "VCAP" (effects (font (size 1.27 1.27))))
        (number "71" (effects (font (size 1.27 1.27))))
      )
      (pin power_in line (at -19.05 72.39 0) (length 5.08)
        (name "VDD" (effects (font (size 1.27 1.27))))
        (number "72" (effects (font (size 1.27 1.27))))
      )
      (pin passive line (at 20.32 85.09 180) (length 5.08) hide
        (name "VSS" (effects (font (size 1.27 1.27))))
        (number "83" (effects (font (size 1.27 1.27))))
      )
      (pin power_in line (at -19.05 69.85 0) (length 5.08)
        (name "VDD" (effects (font (size 1.27 1.27))))
        (number "84" (effects (font (size 1.27 1.27))))
      )
      (pin passive line (at 20.32 85.09 180) (length 5.08) hide
        (name "VSS" (effects (font (size 1.27 1.27))))
        (number "94" (effects (font (size 1.27 1.27))))
      )
      (pin power_in line (at -19.05 57.15 0) (length 5.08)
        (name "VDD33USB" (effects (font (size 1.27 1.27))))
        (number "95" (effects (font (size 1.27 1.27))))
      )
    )
  )
)
