(kicad_sch (version 20230121) (generator eeschema)

  (uuid 9a220d33-f1c4-4a33-aa66-4c9876f797f4)

  (paper "A4")

  (lib_symbols
    (symbol "Device:C" (pin_numbers hide) (pin_names (offset 0.254)) (in_bom yes) (on_board yes)
      (property "Reference" "C" (at 0.635 2.54 0)
        (effects (font (size 1.27 1.27)) (justify left))
      )
      (property "Value" "C" (at 0.635 -2.54 0)
        (effects (font (size 1.27 1.27)) (justify left))
      )
      (property "Footprint" "" (at 0.9652 -3.81 0)
        (effects (font (size 1.27 1.27)) hide)
      )
      (property "Datasheet" "~" (at 0 0 0)
        (effects (font (size 1.27 1.27)) hide)
      )
      (property "ki_keywords" "cap capacitor" (at 0 0 0)
        (effects (font (size 1.27 1.27)) hide)
      )
      (property "ki_description" "Unpolarized capacitor" (at 0 0 0)
        (effects (font (size 1.27 1.27)) hide)
      )
      (property "ki_fp_filters" "C_*" (at 0 0 0)
        (effects (font (size 1.27 1.27)) hide)
      )
      (symbol "C_0_1"
        (polyline
          (pts
            (xy -2.032 -0.762)
            (xy 2.032 -0.762)
          )
          (stroke (width 0.508) (type default))
          (fill (type none))
        )
        (polyline
          (pts
            (xy -2.032 0.762)
            (xy 2.032 0.762)
          )
          (stroke (width 0.508) (type default))
          (fill (type none))
        )
      )
      (symbol "C_1_1"
        (pin passive line (at 0 3.81 270) (length 2.794)
          (name "~" (effects (font (size 1.27 1.27))))
          (number "1" (effects (font (size 1.27 1.27))))
        )
        (pin passive line (at 0 -3.81 90) (length 2.794)
          (name "~" (effects (font (size 1.27 1.27))))
          (number "2" (effects (font (size 1.27 1.27))))
        )
      )
    )
    (symbol "head:W9825G6KH-6" (pin_names (offset 0.254)) (in_bom yes) (on_board yes)
      (property "Reference" "U" (at 16.51 3.81 0)
        (effects (font (size 1.524 1.524)))
      )
      (property "Value" "W9825G6KH-6" (at 15.24 -82.55 0)
        (effects (font (size 1.524 1.524)))
      )
      (property "Footprint" "tolikprinter:SMT_5G6KH-6_WIN" (at 2.54 11.43 0)
        (effects (font (size 1.27 1.27) italic) hide)
      )
      (property "Datasheet" "W9825G6KH-6" (at 1.27 11.43 0)
        (effects (font (size 1.27 1.27) italic) hide)
      )
      (property "ki_keywords" "W9825G6KH-6" (at 0 0 0)
        (effects (font (size 1.27 1.27)) hide)
      )
      (property "ki_fp_filters" "SMT_5G6KH-6_WIN SMT_5G6KH-6_WIN-M SMT_5G6KH-6_WIN-L" (at 0 0 0)
        (effects (font (size 1.27 1.27)) hide)
      )
      (symbol "W9825G6KH-6_0_1"
        (pin power_in line (at 5.08 -80.01 0) (length 2.54)
          (name "VDD" (effects (font (size 1.27 1.27))))
          (number "1" (effects (font (size 1.27 1.27))))
        )
        (pin bidirectional line (at 26.67 -12.7 180) (length 2.54)
          (name "DQ5" (effects (font (size 1.27 1.27))))
          (number "10" (effects (font (size 1.27 1.27))))
        )
        (pin bidirectional line (at 26.67 -15.24 180) (length 2.54)
          (name "DQ6" (effects (font (size 1.27 1.27))))
          (number "11" (effects (font (size 1.27 1.27))))
        )
        (pin power_out line (at 26.67 -59.69 180) (length 2.54)
          (name "VSSQ" (effects (font (size 1.27 1.27))))
          (number "12" (effects (font (size 1.27 1.27))))
        )
        (pin bidirectional line (at 26.67 -17.78 180) (length 2.54)
          (name "DQ7" (effects (font (size 1.27 1.27))))
          (number "13" (effects (font (size 1.27 1.27))))
        )
        (pin power_in line (at 5.08 -77.47 0) (length 2.54)
          (name "VDD" (effects (font (size 1.27 1.27))))
          (number "14" (effects (font (size 1.27 1.27))))
        )
        (pin unspecified line (at 5.08 -60.96 0) (length 2.54)
          (name "LDQM" (effects (font (size 1.27 1.27))))
          (number "15" (effects (font (size 1.27 1.27))))
        )
        (pin bidirectional line (at 26.67 0 180) (length 2.54)
          (name "DQ0" (effects (font (size 1.27 1.27))))
          (number "2" (effects (font (size 1.27 1.27))))
        )
        (pin bidirectional line (at 5.08 -36.83 0) (length 2.54)
          (name "BS0" (effects (font (size 1.27 1.27))))
          (number "20" (effects (font (size 1.27 1.27))))
        )
        (pin bidirectional line (at 5.08 -34.29 0) (length 2.54)
          (name "BS1" (effects (font (size 1.27 1.27))))
          (number "21" (effects (font (size 1.27 1.27))))
        )
        (pin bidirectional line (at 5.08 -25.4 0) (length 2.54)
          (name "A10/AP" (effects (font (size 1.27 1.27))))
          (number "22" (effects (font (size 1.27 1.27))))
        )
        (pin bidirectional line (at 5.08 0 0) (length 2.54)
          (name "A0" (effects (font (size 1.27 1.27))))
          (number "23" (effects (font (size 1.27 1.27))))
        )
        (pin bidirectional line (at 5.08 -2.54 0) (length 2.54)
          (name "A1" (effects (font (size 1.27 1.27))))
          (number "24" (effects (font (size 1.27 1.27))))
        )
        (pin bidirectional line (at 5.08 -5.08 0) (length 2.54)
          (name "A2" (effects (font (size 1.27 1.27))))
          (number "25" (effects (font (size 1.27 1.27))))
        )
        (pin bidirectional line (at 5.08 -7.62 0) (length 2.54)
          (name "A3" (effects (font (size 1.27 1.27))))
          (number "26" (effects (font (size 1.27 1.27))))
        )
        (pin power_in line (at 5.08 -74.93 0) (length 2.54)
          (name "VDD" (effects (font (size 1.27 1.27))))
          (number "27" (effects (font (size 1.27 1.27))))
        )
        (pin power_out line (at 26.67 -67.31 180) (length 2.54)
          (name "VSS" (effects (font (size 1.27 1.27))))
          (number "28" (effects (font (size 1.27 1.27))))
        )
        (pin bidirectional line (at 5.08 -10.16 0) (length 2.54)
          (name "A4" (effects (font (size 1.27 1.27))))
          (number "29" (effects (font (size 1.27 1.27))))
        )
        (pin power_in line (at 5.08 -64.77 0) (length 2.54)
          (name "VDDQ" (effects (font (size 1.27 1.27))))
          (number "3" (effects (font (size 1.27 1.27))))
        )
        (pin bidirectional line (at 5.08 -12.7 0) (length 2.54)
          (name "A5" (effects (font (size 1.27 1.27))))
          (number "30" (effects (font (size 1.27 1.27))))
        )
        (pin bidirectional line (at 5.08 -15.24 0) (length 2.54)
          (name "A6" (effects (font (size 1.27 1.27))))
          (number "31" (effects (font (size 1.27 1.27))))
        )
        (pin bidirectional line (at 5.08 -17.78 0) (length 2.54)
          (name "A7" (effects (font (size 1.27 1.27))))
          (number "32" (effects (font (size 1.27 1.27))))
        )
        (pin bidirectional line (at 5.08 -20.32 0) (length 2.54)
          (name "A8" (effects (font (size 1.27 1.27))))
          (number "33" (effects (font (size 1.27 1.27))))
        )
        (pin bidirectional line (at 5.08 -22.86 0) (length 2.54)
          (name "A9" (effects (font (size 1.27 1.27))))
          (number "34" (effects (font (size 1.27 1.27))))
        )
        (pin bidirectional line (at 5.08 -27.94 0) (length 2.54)
          (name "A11" (effects (font (size 1.27 1.27))))
          (number "35" (effects (font (size 1.27 1.27))))
        )
        (pin bidirectional line (at 5.08 -30.48 0) (length 2.54)
          (name "A12" (effects (font (size 1.27 1.27))))
          (number "36" (effects (font (size 1.27 1.27))))
        )
        (pin unspecified line (at 5.08 -50.8 0) (length 2.54)
          (name "CKE" (effects (font (size 1.27 1.27))))
          (number "37" (effects (font (size 1.27 1.27))))
        )
        (pin unspecified line (at 5.08 -53.34 0) (length 2.54)
          (name "CLK" (effects (font (size 1.27 1.27))))
          (number "38" (effects (font (size 1.27 1.27))))
        )
        (pin unspecified line (at 5.08 -58.42 0) (length 2.54)
          (name "UDQM" (effects (font (size 1.27 1.27))))
          (number "39" (effects (font (size 1.27 1.27))))
        )
        (pin bidirectional line (at 26.67 -2.54 180) (length 2.54)
          (name "DQ1" (effects (font (size 1.27 1.27))))
          (number "4" (effects (font (size 1.27 1.27))))
        )
        (pin no_connect line (at 26.67 -43.18 180) (length 2.54)
          (name "NC" (effects (font (size 1.27 1.27))))
          (number "40" (effects (font (size 1.27 1.27))))
        )
        (pin power_out line (at 26.67 -69.85 180) (length 2.54)
          (name "VSS" (effects (font (size 1.27 1.27))))
          (number "41" (effects (font (size 1.27 1.27))))
        )
        (pin bidirectional line (at 26.67 -20.32 180) (length 2.54)
          (name "DQ8" (effects (font (size 1.27 1.27))))
          (number "42" (effects (font (size 1.27 1.27))))
        )
        (pin power_in line (at 5.08 -69.85 0) (length 2.54)
          (name "VDDQ" (effects (font (size 1.27 1.27))))
          (number "43" (effects (font (size 1.27 1.27))))
        )
        (pin bidirectional line (at 26.67 -22.86 180) (length 2.54)
          (name "DQ9" (effects (font (size 1.27 1.27))))
          (number "44" (effects (font (size 1.27 1.27))))
        )
        (pin bidirectional line (at 26.67 -25.4 180) (length 2.54)
          (name "DQ10" (effects (font (size 1.27 1.27))))
          (number "45" (effects (font (size 1.27 1.27))))
        )
        (pin power_out line (at 26.67 -54.61 180) (length 2.54)
          (name "VSSQ" (effects (font (size 1.27 1.27))))
          (number "46" (effects (font (size 1.27 1.27))))
        )
        (pin bidirectional line (at 26.67 -27.94 180) (length 2.54)
          (name "DQ11" (effects (font (size 1.27 1.27))))
          (number "47" (effects (font (size 1.27 1.27))))
        )
        (pin bidirectional line (at 26.67 -30.48 180) (length 2.54)
          (name "DQ12" (effects (font (size 1.27 1.27))))
          (number "48" (effects (font (size 1.27 1.27))))
        )
        (pin power_in line (at 5.08 -67.31 0) (length 2.54)
          (name "VDDQ" (effects (font (size 1.27 1.27))))
          (number "49" (effects (font (size 1.27 1.27))))
        )
        (pin bidirectional line (at 26.67 -5.08 180) (length 2.54)
          (name "DQ2" (effects (font (size 1.27 1.27))))
          (number "5" (effects (font (size 1.27 1.27))))
        )
        (pin bidirectional line (at 26.67 -33.02 180) (length 2.54)
          (name "DQ13" (effects (font (size 1.27 1.27))))
          (number "50" (effects (font (size 1.27 1.27))))
        )
        (pin bidirectional line (at 26.67 -35.56 180) (length 2.54)
          (name "DQ14" (effects (font (size 1.27 1.27))))
          (number "51" (effects (font (size 1.27 1.27))))
        )
        (pin power_out line (at 26.67 -57.15 180) (length 2.54)
          (name "VSSQ" (effects (font (size 1.27 1.27))))
          (number "52" (effects (font (size 1.27 1.27))))
        )
        (pin bidirectional line (at 26.67 -38.1 180) (length 2.54)
          (name "DQ15" (effects (font (size 1.27 1.27))))
          (number "53" (effects (font (size 1.27 1.27))))
        )
        (pin power_out line (at 26.67 -64.77 180) (length 2.54)
          (name "VSS" (effects (font (size 1.27 1.27))))
          (number "54" (effects (font (size 1.27 1.27))))
        )
        (pin power_out line (at 26.67 -62.23 180) (length 2.54)
          (name "VSSQ" (effects (font (size 1.27 1.27))))
          (number "6" (effects (font (size 1.27 1.27))))
        )
        (pin bidirectional line (at 26.67 -7.62 180) (length 2.54)
          (name "DQ3" (effects (font (size 1.27 1.27))))
          (number "7" (effects (font (size 1.27 1.27))))
        )
        (pin bidirectional line (at 26.67 -10.16 180) (length 2.54)
          (name "DQ4" (effects (font (size 1.27 1.27))))
          (number "8" (effects (font (size 1.27 1.27))))
        )
        (pin power_in line (at 5.08 -72.39 0) (length 2.54)
          (name "VDDQ" (effects (font (size 1.27 1.27))))
          (number "9" (effects (font (size 1.27 1.27))))
        )
      )
      (symbol "W9825G6KH-6_1_1"
        (rectangle (start 7.62 2.54) (end 24.13 -81.28)
          (stroke (width 0) (type default))
          (fill (type background))
        )
        (pin unspecified inverted (at 5.08 -40.64 0) (length 2.54)
          (name "WE" (effects (font (size 1.27 1.27))))
          (number "16" (effects (font (size 1.27 1.27))))
        )
        (pin unspecified inverted (at 5.08 -43.18 0) (length 2.54)
          (name "CAS" (effects (font (size 1.27 1.27))))
          (number "17" (effects (font (size 1.27 1.27))))
        )
        (pin unspecified inverted (at 5.08 -45.72 0) (length 2.54)
          (name "RAS" (effects (font (size 1.27 1.27))))
          (number "18" (effects (font (size 1.27 1.27))))
        )
        (pin unspecified inverted (at 5.08 -48.26 0) (length 2.54)
          (name "CS" (effects (font (size 1.27 1.27))))
          (number "19" (effects (font (size 1.27 1.27))))
        )
      )
    )
    (symbol "power:+3.3V" (power) (pin_names (offset 0)) (in_bom yes) (on_board yes)
      (property "Reference" "#PWR" (at 0 -3.81 0)
        (effects (font (size 1.27 1.27)) hide)
      )
      (property "Value" "+3.3V" (at 0 3.556 0)
        (effects (font (size 1.27 1.27)))
      )
      (property "Footprint" "" (at 0 0 0)
        (effects (font (size 1.27 1.27)) hide)
      )
      (property "Datasheet" "" (at 0 0 0)
        (effects (font (size 1.27 1.27)) hide)
      )
      (property "ki_keywords" "global power" (at 0 0 0)
        (effects (font (size 1.27 1.27)) hide)
      )
      (property "ki_description" "Power symbol creates a global label with name \"+3.3V\"" (at 0 0 0)
        (effects (font (size 1.27 1.27)) hide)
      )
      (symbol "+3.3V_0_1"
        (polyline
          (pts
            (xy -0.762 1.27)
            (xy 0 2.54)
          )
          (stroke (width 0) (type default))
          (fill (type none))
        )
        (polyline
          (pts
            (xy 0 0)
            (xy 0 2.54)
          )
          (stroke (width 0) (type default))
          (fill (type none))
        )
        (polyline
          (pts
            (xy 0 2.54)
            (xy 0.762 1.27)
          )
          (stroke (width 0) (type default))
          (fill (type none))
        )
      )
      (symbol "+3.3V_1_1"
        (pin power_in line (at 0 0 90) (length 0) hide
          (name "+3.3V" (effects (font (size 1.27 1.27))))
          (number "1" (effects (font (size 1.27 1.27))))
        )
      )
    )
    (symbol "power:GND" (power) (pin_names (offset 0)) (in_bom yes) (on_board yes)
      (property "Reference" "#PWR" (at 0 -6.35 0)
        (effects (font (size 1.27 1.27)) hide)
      )
      (property "Value" "GND" (at 0 -3.81 0)
        (effects (font (size 1.27 1.27)))
      )
      (property "Footprint" "" (at 0 0 0)
        (effects (font (size 1.27 1.27)) hide)
      )
      (property "Datasheet" "" (at 0 0 0)
        (effects (font (size 1.27 1.27)) hide)
      )
      (property "ki_keywords" "global power" (at 0 0 0)
        (effects (font (size 1.27 1.27)) hide)
      )
      (property "ki_description" "Power symbol creates a global label with name \"GND\" , ground" (at 0 0 0)
        (effects (font (size 1.27 1.27)) hide)
      )
      (symbol "GND_0_1"
        (polyline
          (pts
            (xy 0 0)
            (xy 0 -1.27)
            (xy 1.27 -1.27)
            (xy 0 -2.54)
            (xy -1.27 -1.27)
            (xy 0 -1.27)
          )
          (stroke (width 0) (type default))
          (fill (type none))
        )
      )
      (symbol "GND_1_1"
        (pin power_in line (at 0 0 270) (length 0) hide
          (name "GND" (effects (font (size 1.27 1.27))))
          (number "1" (effects (font (size 1.27 1.27))))
        )
      )
    )
  )

  (junction (at 170.18 132.08) (diameter 0) (color 0 0 0 0)
    (uuid 0315999c-345a-4b8a-94c2-4781ad6b2e5d)
  )
  (junction (at 190.5 143.51) (diameter 0) (color 0 0 0 0)
    (uuid 0fbca307-8657-4cf4-a86e-de6a5ec87d2f)
  )
  (junction (at 165.1 143.51) (diameter 0) (color 0 0 0 0)
    (uuid 1328b412-3f80-4d90-b4a8-8f4854f9cdc5)
  )
  (junction (at 144.78 128.27) (diameter 0) (color 0 0 0 0)
    (uuid 167865e6-679e-4784-aa58-1ad3532781df)
  )
  (junction (at 195.58 143.51) (diameter 0) (color 0 0 0 0)
    (uuid 1dcc5006-375f-4fd7-8958-e8b5a27a0be1)
  )
  (junction (at 185.42 143.51) (diameter 0) (color 0 0 0 0)
    (uuid 2fd9464d-c79f-46e0-9f6b-3be538f2c039)
  )
  (junction (at 118.11 135.89) (diameter 0) (color 0 0 0 0)
    (uuid 2fdf70a4-30a1-4882-9fee-5054d1c01b28)
  )
  (junction (at 160.02 132.08) (diameter 0) (color 0 0 0 0)
    (uuid 330c5375-b641-40af-9dee-44ed9cc104a7)
  )
  (junction (at 144.78 120.65) (diameter 0) (color 0 0 0 0)
    (uuid 33329045-0d43-41d3-a40e-a29d22377ce6)
  )
  (junction (at 118.11 128.27) (diameter 0) (color 0 0 0 0)
    (uuid 41351a70-811c-40a5-a880-8775921249b3)
  )
  (junction (at 185.42 132.08) (diameter 0) (color 0 0 0 0)
    (uuid 4d4b81b3-b5c8-4ccc-a98d-43dc4284b01e)
  )
  (junction (at 144.78 130.81) (diameter 0) (color 0 0 0 0)
    (uuid 4ffd3260-45f1-4d34-a9f3-0e47c084a564)
  )
  (junction (at 144.78 133.35) (diameter 0) (color 0 0 0 0)
    (uuid 52a6ffe1-cf9c-4fd6-bd67-5ecb3b243d63)
  )
  (junction (at 180.34 132.08) (diameter 0) (color 0 0 0 0)
    (uuid 56148172-9977-4e46-a4a0-da4d49a7e4c6)
  )
  (junction (at 165.1 132.08) (diameter 0) (color 0 0 0 0)
    (uuid 5664c2be-5177-4402-838f-2b8c57c5cee1)
  )
  (junction (at 180.34 143.51) (diameter 0) (color 0 0 0 0)
    (uuid 77a7b4fb-7b97-4e36-a0fc-dca1526dd918)
  )
  (junction (at 118.11 138.43) (diameter 0) (color 0 0 0 0)
    (uuid 7e61ea17-042f-4853-bbda-940607413a29)
  )
  (junction (at 175.26 143.51) (diameter 0) (color 0 0 0 0)
    (uuid 90313e26-a4c4-435d-a846-03aa36e7be5b)
  )
  (junction (at 170.18 143.51) (diameter 0) (color 0 0 0 0)
    (uuid b80acf9a-a1cd-4073-9ff3-1d4dcb100c39)
  )
  (junction (at 144.78 123.19) (diameter 0) (color 0 0 0 0)
    (uuid ba7607a9-e64d-4e17-8ac5-70c1b00a220f)
  )
  (junction (at 175.26 132.08) (diameter 0) (color 0 0 0 0)
    (uuid c011ac59-bb88-441f-b041-cb840a6e5eb0)
  )
  (junction (at 118.11 140.97) (diameter 0) (color 0 0 0 0)
    (uuid c4013fbd-51b3-4372-aea9-8f68307bd688)
  )
  (junction (at 118.11 130.81) (diameter 0) (color 0 0 0 0)
    (uuid cea0d675-bc8e-43d1-8d62-f1709d51d865)
  )
  (junction (at 190.5 132.08) (diameter 0) (color 0 0 0 0)
    (uuid d9b90856-e03b-421e-b230-cd9d3643368f)
  )
  (junction (at 144.78 125.73) (diameter 0) (color 0 0 0 0)
    (uuid ef150547-7cec-4393-bd1c-74ddb1452f93)
  )
  (junction (at 118.11 133.35) (diameter 0) (color 0 0 0 0)
    (uuid f595bf33-1b1d-4093-a463-75bcc81ac8fe)
  )

  (no_connect (at 142.24 106.68) (uuid e7aa5d22-c409-4dd9-8116-16bf6faf2760))

  (bus_entry (at 156.21 88.9) (size -2.54 2.54)
    (stroke (width 0) (type default))
    (uuid 04c02737-c52e-4d45-b5cd-8664e56de53d)
  )
  (bus_entry (at 156.21 68.58) (size -2.54 2.54)
    (stroke (width 0) (type default))
    (uuid 0ec03662-675e-440a-b0bf-a15da6dbfe92)
  )
  (bus_entry (at 107.95 86.36) (size 2.54 2.54)
    (stroke (width 0) (type default))
    (uuid 175f6a78-aad5-4f1c-ae17-f0f73fa3e1e7)
  )
  (bus_entry (at 107.95 68.58) (size 2.54 2.54)
    (stroke (width 0) (type default))
    (uuid 18851aa0-8c0c-4747-9ba6-0c8c01d02fdc)
  )
  (bus_entry (at 156.21 78.74) (size -2.54 2.54)
    (stroke (width 0) (type default))
    (uuid 1c1dd6b3-0528-4a89-a33c-b6940359143d)
  )
  (bus_entry (at 156.21 91.44) (size -2.54 2.54)
    (stroke (width 0) (type default))
    (uuid 1d82ee7d-bc6c-4b4a-8b98-46510ccfd232)
  )
  (bus_entry (at 107.95 60.96) (size 2.54 2.54)
    (stroke (width 0) (type default))
    (uuid 20ecd86c-b386-47f1-b27d-4075d7b1cdf9)
  )
  (bus_entry (at 156.21 96.52) (size -2.54 2.54)
    (stroke (width 0) (type default))
    (uuid 29e8c40b-79e2-40f6-906d-ee14471ce4ff)
  )
  (bus_entry (at 107.95 95.25) (size 2.54 2.54)
    (stroke (width 0) (type default))
    (uuid 30253a82-fda7-4558-bb77-381a75f7b009)
  )
  (bus_entry (at 107.95 83.82) (size 2.54 2.54)
    (stroke (width 0) (type default))
    (uuid 3d139d3b-11c2-45e7-91b6-dd3295163ddd)
  )
  (bus_entry (at 156.21 73.66) (size -2.54 2.54)
    (stroke (width 0) (type default))
    (uuid 5011f7ba-7521-4d98-a92d-8756b8443190)
  )
  (bus_entry (at 107.95 91.44) (size 2.54 2.54)
    (stroke (width 0) (type default))
    (uuid 56946cdf-0f4c-49b1-ae65-6e513a95962b)
  )
  (bus_entry (at 107.95 76.2) (size 2.54 2.54)
    (stroke (width 0) (type default))
    (uuid 5ff4bffb-1e76-4985-83d2-2a8e3a2dc923)
  )
  (bus_entry (at 156.21 83.82) (size -2.54 2.54)
    (stroke (width 0) (type default))
    (uuid 602736cc-039a-44b1-8c66-9369f179a705)
  )
  (bus_entry (at 156.21 81.28) (size -2.54 2.54)
    (stroke (width 0) (type default))
    (uuid 612aea64-ef5d-4514-bdee-d477ea0ba20d)
  )
  (bus_entry (at 156.21 66.04) (size -2.54 2.54)
    (stroke (width 0) (type default))
    (uuid 642f3858-bce7-4d8b-a833-91ad5cc9c7b2)
  )
  (bus_entry (at 107.95 73.66) (size 2.54 2.54)
    (stroke (width 0) (type default))
    (uuid 739bc6df-ff65-4159-87fd-b73496801490)
  )
  (bus_entry (at 107.95 88.9) (size 2.54 2.54)
    (stroke (width 0) (type default))
    (uuid 77d36696-b751-4304-9159-0a4d93862773)
  )
  (bus_entry (at 156.21 86.36) (size -2.54 2.54)
    (stroke (width 0) (type default))
    (uuid 8afb7e43-5769-4f1b-a323-6143add6bc5c)
  )
  (bus_entry (at 107.95 97.79) (size 2.54 2.54)
    (stroke (width 0) (type default))
    (uuid 95115946-9421-4334-89ff-2eb746c85e60)
  )
  (bus_entry (at 107.95 71.12) (size 2.54 2.54)
    (stroke (width 0) (type default))
    (uuid 976a7bde-e890-429b-8875-d72580737bb5)
  )
  (bus_entry (at 156.21 60.96) (size -2.54 2.54)
    (stroke (width 0) (type default))
    (uuid a59c1781-e507-47d6-a08a-a679c10e3407)
  )
  (bus_entry (at 156.21 99.06) (size -2.54 2.54)
    (stroke (width 0) (type default))
    (uuid a95dbba8-1780-4ced-950f-d1c93c365c8b)
  )
  (bus_entry (at 156.21 76.2) (size -2.54 2.54)
    (stroke (width 0) (type default))
    (uuid bb646ddf-92d4-445e-8cd6-63ff687d4994)
  )
  (bus_entry (at 156.21 71.12) (size -2.54 2.54)
    (stroke (width 0) (type default))
    (uuid c0f070f3-eb2b-445c-90f2-7e5a08f68ba4)
  )
  (bus_entry (at 156.21 93.98) (size -2.54 2.54)
    (stroke (width 0) (type default))
    (uuid d3781da8-b733-4152-a64e-5ba9e964fd92)
  )
  (bus_entry (at 107.95 63.5) (size 2.54 2.54)
    (stroke (width 0) (type default))
    (uuid dce1cb96-2521-404e-a3f6-455e83101fe5)
  )
  (bus_entry (at 107.95 66.04) (size 2.54 2.54)
    (stroke (width 0) (type default))
    (uuid ddd4b6ae-e5e5-4068-a1e2-e6780f931ac9)
  )
  (bus_entry (at 107.95 78.74) (size 2.54 2.54)
    (stroke (width 0) (type default))
    (uuid ded656d3-5ab0-4e43-8782-2519db458104)
  )
  (bus_entry (at 156.21 63.5) (size -2.54 2.54)
    (stroke (width 0) (type default))
    (uuid e5a2e6c1-58de-4e26-a7cd-917e9212e3aa)
  )
  (bus_entry (at 107.95 81.28) (size 2.54 2.54)
    (stroke (width 0) (type default))
    (uuid f8490cfb-66af-4349-9bac-58ed7d41fca9)
  )

  (wire (pts (xy 144.78 120.65) (xy 144.78 123.19))
    (stroke (width 0) (type default))
    (uuid 05e2ef35-16e9-4883-a02a-846e53cb6f52)
  )
  (bus (pts (xy 156.21 78.74) (xy 156.21 76.2))
    (stroke (width 0) (type default))
    (uuid 09f7ba61-f8ff-45a0-a488-fc096d7bcf09)
  )

  (wire (pts (xy 118.11 140.97) (xy 118.11 138.43))
    (stroke (width 0) (type default))
    (uuid 0b75645d-11bd-4a4e-9d21-7bebb78f5601)
  )
  (wire (pts (xy 142.24 81.28) (xy 153.67 81.28))
    (stroke (width 0) (type default))
    (uuid 0b89efc2-375a-40ff-8053-8ab13d4052ff)
  )
  (wire (pts (xy 142.24 83.82) (xy 153.67 83.82))
    (stroke (width 0) (type default))
    (uuid 0e1a733d-3729-4f07-98d0-d7fe759ad3fe)
  )
  (wire (pts (xy 110.49 97.79) (xy 120.65 97.79))
    (stroke (width 0) (type default))
    (uuid 0f0b00e9-0814-48f1-b300-5a0ba7a1046c)
  )
  (bus (pts (xy 156.21 93.98) (xy 156.21 96.52))
    (stroke (width 0) (type default))
    (uuid 11fdf182-2999-46c5-8cbf-f9c2d4d8b315)
  )

  (wire (pts (xy 110.49 68.58) (xy 120.65 68.58))
    (stroke (width 0) (type default))
    (uuid 172975f0-0cbf-4c1e-b10c-8a1a0ddbae70)
  )
  (wire (pts (xy 185.42 140.97) (xy 185.42 143.51))
    (stroke (width 0) (type default))
    (uuid 17bae21f-6cea-4976-8fbf-fc551067e0b1)
  )
  (wire (pts (xy 110.49 73.66) (xy 120.65 73.66))
    (stroke (width 0) (type default))
    (uuid 1b03eec9-b42c-44ac-95f1-03de785ef530)
  )
  (wire (pts (xy 120.65 133.35) (xy 118.11 133.35))
    (stroke (width 0) (type default))
    (uuid 20d184ac-10b1-45b1-a4ae-ca30b7f02cf7)
  )
  (bus (pts (xy 107.95 66.04) (xy 107.95 63.5))
    (stroke (width 0) (type default))
    (uuid 23d6d8b3-1d9e-4b18-9eb8-65395ce8a76a)
  )

  (wire (pts (xy 142.24 96.52) (xy 153.67 96.52))
    (stroke (width 0) (type default))
    (uuid 24695fbe-910e-41cb-9b73-a879c1ea68fd)
  )
  (wire (pts (xy 160.02 143.51) (xy 160.02 140.97))
    (stroke (width 0) (type default))
    (uuid 288f5179-0aad-4622-8188-44adaaa354a2)
  )
  (wire (pts (xy 165.1 132.08) (xy 170.18 132.08))
    (stroke (width 0) (type default))
    (uuid 290d4ebb-8103-418b-8454-f585c412ece9)
  )
  (wire (pts (xy 142.24 99.06) (xy 153.67 99.06))
    (stroke (width 0) (type default))
    (uuid 29b1f13b-88aa-4cc8-9eaa-6621fc926687)
  )
  (wire (pts (xy 190.5 140.97) (xy 190.5 143.51))
    (stroke (width 0) (type default))
    (uuid 29cbc310-83a7-494c-8d30-1a84135c6995)
  )
  (wire (pts (xy 110.49 78.74) (xy 120.65 78.74))
    (stroke (width 0) (type default))
    (uuid 2e82651f-f067-4985-aa67-1a4bf3e7c6b9)
  )
  (wire (pts (xy 142.24 86.36) (xy 153.67 86.36))
    (stroke (width 0) (type default))
    (uuid 2fd07c88-83e9-4f9f-9130-4250fd117371)
  )
  (bus (pts (xy 156.21 83.82) (xy 156.21 81.28))
    (stroke (width 0) (type default))
    (uuid 329de4c7-c38f-417e-9f66-7a0c3e23f93a)
  )
  (bus (pts (xy 107.95 86.36) (xy 107.95 83.82))
    (stroke (width 0) (type default))
    (uuid 33f2b98c-5d17-41c9-aaf1-94a3fddcf798)
  )
  (bus (pts (xy 107.95 68.58) (xy 107.95 66.04))
    (stroke (width 0) (type default))
    (uuid 340e5a1d-e03c-4325-834f-c9de08ef6637)
  )

  (wire (pts (xy 142.24 71.12) (xy 153.67 71.12))
    (stroke (width 0) (type default))
    (uuid 3c5c9ede-2e2b-4600-be1c-2c37db9a9c2a)
  )
  (wire (pts (xy 110.49 86.36) (xy 120.65 86.36))
    (stroke (width 0) (type default))
    (uuid 3e0f3f7f-b7e3-4a1f-a9b9-cde0741ca131)
  )
  (wire (pts (xy 110.49 88.9) (xy 120.65 88.9))
    (stroke (width 0) (type default))
    (uuid 3eba9874-6a72-4783-9612-307a3d883e1f)
  )
  (wire (pts (xy 142.24 133.35) (xy 144.78 133.35))
    (stroke (width 0) (type default))
    (uuid 3f5078a7-f1f4-47cc-863a-ac6d3c825176)
  )
  (wire (pts (xy 185.42 143.51) (xy 180.34 143.51))
    (stroke (width 0) (type default))
    (uuid 3f58ccd3-3c95-4176-94b4-a5b5d80247fe)
  )
  (wire (pts (xy 142.24 76.2) (xy 153.67 76.2))
    (stroke (width 0) (type default))
    (uuid 42202f5c-c24a-446a-9a69-8037b9faefa4)
  )
  (wire (pts (xy 195.58 143.51) (xy 190.5 143.51))
    (stroke (width 0) (type default))
    (uuid 424c391f-2cfe-48e8-b59d-9df5f66eb12d)
  )
  (wire (pts (xy 110.49 63.5) (xy 120.65 63.5))
    (stroke (width 0) (type default))
    (uuid 4ad91660-0834-4d92-a8ab-6c14bce889e1)
  )
  (wire (pts (xy 115.57 109.22) (xy 120.65 109.22))
    (stroke (width 0) (type default))
    (uuid 4c21271d-8ea1-426e-b593-c77342e269f0)
  )
  (bus (pts (xy 107.95 78.74) (xy 107.95 76.2))
    (stroke (width 0) (type default))
    (uuid 505e76c5-9a2d-4d0d-896d-56951786e533)
  )
  (bus (pts (xy 107.95 73.66) (xy 107.95 71.12))
    (stroke (width 0) (type default))
    (uuid 54a208eb-90e6-4b9a-80ef-211a6aff6a17)
  )

  (wire (pts (xy 142.24 91.44) (xy 153.67 91.44))
    (stroke (width 0) (type default))
    (uuid 582f4be4-560c-4f82-8b96-a71e785808b4)
  )
  (wire (pts (xy 120.65 135.89) (xy 118.11 135.89))
    (stroke (width 0) (type default))
    (uuid 59d5d70d-44aa-49ac-aff0-a518b3597681)
  )
  (bus (pts (xy 107.95 88.9) (xy 107.95 86.36))
    (stroke (width 0) (type default))
    (uuid 5c6076f9-03d8-4516-bbe1-e94544f0d5ae)
  )
  (bus (pts (xy 156.21 96.52) (xy 156.21 99.06))
    (stroke (width 0) (type default))
    (uuid 5d821f83-edab-44ef-9b76-76a1b5b7a1d2)
  )

  (wire (pts (xy 115.57 111.76) (xy 120.65 111.76))
    (stroke (width 0) (type default))
    (uuid 647f1afd-efef-4469-baa6-d3c8a87e6251)
  )
  (wire (pts (xy 165.1 132.08) (xy 165.1 133.35))
    (stroke (width 0) (type default))
    (uuid 64f5cd90-82bf-4dba-af09-4dd3eedaf1b6)
  )
  (wire (pts (xy 142.24 63.5) (xy 153.67 63.5))
    (stroke (width 0) (type default))
    (uuid 662487e4-9eb8-44c0-8f66-4faa176b369f)
  )
  (wire (pts (xy 110.49 100.33) (xy 120.65 100.33))
    (stroke (width 0) (type default))
    (uuid 6af591b5-f825-4cfb-8d32-0868b8b0b7aa)
  )
  (wire (pts (xy 165.1 140.97) (xy 165.1 143.51))
    (stroke (width 0) (type default))
    (uuid 6ecdd206-e90c-4acf-9be1-1a1b453b0eb1)
  )
  (bus (pts (xy 156.21 76.2) (xy 156.21 73.66))
    (stroke (width 0) (type default))
    (uuid 72957798-497c-4cbb-ad02-716031103959)
  )
  (bus (pts (xy 107.95 83.82) (xy 107.95 81.28))
    (stroke (width 0) (type default))
    (uuid 7403ce83-0fa1-495b-a7ca-85dcd6a9940b)
  )

  (wire (pts (xy 144.78 125.73) (xy 144.78 128.27))
    (stroke (width 0) (type default))
    (uuid 786bdf0e-9440-4f8b-9ea4-ab363c9f02c4)
  )
  (bus (pts (xy 167.64 58.42) (xy 156.21 58.42))
    (stroke (width 0) (type default))
    (uuid 78a4c12d-3582-4669-917f-54209b2fa681)
  )

  (wire (pts (xy 142.24 73.66) (xy 153.67 73.66))
    (stroke (width 0) (type default))
    (uuid 79bf200b-2fbd-405f-a1ab-da4e8ea61a69)
  )
  (bus (pts (xy 156.21 66.04) (xy 156.21 63.5))
    (stroke (width 0) (type default))
    (uuid 79c5c62a-06b8-477b-9b55-ce7b1a3e49b0)
  )

  (wire (pts (xy 160.02 132.08) (xy 165.1 132.08))
    (stroke (width 0) (type default))
    (uuid 7a59faf2-c243-45b1-8910-fc16296df644)
  )
  (wire (pts (xy 115.57 104.14) (xy 120.65 104.14))
    (stroke (width 0) (type default))
    (uuid 7c5f6ac9-bfee-499c-bda1-e5f7568d4dfd)
  )
  (wire (pts (xy 144.78 123.19) (xy 144.78 125.73))
    (stroke (width 0) (type default))
    (uuid 7c8ad8b3-e1bf-4013-8085-8986fc4f1a87)
  )
  (bus (pts (xy 107.95 95.25) (xy 107.95 97.79))
    (stroke (width 0) (type default))
    (uuid 7cc50d7a-9ebc-481f-9840-59b8579fd67c)
  )

  (wire (pts (xy 180.34 132.08) (xy 180.34 133.35))
    (stroke (width 0) (type default))
    (uuid 7d833f30-2da6-46de-9436-01b0bbdf4b9e)
  )
  (wire (pts (xy 110.49 83.82) (xy 120.65 83.82))
    (stroke (width 0) (type default))
    (uuid 7da7d777-310e-4aa7-9199-8e3ccd1d794a)
  )
  (wire (pts (xy 118.11 128.27) (xy 120.65 128.27))
    (stroke (width 0) (type default))
    (uuid 7fd1428e-03aa-4503-8eb7-f1258370c6a0)
  )
  (wire (pts (xy 190.5 132.08) (xy 185.42 132.08))
    (stroke (width 0) (type default))
    (uuid 80ec27b9-cbf1-4ffb-803e-526c0eaf0cb3)
  )
  (wire (pts (xy 144.78 130.81) (xy 144.78 133.35))
    (stroke (width 0) (type default))
    (uuid 814945e2-84fb-4ff1-9a0e-c11fafa77339)
  )
  (wire (pts (xy 118.11 130.81) (xy 118.11 128.27))
    (stroke (width 0) (type default))
    (uuid 84b18769-68f9-44ab-b8f3-9056f55e3181)
  )
  (bus (pts (xy 107.95 71.12) (xy 107.95 68.58))
    (stroke (width 0) (type default))
    (uuid 84d13455-fbfb-4a6e-ac11-90405b3f53bd)
  )

  (wire (pts (xy 118.11 143.51) (xy 118.11 140.97))
    (stroke (width 0) (type default))
    (uuid 866390fd-5124-4f8e-8940-628c776a555d)
  )
  (wire (pts (xy 120.65 138.43) (xy 118.11 138.43))
    (stroke (width 0) (type default))
    (uuid 87d7fd4d-f143-4c65-a7b1-9c1dcb1612ee)
  )
  (wire (pts (xy 195.58 140.97) (xy 195.58 143.51))
    (stroke (width 0) (type default))
    (uuid 8dab078c-b26a-4418-9937-5fc966f42dd5)
  )
  (bus (pts (xy 107.95 81.28) (xy 107.95 78.74))
    (stroke (width 0) (type default))
    (uuid 8f8b2a24-839f-4a52-939c-90f555eff26f)
  )
  (bus (pts (xy 156.21 60.96) (xy 156.21 58.42))
    (stroke (width 0) (type default))
    (uuid 8fdaed68-c38d-4105-983e-e150214abfec)
  )

  (wire (pts (xy 115.57 116.84) (xy 120.65 116.84))
    (stroke (width 0) (type default))
    (uuid 8fe4806f-9e83-4ce0-814a-c095fb81211e)
  )
  (wire (pts (xy 142.24 66.04) (xy 153.67 66.04))
    (stroke (width 0) (type default))
    (uuid 90adbb7a-233b-4a3b-a071-fc17588f361f)
  )
  (wire (pts (xy 190.5 143.51) (xy 185.42 143.51))
    (stroke (width 0) (type default))
    (uuid 90b3effe-e91f-40e5-90f9-600a8d4486f8)
  )
  (wire (pts (xy 110.49 71.12) (xy 120.65 71.12))
    (stroke (width 0) (type default))
    (uuid 9197d4d4-8212-44f2-820d-c028ba12697c)
  )
  (wire (pts (xy 110.49 91.44) (xy 120.65 91.44))
    (stroke (width 0) (type default))
    (uuid 92bf680d-40d2-42ed-821c-3757b64cd5b1)
  )
  (wire (pts (xy 144.78 133.35) (xy 144.78 135.89))
    (stroke (width 0) (type default))
    (uuid 957f03b0-6467-4924-bf86-37b48f43ae41)
  )
  (wire (pts (xy 142.24 78.74) (xy 153.67 78.74))
    (stroke (width 0) (type default))
    (uuid 98dd040a-21f5-4c6d-912c-68f8f1de7d80)
  )
  (bus (pts (xy 156.21 88.9) (xy 156.21 86.36))
    (stroke (width 0) (type default))
    (uuid 9ba32b29-f846-489f-b659-f64d2e6dc28a)
  )

  (wire (pts (xy 190.5 132.08) (xy 190.5 133.35))
    (stroke (width 0) (type default))
    (uuid 9c39a9d2-c26d-4b4c-9196-0ef5b813b640)
  )
  (wire (pts (xy 195.58 133.35) (xy 195.58 132.08))
    (stroke (width 0) (type default))
    (uuid a00abc88-9051-4191-85fb-e68acdbd088c)
  )
  (wire (pts (xy 144.78 118.11) (xy 144.78 120.65))
    (stroke (width 0) (type default))
    (uuid a1556302-df9b-42be-8aa7-dd664232d403)
  )
  (wire (pts (xy 114.3 128.27) (xy 118.11 128.27))
    (stroke (width 0) (type default))
    (uuid a1d1cc61-f09f-4e64-9223-2317fef79f05)
  )
  (wire (pts (xy 142.24 118.11) (xy 144.78 118.11))
    (stroke (width 0) (type default))
    (uuid a3bac82e-355b-43bd-bffd-85f5d7e073be)
  )
  (wire (pts (xy 142.24 130.81) (xy 144.78 130.81))
    (stroke (width 0) (type default))
    (uuid a40b631b-0297-417b-9bf8-2391ea3b0cb3)
  )
  (wire (pts (xy 115.57 114.3) (xy 120.65 114.3))
    (stroke (width 0) (type default))
    (uuid a5748ffa-8c1f-4cda-a3ce-af9d66d106ad)
  )
  (bus (pts (xy 156.21 73.66) (xy 156.21 71.12))
    (stroke (width 0) (type default))
    (uuid aa6930f4-e6fd-4ab0-b90f-564946d0da17)
  )

  (wire (pts (xy 180.34 140.97) (xy 180.34 143.51))
    (stroke (width 0) (type default))
    (uuid afa550ed-0f81-4e3e-9848-ec68e735a1ee)
  )
  (wire (pts (xy 170.18 140.97) (xy 170.18 143.51))
    (stroke (width 0) (type default))
    (uuid b0001094-4dfb-4388-94d5-e62162124f89)
  )
  (wire (pts (xy 118.11 135.89) (xy 118.11 133.35))
    (stroke (width 0) (type default))
    (uuid b18a5510-23c2-4d0f-972a-ed9bf391a302)
  )
  (wire (pts (xy 110.49 93.98) (xy 120.65 93.98))
    (stroke (width 0) (type default))
    (uuid b34c21bc-e22e-4446-b505-16de32e3bed2)
  )
  (bus (pts (xy 107.95 63.5) (xy 107.95 60.96))
    (stroke (width 0) (type default))
    (uuid b5ea6528-f632-4b94-b83a-3bd4cf9cb1bc)
  )

  (wire (pts (xy 180.34 143.51) (xy 175.26 143.51))
    (stroke (width 0) (type default))
    (uuid b8f1ffc5-6e51-413e-8f1d-f89396018117)
  )
  (wire (pts (xy 118.11 133.35) (xy 118.11 130.81))
    (stroke (width 0) (type default))
    (uuid b98e2b2b-ab84-4c3b-8987-d0907c7061b8)
  )
  (wire (pts (xy 142.24 88.9) (xy 153.67 88.9))
    (stroke (width 0) (type default))
    (uuid bbf43d25-2ee2-4ffb-8c30-cc967f9d504b)
  )
  (wire (pts (xy 175.26 132.08) (xy 180.34 132.08))
    (stroke (width 0) (type default))
    (uuid bc6dcdbc-0256-49ad-a2d4-447325bb3a84)
  )
  (wire (pts (xy 110.49 76.2) (xy 120.65 76.2))
    (stroke (width 0) (type default))
    (uuid bce2c303-7afe-4932-955a-0f7ab269c152)
  )
  (wire (pts (xy 170.18 132.08) (xy 175.26 132.08))
    (stroke (width 0) (type default))
    (uuid bd4a6efa-a106-432b-bd90-50e1577a5710)
  )
  (wire (pts (xy 115.57 106.68) (xy 120.65 106.68))
    (stroke (width 0) (type default))
    (uuid bed820d1-8dcf-47e3-af77-cbd80fe10137)
  )
  (bus (pts (xy 156.21 68.58) (xy 156.21 66.04))
    (stroke (width 0) (type default))
    (uuid c37ccfa5-debe-4f95-9161-99ed8413946c)
  )
  (bus (pts (xy 107.95 91.44) (xy 107.95 95.25))
    (stroke (width 0) (type default))
    (uuid c46d3db1-f2b6-445d-9cb5-7231cb701b69)
  )
  (bus (pts (xy 156.21 86.36) (xy 156.21 83.82))
    (stroke (width 0) (type default))
    (uuid c580770b-abb9-496d-8cb8-955e05b5e4e7)
  )
  (bus (pts (xy 156.21 71.12) (xy 156.21 68.58))
    (stroke (width 0) (type default))
    (uuid cb21a9a9-46b6-4cab-8b11-537f14dfff95)
  )

  (wire (pts (xy 142.24 125.73) (xy 144.78 125.73))
    (stroke (width 0) (type default))
    (uuid cbdc828b-0333-446b-b5ca-e1c276e83eaa)
  )
  (bus (pts (xy 156.21 91.44) (xy 156.21 88.9))
    (stroke (width 0) (type default))
    (uuid cc04d2e8-f032-4e5f-8595-8b08e174cf0d)
  )

  (wire (pts (xy 115.57 121.92) (xy 120.65 121.92))
    (stroke (width 0) (type default))
    (uuid ccb375d5-9095-48dd-9839-9d04b1f7887c)
  )
  (bus (pts (xy 107.95 91.44) (xy 107.95 88.9))
    (stroke (width 0) (type default))
    (uuid ccc1a78c-2a32-4cb6-bf6f-e281fc0382fa)
  )

  (wire (pts (xy 165.1 143.51) (xy 160.02 143.51))
    (stroke (width 0) (type default))
    (uuid cdbaaf86-6243-44d7-b829-e6d666ecb9a9)
  )
  (wire (pts (xy 144.78 128.27) (xy 144.78 130.81))
    (stroke (width 0) (type default))
    (uuid cfbe25e0-90c9-4be3-b22a-35b006a01746)
  )
  (wire (pts (xy 142.24 123.19) (xy 144.78 123.19))
    (stroke (width 0) (type default))
    (uuid d4373c28-ca50-4e4a-a1d4-37b78541e29f)
  )
  (bus (pts (xy 156.21 63.5) (xy 156.21 60.96))
    (stroke (width 0) (type default))
    (uuid d4a948bb-5197-4588-9f52-c760e40b9e15)
  )
  (bus (pts (xy 107.95 76.2) (xy 107.95 73.66))
    (stroke (width 0) (type default))
    (uuid d50ad5e4-a854-4159-8315-d5e6703689e8)
  )

  (wire (pts (xy 120.65 143.51) (xy 118.11 143.51))
    (stroke (width 0) (type default))
    (uuid d6a827a9-6781-4bf3-9cce-a3d8a2d2b7ed)
  )
  (wire (pts (xy 170.18 143.51) (xy 165.1 143.51))
    (stroke (width 0) (type default))
    (uuid d6e88608-f963-48a4-aec8-b76ed3ae2cc1)
  )
  (wire (pts (xy 170.18 132.08) (xy 170.18 133.35))
    (stroke (width 0) (type default))
    (uuid d71a9376-4729-4d29-92f1-5d255de07e5d)
  )
  (wire (pts (xy 142.24 68.58) (xy 153.67 68.58))
    (stroke (width 0) (type default))
    (uuid d97c2f63-ac64-414b-98ef-9cba6b3d09f1)
  )
  (wire (pts (xy 160.02 132.08) (xy 160.02 133.35))
    (stroke (width 0) (type default))
    (uuid dfe377ac-df50-4a20-ae11-60b30b2f458e)
  )
  (wire (pts (xy 175.26 140.97) (xy 175.26 143.51))
    (stroke (width 0) (type default))
    (uuid e539c3ec-f3ac-4d84-b159-bf5e41e3d115)
  )
  (wire (pts (xy 175.26 143.51) (xy 170.18 143.51))
    (stroke (width 0) (type default))
    (uuid e562c8dc-09ca-4b15-bebb-9388db2a52d9)
  )
  (wire (pts (xy 118.11 138.43) (xy 118.11 135.89))
    (stroke (width 0) (type default))
    (uuid e57f82b6-d6c8-42c0-9bda-f291fa67b9bc)
  )
  (wire (pts (xy 142.24 93.98) (xy 153.67 93.98))
    (stroke (width 0) (type default))
    (uuid e587328b-3897-4f80-9118-8252da92c2f0)
  )
  (bus (pts (xy 156.21 81.28) (xy 156.21 78.74))
    (stroke (width 0) (type default))
    (uuid e74298a1-01ce-49ea-8385-0b126dc92438)
  )

  (wire (pts (xy 110.49 66.04) (xy 120.65 66.04))
    (stroke (width 0) (type default))
    (uuid e7aebc74-c3af-4199-84df-58d7590d9b2f)
  )
  (wire (pts (xy 185.42 132.08) (xy 180.34 132.08))
    (stroke (width 0) (type default))
    (uuid e871a2cb-4ad4-425f-8f69-0398266a7670)
  )
  (wire (pts (xy 195.58 143.51) (xy 195.58 144.78))
    (stroke (width 0) (type default))
    (uuid e91c1ab0-0f98-4b54-8e28-100276d739a2)
  )
  (wire (pts (xy 142.24 120.65) (xy 144.78 120.65))
    (stroke (width 0) (type default))
    (uuid ea9f141c-5c06-46ef-b9d5-67729cc85110)
  )
  (wire (pts (xy 195.58 132.08) (xy 190.5 132.08))
    (stroke (width 0) (type default))
    (uuid eb734185-7cd1-4f93-be64-7ac83a6d4aa5)
  )
  (bus (pts (xy 96.52 58.42) (xy 107.95 58.42))
    (stroke (width 0) (type default))
    (uuid ebc3caeb-caa8-4cf9-8ced-c9d85faefadf)
  )

  (wire (pts (xy 160.02 130.81) (xy 160.02 132.08))
    (stroke (width 0) (type default))
    (uuid ee8c5140-18bb-4c49-b71c-a331fd1165e8)
  )
  (wire (pts (xy 175.26 132.08) (xy 175.26 133.35))
    (stroke (width 0) (type default))
    (uuid eeda2746-79db-4746-9314-f1ee04132606)
  )
  (wire (pts (xy 110.49 81.28) (xy 120.65 81.28))
    (stroke (width 0) (type default))
    (uuid ef998b08-b0b6-453a-bb1a-3f32386be892)
  )
  (wire (pts (xy 120.65 140.97) (xy 118.11 140.97))
    (stroke (width 0) (type default))
    (uuid f0c8f7d5-5f41-4346-9b12-fac29093d79f)
  )
  (wire (pts (xy 185.42 132.08) (xy 185.42 133.35))
    (stroke (width 0) (type default))
    (uuid f10456d3-8bc0-440e-a8f2-731e7da09fae)
  )
  (wire (pts (xy 115.57 124.46) (xy 120.65 124.46))
    (stroke (width 0) (type default))
    (uuid f237639c-79a2-4dd0-9f08-21d8d13b5fd6)
  )
  (wire (pts (xy 120.65 130.81) (xy 118.11 130.81))
    (stroke (width 0) (type default))
    (uuid f356aeb5-0efc-4bed-a445-b4f91c52f404)
  )
  (wire (pts (xy 142.24 101.6) (xy 153.67 101.6))
    (stroke (width 0) (type default))
    (uuid f65d9dbf-7d9b-4a7e-a690-24eff4e1f2d3)
  )
  (wire (pts (xy 142.24 128.27) (xy 144.78 128.27))
    (stroke (width 0) (type default))
    (uuid f904af7f-ef84-4fd3-828f-f6f2af323112)
  )
  (bus (pts (xy 156.21 91.44) (xy 156.21 93.98))
    (stroke (width 0) (type default))
    (uuid fdf54447-596a-44e2-8834-f21a8c9e1246)
  )
  (bus (pts (xy 107.95 60.96) (xy 107.95 58.42))
    (stroke (width 0) (type default))
    (uuid fe10c3d6-e2ab-4843-8dde-0ebe77776e94)
  )

  (label "DRAM_A2" (at 110.49 68.58 0) (fields_autoplaced)
    (effects (font (size 1.27 1.27)) (justify left bottom))
    (uuid 042eb901-25f9-4f26-868b-75da6b293b72)
  )
  (label "DRAM_DQ5" (at 153.67 76.2 180) (fields_autoplaced)
    (effects (font (size 1.27 1.27)) (justify right bottom))
    (uuid 0763446c-d134-4d58-9854-20f9204f8a90)
  )
  (label "DRAM_DQ10" (at 153.67 88.9 180) (fields_autoplaced)
    (effects (font (size 1.27 1.27)) (justify right bottom))
    (uuid 13811772-d580-411f-878e-56e57e99d09a)
  )
  (label "DRAM_A8" (at 110.49 83.82 0) (fields_autoplaced)
    (effects (font (size 1.27 1.27)) (justify left bottom))
    (uuid 16453034-0063-4cf8-ac84-0a3f4ad8947c)
  )
  (label "DRAM_A1" (at 110.49 66.04 0) (fields_autoplaced)
    (effects (font (size 1.27 1.27)) (justify left bottom))
    (uuid 18cd8dda-e873-4ec6-9f0b-3363c9a13934)
  )
  (label "DRAM_A14" (at 110.49 100.33 0) (fields_autoplaced)
    (effects (font (size 1.27 1.27)) (justify left bottom))
    (uuid 18d53234-aa98-4341-bf7e-0ac7de0d54bb)
  )
  (label "DRAM_A10" (at 110.49 88.9 0) (fields_autoplaced)
    (effects (font (size 1.27 1.27)) (justify left bottom))
    (uuid 1ef0efce-4d38-4661-ae43-1696f14aff8f)
  )
  (label "DRAM_A0" (at 110.49 63.5 0) (fields_autoplaced)
    (effects (font (size 1.27 1.27)) (justify left bottom))
    (uuid 2ea54161-2efb-449d-b16a-f76ed4c6b150)
  )
  (label "DRAM_A12" (at 110.49 93.98 0) (fields_autoplaced)
    (effects (font (size 1.27 1.27)) (justify left bottom))
    (uuid 4ae4bfea-0737-48cd-99b6-e963b9efed91)
  )
  (label "DRAM_A3" (at 110.49 71.12 0) (fields_autoplaced)
    (effects (font (size 1.27 1.27)) (justify left bottom))
    (uuid 551305a2-a93c-4662-9dcf-850e1cac9399)
  )
  (label "DRAM_A7" (at 110.49 81.28 0) (fields_autoplaced)
    (effects (font (size 1.27 1.27)) (justify left bottom))
    (uuid 56e2e8b6-bcb4-4433-aea2-cc394cccb2ab)
  )
  (label "DRAM_DQ13" (at 153.67 96.52 180) (fields_autoplaced)
    (effects (font (size 1.27 1.27)) (justify right bottom))
    (uuid 58250e7f-3c6a-4524-9410-4da609060c98)
  )
  (label "DRAM_DQ14" (at 153.67 99.06 180) (fields_autoplaced)
    (effects (font (size 1.27 1.27)) (justify right bottom))
    (uuid 5efa7813-811c-41a3-ae01-402e91c6f94f)
  )
  (label "DRAM_DQ4" (at 153.67 73.66 180) (fields_autoplaced)
    (effects (font (size 1.27 1.27)) (justify right bottom))
    (uuid 67ec81af-b054-4a62-b223-9b5c2bb93c77)
  )
  (label "DRAM_DQ0" (at 153.67 63.5 180) (fields_autoplaced)
    (effects (font (size 1.27 1.27)) (justify right bottom))
    (uuid 68ff1120-159d-4058-9bef-0838aca44ce0)
  )
  (label "DRAM_DQ7" (at 153.67 81.28 180) (fields_autoplaced)
    (effects (font (size 1.27 1.27)) (justify right bottom))
    (uuid 6f5f0c1a-84b5-48bc-96b3-61e95cab3902)
  )
  (label "DRAM_DQ8" (at 153.67 83.82 180) (fields_autoplaced)
    (effects (font (size 1.27 1.27)) (justify right bottom))
    (uuid 7349b20a-5974-4e67-8ef5-1df9f571fff7)
  )
  (label "DRAM_DQ11" (at 153.67 91.44 180) (fields_autoplaced)
    (effects (font (size 1.27 1.27)) (justify right bottom))
    (uuid 9bbb5aa0-3116-48c4-913a-2f909ba4efd5)
  )
  (label "DRAM_A6" (at 110.49 78.74 0) (fields_autoplaced)
    (effects (font (size 1.27 1.27)) (justify left bottom))
    (uuid 9d41a71a-90a9-4e63-91b6-775687edcf3e)
  )
  (label "DRAM_DQ12" (at 153.67 93.98 180) (fields_autoplaced)
    (effects (font (size 1.27 1.27)) (justify right bottom))
    (uuid a3efed1b-4a79-4416-8d51-3b31aab10b57)
  )
  (label "DQ[0..15]" (at 165.1 58.42 180) (fields_autoplaced)
    (effects (font (size 1.27 1.27)) (justify right bottom))
    (uuid be6f3d66-8319-48af-aa82-01dc9d5c3e9c)
  )
  (label "DRAM_DQ2" (at 153.67 68.58 180) (fields_autoplaced)
    (effects (font (size 1.27 1.27)) (justify right bottom))
    (uuid c274e668-d50b-409d-99db-beb8a8a8e596)
  )
  (label "DRAM_A11" (at 110.49 91.44 0) (fields_autoplaced)
    (effects (font (size 1.27 1.27)) (justify left bottom))
    (uuid c517a2c0-6bcb-4f8e-804d-083eeeab48a2)
  )
  (label "DRAM_A15" (at 110.49 97.79 0) (fields_autoplaced)
    (effects (font (size 1.27 1.27)) (justify left bottom))
    (uuid c5a04920-f597-4e34-938a-c21b5e614f8c)
  )
  (label "DRAM_DQ9" (at 153.67 86.36 180) (fields_autoplaced)
    (effects (font (size 1.27 1.27)) (justify right bottom))
    (uuid ce596890-697c-431b-a13d-0b78b3365e8e)
  )
  (label "DRAM_A9" (at 110.49 86.36 0) (fields_autoplaced)
    (effects (font (size 1.27 1.27)) (justify left bottom))
    (uuid cf969b19-76b3-42bf-a543-d772cd441522)
  )
  (label "A[0..15]" (at 99.06 58.42 0) (fields_autoplaced)
    (effects (font (size 1.27 1.27)) (justify left bottom))
    (uuid d46d1420-df76-4def-8373-5b52115cb984)
  )
  (label "DRAM_A5" (at 110.49 76.2 0) (fields_autoplaced)
    (effects (font (size 1.27 1.27)) (justify left bottom))
    (uuid e05f0a61-ab8a-4851-9aa6-0771308b3fef)
  )
  (label "DRAM_A4" (at 110.49 73.66 0) (fields_autoplaced)
    (effects (font (size 1.27 1.27)) (justify left bottom))
    (uuid e62702c3-b45a-4d57-8399-b3bb76d4f400)
  )
  (label "DRAM_DQ3" (at 153.67 71.12 180) (fields_autoplaced)
    (effects (font (size 1.27 1.27)) (justify right bottom))
    (uuid eddd0739-0729-4d16-92da-816b232141e9)
  )
  (label "DRAM_DQ6" (at 153.67 78.74 180) (fields_autoplaced)
    (effects (font (size 1.27 1.27)) (justify right bottom))
    (uuid f8a2f42e-ad9c-4cba-ae55-bb216de54324)
  )
  (label "DRAM_DQ15" (at 153.67 101.6 180) (fields_autoplaced)
    (effects (font (size 1.27 1.27)) (justify right bottom))
    (uuid fbfdb210-3716-4b27-bc15-c6914a3b2707)
  )
  (label "DRAM_DQ1" (at 153.67 66.04 180) (fields_autoplaced)
    (effects (font (size 1.27 1.27)) (justify right bottom))
    (uuid ff70afe4-f28e-410a-b6cf-ffe1d3789bb8)
  )

  (global_label "SDNE0" (shape passive) (at 115.57 111.76 180) (fields_autoplaced)
    (effects (font (size 1.27 1.27)) (justify right))
    (uuid 08c888de-e443-4c06-8e75-8c639537de4e)
    (property "Intersheetrefs" "${INTERSHEET_REFS}" (at 107.5276 111.76 0)
      (effects (font (size 1.27 1.27)) (justify right) hide)
    )
  )
  (global_label "A[0..15]" (shape input) (at 96.52 58.42 180) (fields_autoplaced)
    (effects (font (size 1.27 1.27)) (justify right))
    (uuid 0a1e70c0-cd54-433c-b41b-cd526a6210fd)
    (property "Intersheetrefs" "${INTERSHEET_REFS}" (at 85.9147 58.42 0)
      (effects (font (size 1.27 1.27)) (justify right) hide)
    )
  )
  (global_label "SDNWE" (shape passive) (at 115.57 104.14 180) (fields_autoplaced)
    (effects (font (size 1.27 1.27)) (justify right))
    (uuid 2ebe8e7d-cc52-466c-8921-ae049503d2cf)
    (property "Intersheetrefs" "${INTERSHEET_REFS}" (at 107.2857 104.14 0)
      (effects (font (size 1.27 1.27)) (justify right) hide)
    )
  )
  (global_label "FMC_NBL0" (shape passive) (at 115.57 124.46 180) (fields_autoplaced)
    (effects (font (size 1.27 1.27)) (justify right))
    (uuid 4ff4779e-bd41-4941-8c0d-794edec36098)
    (property "Intersheetrefs" "${INTERSHEET_REFS}" (at 104.0804 124.46 0)
      (effects (font (size 1.27 1.27)) (justify right) hide)
    )
  )
  (global_label "SDCKE0" (shape passive) (at 115.57 114.3 180) (fields_autoplaced)
    (effects (font (size 1.27 1.27)) (justify right))
    (uuid 63f4def0-d54e-4ace-9966-aaee42a512cb)
    (property "Intersheetrefs" "${INTERSHEET_REFS}" (at 106.3181 114.3 0)
      (effects (font (size 1.27 1.27)) (justify right) hide)
    )
  )
  (global_label "SDCLK" (shape passive) (at 115.57 116.84 180) (fields_autoplaced)
    (effects (font (size 1.27 1.27)) (justify right))
    (uuid 642fbb97-4bd2-4df3-a8b6-852b7e92aeba)
    (property "Intersheetrefs" "${INTERSHEET_REFS}" (at 107.6485 116.84 0)
      (effects (font (size 1.27 1.27)) (justify right) hide)
    )
  )
  (global_label "SDNCAS" (shape passive) (at 115.57 106.68 180) (fields_autoplaced)
    (effects (font (size 1.27 1.27)) (justify right))
    (uuid 754e13ff-8abe-4fad-ae10-8a51bf69ddaf)
    (property "Intersheetrefs" "${INTERSHEET_REFS}" (at 106.318 106.68 0)
      (effects (font (size 1.27 1.27)) (justify right) hide)
    )
  )
  (global_label "SDNRAS" (shape passive) (at 115.57 109.22 180) (fields_autoplaced)
    (effects (font (size 1.27 1.27)) (justify right))
    (uuid 88c2d346-6b3f-45d5-9269-cb6a9a51216a)
    (property "Intersheetrefs" "${INTERSHEET_REFS}" (at 106.318 109.22 0)
      (effects (font (size 1.27 1.27)) (justify right) hide)
    )
  )
  (global_label "DQ[0..15]" (shape bidirectional) (at 167.64 58.42 0) (fields_autoplaced)
    (effects (font (size 1.27 1.27)) (justify left))
    (uuid d1a3cbfe-ac4c-47ac-bd31-af1d7530d813)
    (property "Intersheetrefs" "${INTERSHEET_REFS}" (at 180.8685 58.42 0)
      (effects (font (size 1.27 1.27)) (justify left) hide)
    )
  )
  (global_label "FMC_NBL1" (shape passive) (at 115.57 121.92 180) (fields_autoplaced)
    (effects (font (size 1.27 1.27)) (justify right))
    (uuid d1e419fa-dcb7-407f-a4f7-3999105778d2)
    (property "Intersheetrefs" "${INTERSHEET_REFS}" (at 104.0804 121.92 0)
      (effects (font (size 1.27 1.27)) (justify right) hide)
    )
  )

  (symbol (lib_id "Device:C") (at 195.58 137.16 180) (unit 1)
    (in_bom yes) (on_board yes) (dnp no)
    (uuid 05076cd4-b705-4b93-877f-1111b3f60cf7)
    (property "Reference" "C86" (at 197.485 139.7 0)
      (effects (font (size 0.5 0.5)) (justify left))
    )
    (property "Value" "10uF/25V" (at 195.58 139.7 0)
      (effects (font (size 0.5 0.5)) (justify left))
    )
    (property "Footprint" "tolikprinter:Altium_0603" (at 194.6148 133.35 0)
      (effects (font (size 1.27 1.27)) hide)
    )
    (property "Datasheet" "~" (at 195.58 137.16 0)
      (effects (font (size 1.27 1.27)) hide)
    )
    (property "Digikey" "" (at 195.58 137.16 0)
      (effects (font (size 1.27 1.27)) hide)
    )
    (property "JLCPCB" "https://jlcpcb.com/partdetail/97651-CL10A106MA8NRNC/C96446" (at 195.58 137.16 0)
      (effects (font (size 1.27 1.27)) hide)
    )
    (property "JLCPCB Part #" "C96446" (at 195.58 137.16 0)
      (effects (font (size 1.27 1.27)) hide)
    )
    (property "JLCPCB Position Offset" "0.0, 0.0" (at 195.58 137.16 0)
      (effects (font (size 1.27 1.27)) hide)
    )
    (property "JLCPCB Rotation Offset" "0" (at 195.58 137.16 0)
      (effects (font (size 1.27 1.27)) hide)
    )
    (property "Manufacturer" "Murata Electronics" (at 195.58 137.16 0)
      (effects (font (size 1.27 1.27)) hide)
    )
    (property "Part Number" "GRM188R61A226ME15D " (at 195.58 137.16 0)
      (effects (font (size 1.27 1.27)) hide)
    )
    (property "Comments" "" (at 195.58 137.16 0)
      (effects (font (size 1.27 1.27)) hide)
    )
    (pin "1" (uuid 674533b4-9c7a-425f-8ec0-a5b64f6e3854))
    (pin "2" (uuid 90fe55d5-0d1b-461d-8bab-7e46d91d5b26))
    (instances
      (project "ainabulaque"
        (path "/fb55db64-e3db-4107-ae74-40f10a22ee41/6e9525cc-7960-4f54-9da3-655443fe2fbd/37ac3639-6bd5-45b2-aff6-8b355de69c91"
          (reference "C86") (unit 1)
        )
      )
    )
  )

  (symbol (lib_id "power:GND") (at 144.78 135.89 0) (unit 1)
    (in_bom yes) (on_board yes) (dnp no) (fields_autoplaced)
    (uuid 064e0500-9a73-4dee-81f5-61800dc86c00)
    (property "Reference" "#PWR04" (at 144.78 142.24 0)
      (effects (font (size 1.27 1.27)) hide)
    )
    (property "Value" "GND" (at 144.78 140.97 0)
      (effects (font (size 1.27 1.27)) hide)
    )
    (property "Footprint" "" (at 144.78 135.89 0)
      (effects (font (size 1.27 1.27)) hide)
    )
    (property "Datasheet" "" (at 144.78 135.89 0)
      (effects (font (size 1.27 1.27)) hide)
    )
    (pin "1" (uuid 2d05e083-5da0-418e-ab03-661b37ea9f65))
    (instances
      (project "ainabulaque"
        (path "/fb55db64-e3db-4107-ae74-40f10a22ee41/6e9525cc-7960-4f54-9da3-655443fe2fbd/37ac3639-6bd5-45b2-aff6-8b355de69c91"
          (reference "#PWR04") (unit 1)
        )
      )
    )
  )

  (symbol (lib_id "power:+3.3V") (at 160.02 130.81 0) (unit 1)
    (in_bom yes) (on_board yes) (dnp no) (fields_autoplaced)
    (uuid 14477238-e60d-4535-a400-f57490edeb27)
    (property "Reference" "#PWR05" (at 160.02 134.62 0)
      (effects (font (size 1.27 1.27)) hide)
    )
    (property "Value" "+3.3V" (at 160.02 125.73 0)
      (effects (font (size 1.27 1.27)))
    )
    (property "Footprint" "" (at 160.02 130.81 0)
      (effects (font (size 1.27 1.27)) hide)
    )
    (property "Datasheet" "" (at 160.02 130.81 0)
      (effects (font (size 1.27 1.27)) hide)
    )
    (pin "1" (uuid 8c36d1b8-b4eb-4730-bd93-7a5af0bd7c9b))
    (instances
      (project "ainabulaque"
        (path "/fb55db64-e3db-4107-ae74-40f10a22ee41/6e9525cc-7960-4f54-9da3-655443fe2fbd/37ac3639-6bd5-45b2-aff6-8b355de69c91"
          (reference "#PWR05") (unit 1)
        )
      )
    )
  )

  (symbol (lib_id "Device:C") (at 160.02 137.16 0) (unit 1)
    (in_bom yes) (on_board yes) (dnp no)
    (uuid 45feff98-c54e-484c-afe4-2a5d8dd3f474)
    (property "Reference" "C78" (at 158.75 139.7 90)
      (effects (font (size 0.5 0.5)) (justify right))
    )
    (property "Value" "0.1uF 0402" (at 158.75 130.81 90)
      (effects (font (size 0.5 0.5)) (justify right))
    )
    (property "Footprint" "tolikprinter:C_0402_1005Metric" (at 160.9852 140.97 0)
      (effects (font (size 1.27 1.27)) hide)
    )
    (property "Datasheet" "~" (at 160.02 137.16 0)
      (effects (font (size 1.27 1.27)) hide)
    )
    (property "Digikey" "" (at 160.02 137.16 0)
      (effects (font (size 1.27 1.27)) hide)
    )
    (property "JLCPCB" "https://jlcpcb.com/partdetail/1877-CL05B104KO5NNNC/C1525" (at 160.02 137.16 0)
      (effects (font (size 1.27 1.27)) hide)
    )
    (property "JLCPCB Part #" "C1525" (at 160.02 137.16 0)
      (effects (font (size 1.27 1.27)) hide)
    )
    (property "JLCPCB Position Offset" "0.0, 0.0" (at 160.02 137.16 0)
      (effects (font (size 1.27 1.27)) hide)
    )
    (property "JLCPCB Rotation Offset" "0" (at 160.02 137.16 0)
      (effects (font (size 1.27 1.27)) hide)
    )
    (property "Manufacturer" "" (at 160.02 137.16 0)
      (effects (font (size 1.27 1.27)) hide)
    )
    (property "Part Number" "" (at 160.02 137.16 0)
      (effects (font (size 1.27 1.27)) hide)
    )
    (property "Comments" "" (at 160.02 137.16 0)
      (effects (font (size 1.27 1.27)) hide)
    )
    (pin "1" (uuid 146115a6-4240-4701-b510-03d6797bed89))
    (pin "2" (uuid 71fe2a01-ab45-48fa-b0fb-f7bac02bb5d8))
    (instances
      (project "ainabulaque"
        (path "/fb55db64-e3db-4107-ae74-40f10a22ee41/6e9525cc-7960-4f54-9da3-655443fe2fbd/37ac3639-6bd5-45b2-aff6-8b355de69c91"
          (reference "C78") (unit 1)
        )
      )
    )
  )

  (symbol (lib_id "head:W9825G6KH-6") (at 115.57 63.5 0) (unit 1)
    (in_bom yes) (on_board yes) (dnp no) (fields_autoplaced)
    (uuid 5c5ab2ac-fef9-4ec0-b9a6-70a54b3ce5c6)
    (property "Reference" "U14" (at 131.445 55.88 0)
      (effects (font (size 1.524 1.524)))
    )
    (property "Value" "W9825G6KH-6" (at 131.445 58.42 0)
      (effects (font (size 1.524 1.524)))
    )
    (property "Footprint" "tolikprinter:SMT_5G6KH-6_WIN" (at 118.11 52.07 0)
      (effects (font (size 1.27 1.27) italic) hide)
    )
    (property "Datasheet" "W9825G6KH-6" (at 116.84 52.07 0)
      (effects (font (size 1.27 1.27) italic) hide)
    )
    (property "JLCPCB" "https://jlcpcb.com/partdetail/WinbondElec-W9825G6KH6/C62246" (at 115.57 63.5 0)
      (effects (font (size 1.27 1.27)) hide)
    )
    (property "JLCPCB Part #" "C62246" (at 115.57 63.5 0)
      (effects (font (size 1.27 1.27)) hide)
    )
    (property "JLCPCB Position Offset" "0.0, 0.0" (at 115.57 63.5 0)
      (effects (font (size 1.27 1.27)) hide)
    )
    (property "JLCPCB Rotation Offset" "-90" (at 115.57 63.5 0)
      (effects (font (size 1.27 1.27)) hide)
    )
    (pin "1" (uuid 22b4ef87-8c05-4123-93dd-ecdfedadd5de))
    (pin "10" (uuid f3771335-068e-4ee9-ba8b-4c206cbb3727))
    (pin "11" (uuid ba36a5e6-e3bb-41ac-aaf6-33db2e643c46))
    (pin "12" (uuid 03c62401-199a-448c-8e97-7eba0e56c400))
    (pin "13" (uuid 80506fe8-e3e1-4c21-a217-5ab4d2eab94e))
    (pin "14" (uuid ceb9edfc-13de-4960-8751-042d6979a820))
    (pin "15" (uuid 56e2f0e7-e0a6-4e96-b519-3eb635cf8e1d))
    (pin "2" (uuid ef01881c-8a16-4e2c-9d65-26ecd7ae7053))
    (pin "20" (uuid 197c9fc7-f5d0-40f1-9531-43b04034f5a5))
    (pin "21" (uuid 5005fa05-ebe3-4b9c-8255-b660130f5581))
    (pin "22" (uuid 413f0660-20bb-464a-a2e7-eb167d0c7d84))
    (pin "23" (uuid 9c6d7d59-ca50-457d-84df-639670627684))
    (pin "24" (uuid 1456392b-b95d-4436-9403-2f7cf1ff7f6a))
    (pin "25" (uuid 0750e805-feca-41c9-b039-151724d5bdc4))
    (pin "26" (uuid b8ce35d1-3dbb-48e8-ad1d-5238e57953f9))
    (pin "27" (uuid 36e07006-d476-4c9b-8609-00e5330d1302))
    (pin "28" (uuid de8507e9-9022-4cec-92b1-68990df89520))
    (pin "29" (uuid 843637c3-0dad-41eb-a089-46ba9f60ba71))
    (pin "3" (uuid 5d830356-e977-4ab9-b508-e7969cd2731d))
    (pin "30" (uuid 8511a3c4-7249-4191-bf55-a0369a163489))
    (pin "31" (uuid 124136f6-8146-4e14-92b2-77917ecac726))
    (pin "32" (uuid d6cfd468-ab2b-4bc7-8567-f8dcab1c8211))
    (pin "33" (uuid de80aad5-82c6-4f9c-8c3e-9c938b9392f0))
    (pin "34" (uuid fb5a389e-9f91-4d2c-9bec-4acdd9f76e37))
    (pin "35" (uuid 0f0360f6-6413-4185-bae5-3e172136eca1))
    (pin "36" (uuid b1a73b76-4f7a-40f2-94d3-e871d2a9441a))
    (pin "37" (uuid 533e7f70-6221-43d5-a0a1-85a9db18cdaa))
    (pin "38" (uuid 6ba57237-e875-4465-987b-8a02ce57ed73))
    (pin "39" (uuid 42f74fbf-c321-47a7-ac2c-eec83fe3c5d3))
    (pin "4" (uuid 6512eb9c-3588-46eb-99e8-6a0389b19618))
    (pin "40" (uuid 3d6366dd-dad4-4806-9152-89f3d8e7339c))
    (pin "41" (uuid bd3f382b-326f-45f8-aabe-b3b9251a7cc8))
    (pin "42" (uuid 7e238907-be3a-44b3-824b-4b94e0c7a125))
    (pin "43" (uuid 115b3f7e-c2be-4ae8-aca6-a0e33fd0df47))
    (pin "44" (uuid f4f18651-dd5c-4094-aa6a-2e6e4650978d))
    (pin "45" (uuid f973719c-231f-4c24-8863-87fca32be38e))
    (pin "46" (uuid 608f04d7-332e-4a30-9e1c-14696ab38636))
    (pin "47" (uuid 5efbf6a5-db03-4460-bc33-5e6ba2cefaca))
    (pin "48" (uuid 99ef05e6-1640-4ddc-8c6c-3d856560ea2a))
    (pin "49" (uuid b4423d6f-da35-4318-8c60-f028eea67240))
    (pin "5" (uuid 7c82f077-f106-4534-9e8c-2727050cf34c))
    (pin "50" (uuid 2ba47181-6dfd-4d43-b60f-d0c869e38305))
    (pin "51" (uuid 09255d75-5347-4d97-b4ff-17cceee00a47))
    (pin "52" (uuid e9ec4337-1f70-4fa1-9b74-41e36abe3d12))
    (pin "53" (uuid f04df2ad-c532-4686-a7c5-901342c31be6))
    (pin "54" (uuid ce1ec1ad-6f79-414f-8846-1897b04e41ce))
    (pin "6" (uuid e3a472cb-6142-420c-80b3-2af894c345fb))
    (pin "7" (uuid fc37f40c-20c1-4b50-a9d2-8680abc85236))
    (pin "8" (uuid ef544801-cb44-493a-8c9e-dc42613420c4))
    (pin "9" (uuid e433ab31-8e54-48ef-bf75-99e37aabf9f1))
    (pin "16" (uuid 2c99de00-20fc-48ea-b41c-5c15aa0d2f35))
    (pin "17" (uuid 7cb84bc7-b9a7-407a-9e37-9eb35cf9922a))
    (pin "18" (uuid c64146c7-3177-4d66-90b3-38e23f02cd1d))
    (pin "19" (uuid f20ae490-16a1-4ab1-8017-56f8344912b2))
    (instances
      (project "ainabulaque"
        (path "/fb55db64-e3db-4107-ae74-40f10a22ee41/6e9525cc-7960-4f54-9da3-655443fe2fbd/37ac3639-6bd5-45b2-aff6-8b355de69c91"
          (reference "U14") (unit 1)
        )
      )
    )
  )

  (symbol (lib_id "Device:C") (at 165.1 137.16 0) (unit 1)
    (in_bom yes) (on_board yes) (dnp no)
    (uuid 65ae8d00-31af-45f9-856a-f11740560df0)
    (property "Reference" "C79" (at 163.83 139.7 90)
      (effects (font (size 0.5 0.5)) (justify right))
    )
    (property "Value" "0.1uF 0402" (at 163.83 130.81 90)
      (effects (font (size 0.5 0.5)) (justify right))
    )
    (property "Footprint" "tolikprinter:C_0402_1005Metric" (at 166.0652 140.97 0)
      (effects (font (size 1.27 1.27)) hide)
    )
    (property "Datasheet" "~" (at 165.1 137.16 0)
      (effects (font (size 1.27 1.27)) hide)
    )
    (property "Digikey" "" (at 165.1 137.16 0)
      (effects (font (size 1.27 1.27)) hide)
    )
    (property "JLCPCB" "https://jlcpcb.com/partdetail/1877-CL05B104KO5NNNC/C1525" (at 165.1 137.16 0)
      (effects (font (size 1.27 1.27)) hide)
    )
    (property "JLCPCB Part #" "C1525" (at 165.1 137.16 0)
      (effects (font (size 1.27 1.27)) hide)
    )
    (property "JLCPCB Position Offset" "0.0, 0.0" (at 165.1 137.16 0)
      (effects (font (size 1.27 1.27)) hide)
    )
    (property "JLCPCB Rotation Offset" "0" (at 165.1 137.16 0)
      (effects (font (size 1.27 1.27)) hide)
    )
    (property "Manufacturer" "" (at 165.1 137.16 0)
      (effects (font (size 1.27 1.27)) hide)
    )
    (property "Part Number" "" (at 165.1 137.16 0)
      (effects (font (size 1.27 1.27)) hide)
    )
    (property "Comments" "" (at 165.1 137.16 0)
      (effects (font (size 1.27 1.27)) hide)
    )
    (pin "1" (uuid df10d3c5-e526-452f-aad6-b40dd1a58413))
    (pin "2" (uuid b216fb62-beca-4308-ab0c-c06d8231a363))
    (instances
      (project "ainabulaque"
        (path "/fb55db64-e3db-4107-ae74-40f10a22ee41/6e9525cc-7960-4f54-9da3-655443fe2fbd/37ac3639-6bd5-45b2-aff6-8b355de69c91"
          (reference "C79") (unit 1)
        )
      )
    )
  )

  (symbol (lib_id "power:+3.3V") (at 114.3 128.27 90) (unit 1)
    (in_bom yes) (on_board yes) (dnp no) (fields_autoplaced)
    (uuid 9abcc168-13a0-4d1a-8116-1c911dad7000)
    (property "Reference" "#PWR01" (at 118.11 128.27 0)
      (effects (font (size 1.27 1.27)) hide)
    )
    (property "Value" "+3.3V" (at 110.49 128.27 90)
      (effects (font (size 1.27 1.27)) (justify left))
    )
    (property "Footprint" "" (at 114.3 128.27 0)
      (effects (font (size 1.27 1.27)) hide)
    )
    (property "Datasheet" "" (at 114.3 128.27 0)
      (effects (font (size 1.27 1.27)) hide)
    )
    (pin "1" (uuid 511417eb-8da2-4b43-856f-3aac01c5fdbc))
    (instances
      (project "ainabulaque"
        (path "/fb55db64-e3db-4107-ae74-40f10a22ee41/6e9525cc-7960-4f54-9da3-655443fe2fbd/37ac3639-6bd5-45b2-aff6-8b355de69c91"
          (reference "#PWR01") (unit 1)
        )
      )
    )
  )

  (symbol (lib_id "power:GND") (at 195.58 144.78 0) (unit 1)
    (in_bom yes) (on_board yes) (dnp no) (fields_autoplaced)
    (uuid a4959d03-25cf-4cb9-8cfb-a71802435fab)
    (property "Reference" "#PWR06" (at 195.58 151.13 0)
      (effects (font (size 1.27 1.27)) hide)
    )
    (property "Value" "GND" (at 195.58 149.86 0)
      (effects (font (size 1.27 1.27)))
    )
    (property "Footprint" "" (at 195.58 144.78 0)
      (effects (font (size 1.27 1.27)) hide)
    )
    (property "Datasheet" "" (at 195.58 144.78 0)
      (effects (font (size 1.27 1.27)) hide)
    )
    (pin "1" (uuid d4fbe2f2-d8ba-45f2-91ee-275e709e8587))
    (instances
      (project "ainabulaque"
        (path "/fb55db64-e3db-4107-ae74-40f10a22ee41/6e9525cc-7960-4f54-9da3-655443fe2fbd/37ac3639-6bd5-45b2-aff6-8b355de69c91"
          (reference "#PWR06") (unit 1)
        )
      )
    )
  )

  (symbol (lib_id "Device:C") (at 180.34 137.16 0) (unit 1)
    (in_bom yes) (on_board yes) (dnp no)
    (uuid ab3fde0a-93b5-4a71-ab93-75e94053fe08)
    (property "Reference" "C82" (at 179.07 139.7 90)
      (effects (font (size 0.5 0.5)) (justify right))
    )
    (property "Value" "0.1uF 0402" (at 179.07 130.81 90)
      (effects (font (size 0.5 0.5)) (justify right))
    )
    (property "Footprint" "tolikprinter:C_0402_1005Metric" (at 181.3052 140.97 0)
      (effects (font (size 1.27 1.27)) hide)
    )
    (property "Datasheet" "~" (at 180.34 137.16 0)
      (effects (font (size 1.27 1.27)) hide)
    )
    (property "Digikey" "" (at 180.34 137.16 0)
      (effects (font (size 1.27 1.27)) hide)
    )
    (property "JLCPCB" "https://jlcpcb.com/partdetail/1877-CL05B104KO5NNNC/C1525" (at 180.34 137.16 0)
      (effects (font (size 1.27 1.27)) hide)
    )
    (property "JLCPCB Part #" "C1525" (at 180.34 137.16 0)
      (effects (font (size 1.27 1.27)) hide)
    )
    (property "JLCPCB Position Offset" "0.0, 0.0" (at 180.34 137.16 0)
      (effects (font (size 1.27 1.27)) hide)
    )
    (property "JLCPCB Rotation Offset" "0" (at 180.34 137.16 0)
      (effects (font (size 1.27 1.27)) hide)
    )
    (property "Manufacturer" "" (at 180.34 137.16 0)
      (effects (font (size 1.27 1.27)) hide)
    )
    (property "Part Number" "" (at 180.34 137.16 0)
      (effects (font (size 1.27 1.27)) hide)
    )
    (property "Comments" "" (at 180.34 137.16 0)
      (effects (font (size 1.27 1.27)) hide)
    )
    (pin "1" (uuid e0cf5d2f-e4ef-46d2-9166-a669df59f08b))
    (pin "2" (uuid f5ea4ce0-15eb-4c35-8ba5-67393dadc85d))
    (instances
      (project "ainabulaque"
        (path "/fb55db64-e3db-4107-ae74-40f10a22ee41/6e9525cc-7960-4f54-9da3-655443fe2fbd/37ac3639-6bd5-45b2-aff6-8b355de69c91"
          (reference "C82") (unit 1)
        )
      )
    )
  )

  (symbol (lib_id "Device:C") (at 170.18 137.16 0) (unit 1)
    (in_bom yes) (on_board yes) (dnp no)
    (uuid c4682ce2-d9b5-4877-8bc5-ab5ff979dbbe)
    (property "Reference" "C80" (at 168.91 139.7 90)
      (effects (font (size 0.5 0.5)) (justify right))
    )
    (property "Value" "0.1uF 0402" (at 168.91 130.81 90)
      (effects (font (size 0.5 0.5)) (justify right))
    )
    (property "Footprint" "tolikprinter:C_0402_1005Metric" (at 171.1452 140.97 0)
      (effects (font (size 1.27 1.27)) hide)
    )
    (property "Datasheet" "~" (at 170.18 137.16 0)
      (effects (font (size 1.27 1.27)) hide)
    )
    (property "Digikey" "" (at 170.18 137.16 0)
      (effects (font (size 1.27 1.27)) hide)
    )
    (property "JLCPCB" "https://jlcpcb.com/partdetail/1877-CL05B104KO5NNNC/C1525" (at 170.18 137.16 0)
      (effects (font (size 1.27 1.27)) hide)
    )
    (property "JLCPCB Part #" "C1525" (at 170.18 137.16 0)
      (effects (font (size 1.27 1.27)) hide)
    )
    (property "JLCPCB Position Offset" "0.0, 0.0" (at 170.18 137.16 0)
      (effects (font (size 1.27 1.27)) hide)
    )
    (property "JLCPCB Rotation Offset" "0" (at 170.18 137.16 0)
      (effects (font (size 1.27 1.27)) hide)
    )
    (property "Manufacturer" "" (at 170.18 137.16 0)
      (effects (font (size 1.27 1.27)) hide)
    )
    (property "Part Number" "" (at 170.18 137.16 0)
      (effects (font (size 1.27 1.27)) hide)
    )
    (property "Comments" "" (at 170.18 137.16 0)
      (effects (font (size 1.27 1.27)) hide)
    )
    (pin "1" (uuid 0546b0b6-7050-4cf0-ac2a-8e1e0d2c5057))
    (pin "2" (uuid 775457c7-3bea-49e5-82c6-8b203aeed177))
    (instances
      (project "ainabulaque"
        (path "/fb55db64-e3db-4107-ae74-40f10a22ee41/6e9525cc-7960-4f54-9da3-655443fe2fbd/37ac3639-6bd5-45b2-aff6-8b355de69c91"
          (reference "C80") (unit 1)
        )
      )
    )
  )

  (symbol (lib_id "Device:C") (at 185.42 137.16 0) (unit 1)
    (in_bom yes) (on_board yes) (dnp no)
    (uuid d445fd53-dd37-498b-9b52-d23c41b579e4)
    (property "Reference" "C83" (at 184.15 139.7 90)
      (effects (font (size 0.5 0.5)) (justify right))
    )
    (property "Value" "0.1uF 0402" (at 184.15 130.81 90)
      (effects (font (size 0.5 0.5)) (justify right))
    )
    (property "Footprint" "tolikprinter:C_0402_1005Metric" (at 186.3852 140.97 0)
      (effects (font (size 1.27 1.27)) hide)
    )
    (property "Datasheet" "~" (at 185.42 137.16 0)
      (effects (font (size 1.27 1.27)) hide)
    )
    (property "Digikey" "" (at 185.42 137.16 0)
      (effects (font (size 1.27 1.27)) hide)
    )
    (property "JLCPCB" "https://jlcpcb.com/partdetail/1877-CL05B104KO5NNNC/C1525" (at 185.42 137.16 0)
      (effects (font (size 1.27 1.27)) hide)
    )
    (property "JLCPCB Part #" "C1525" (at 185.42 137.16 0)
      (effects (font (size 1.27 1.27)) hide)
    )
    (property "JLCPCB Position Offset" "0.0, 0.0" (at 185.42 137.16 0)
      (effects (font (size 1.27 1.27)) hide)
    )
    (property "JLCPCB Rotation Offset" "0" (at 185.42 137.16 0)
      (effects (font (size 1.27 1.27)) hide)
    )
    (property "Manufacturer" "" (at 185.42 137.16 0)
      (effects (font (size 1.27 1.27)) hide)
    )
    (property "Part Number" "" (at 185.42 137.16 0)
      (effects (font (size 1.27 1.27)) hide)
    )
    (property "Comments" "" (at 185.42 137.16 0)
      (effects (font (size 1.27 1.27)) hide)
    )
    (pin "1" (uuid d951a8a0-e009-4756-9808-45be5a26112f))
    (pin "2" (uuid f21b38e5-b9ec-43d9-a493-bc294e1e0d50))
    (instances
      (project "ainabulaque"
        (path "/fb55db64-e3db-4107-ae74-40f10a22ee41/6e9525cc-7960-4f54-9da3-655443fe2fbd/37ac3639-6bd5-45b2-aff6-8b355de69c91"
          (reference "C83") (unit 1)
        )
      )
    )
  )

  (symbol (lib_id "Device:C") (at 175.26 137.16 0) (unit 1)
    (in_bom yes) (on_board yes) (dnp no)
    (uuid f397c5ca-27c3-48a1-be41-d75b9b9a7099)
    (property "Reference" "C81" (at 173.99 139.7 90)
      (effects (font (size 0.5 0.5)) (justify right))
    )
    (property "Value" "0.1uF 0402" (at 173.99 130.81 90)
      (effects (font (size 0.5 0.5)) (justify right))
    )
    (property "Footprint" "tolikprinter:C_0402_1005Metric" (at 176.2252 140.97 0)
      (effects (font (size 1.27 1.27)) hide)
    )
    (property "Datasheet" "~" (at 175.26 137.16 0)
      (effects (font (size 1.27 1.27)) hide)
    )
    (property "Digikey" "" (at 175.26 137.16 0)
      (effects (font (size 1.27 1.27)) hide)
    )
    (property "JLCPCB" "https://jlcpcb.com/partdetail/1877-CL05B104KO5NNNC/C1525" (at 175.26 137.16 0)
      (effects (font (size 1.27 1.27)) hide)
    )
    (property "JLCPCB Part #" "C1525" (at 175.26 137.16 0)
      (effects (font (size 1.27 1.27)) hide)
    )
    (property "JLCPCB Position Offset" "0.0, 0.0" (at 175.26 137.16 0)
      (effects (font (size 1.27 1.27)) hide)
    )
    (property "JLCPCB Rotation Offset" "0" (at 175.26 137.16 0)
      (effects (font (size 1.27 1.27)) hide)
    )
    (property "Manufacturer" "" (at 175.26 137.16 0)
      (effects (font (size 1.27 1.27)) hide)
    )
    (property "Part Number" "" (at 175.26 137.16 0)
      (effects (font (size 1.27 1.27)) hide)
    )
    (property "Comments" "" (at 175.26 137.16 0)
      (effects (font (size 1.27 1.27)) hide)
    )
    (pin "1" (uuid 6801726e-b959-4836-82b8-6ae206d69a8f))
    (pin "2" (uuid 985b535b-84bf-402e-a589-8f2ea9f323d1))
    (instances
      (project "ainabulaque"
        (path "/fb55db64-e3db-4107-ae74-40f10a22ee41/6e9525cc-7960-4f54-9da3-655443fe2fbd/37ac3639-6bd5-45b2-aff6-8b355de69c91"
          (reference "C81") (unit 1)
        )
      )
    )
  )

  (symbol (lib_id "Device:C") (at 190.5 137.16 0) (unit 1)
    (in_bom yes) (on_board yes) (dnp no)
    (uuid fb796644-d29f-4f7d-9b27-06a39b5eb066)
    (property "Reference" "C84" (at 189.23 139.7 90)
      (effects (font (size 0.5 0.5)) (justify right))
    )
    (property "Value" "0.1uF 0402" (at 189.23 130.81 90)
      (effects (font (size 0.5 0.5)) (justify right))
    )
    (property "Footprint" "tolikprinter:C_0402_1005Metric" (at 191.4652 140.97 0)
      (effects (font (size 1.27 1.27)) hide)
    )
    (property "Datasheet" "~" (at 190.5 137.16 0)
      (effects (font (size 1.27 1.27)) hide)
    )
    (property "Digikey" "" (at 190.5 137.16 0)
      (effects (font (size 1.27 1.27)) hide)
    )
    (property "JLCPCB" "https://jlcpcb.com/partdetail/1877-CL05B104KO5NNNC/C1525" (at 190.5 137.16 0)
      (effects (font (size 1.27 1.27)) hide)
    )
    (property "JLCPCB Part #" "C1525" (at 190.5 137.16 0)
      (effects (font (size 1.27 1.27)) hide)
    )
    (property "JLCPCB Position Offset" "0.0, 0.0" (at 190.5 137.16 0)
      (effects (font (size 1.27 1.27)) hide)
    )
    (property "JLCPCB Rotation Offset" "0" (at 190.5 137.16 0)
      (effects (font (size 1.27 1.27)) hide)
    )
    (property "Manufacturer" "" (at 190.5 137.16 0)
      (effects (font (size 1.27 1.27)) hide)
    )
    (property "Part Number" "" (at 190.5 137.16 0)
      (effects (font (size 1.27 1.27)) hide)
    )
    (property "Comments" "" (at 190.5 137.16 0)
      (effects (font (size 1.27 1.27)) hide)
    )
    (pin "1" (uuid 3394ad16-774c-43b5-aa17-a9c2ef9b3ab7))
    (pin "2" (uuid e5ea1a67-0da2-40f0-8c0d-0f4fded325c1))
    (instances
      (project "ainabulaque"
        (path "/fb55db64-e3db-4107-ae74-40f10a22ee41/6e9525cc-7960-4f54-9da3-655443fe2fbd/37ac3639-6bd5-45b2-aff6-8b355de69c91"
          (reference "C84") (unit 1)
        )
      )
    )
  )
)
